{
  "__inputs": [

  ],
  "__requires": [

  ],
  "annotations": {
    "list": [
      {
        "builtIn": 1,
        "datasource": "-- Grafana --",
        "enable": true,
        "hide": false,
        "iconColor": "#96D98D",
        "name": "deploy",
        "showIn": 0,
        "tags": [
          "deploy",
          "$environment"
        ],
        "type": "tags"
      },
      {
        "builtIn": 1,
        "datasource": "-- Grafana --",
        "enable": false,
        "hide": false,
        "iconColor": "#FFEE52",
        "name": "canary-deploy",
        "showIn": 0,
        "tags": [
          "deploy",
          "${environment}-cny"
        ],
        "type": "tags"
      },
      {
        "builtIn": 1,
        "datasource": "-- Grafana --",
        "enable": false,
        "hide": false,
        "iconColor": "#CA95E5",
        "name": "feature-flags",
        "showIn": 0,
        "tags": [
          "feature-flag",
          "${environment}"
        ],
        "type": "tags"
      }
    ]
  },
  "description": "Uploaded by https://gitlab.com/gitlab-com/runbooks/-/jobs/5007602057 at Mon Sep  4 05:52:42 UTC 2023",
  "editable": false,
  "gnetId": null,
  "graphTooltip": 1,
  "hideControls": false,
  "id": null,
  "links": [
    {
      "asDropdown": true,
      "icon": "external link",
      "includeVars": false,
      "keepTime": true,
      "tags": "",
      "targetBlank": false,
      "title": "$type service",
      "type": "link",
      "url": "https://dashboards.gitlab.net/d/general-service/service-platform-metrics?orgId=1&var-type=$type"
    },
    {
      "asDropdown": true,
      "icon": "external link",
      "includeVars": true,
      "keepTime": true,
      "tags": [
        "managed",
        "service overview"
      ],
      "targetBlank": false,
      "title": "Service Overview Dashboards",
      "type": "dashboards",
      "url": ""
    },
    {
      "asDropdown": true,
      "icon": "external link",
      "includeVars": false,
      "keepTime": true,
      "tags": "",
      "targetBlank": false,
      "title": "Platform Triage",
      "type": "link",
      "url": "https://dashboards.gitlab.net/d/general-triage/platform-triage?orgId=1"
    },
    {
      "asDropdown": false,
      "icon": "dashboard",
      "includeVars": false,
      "keepTime": false,
      "tags": "type:$type managed",
      "targetBlank": false,
      "title": "Service Dashboards",
      "type": "dashboards",
      "url": ""
    },
    {
      "asDropdown": true,
      "icon": "dashboard",
      "includeVars": true,
      "keepTime": true,
      "tags": "saturationdetail",
      "targetBlank": false,
      "title": "Saturation Detail",
      "type": "dashboards",
      "url": ""
    }
  ],
  "panels": [
    {
      "aliasColors": {
      },
      "bars": false,
      "dashLength": 10,
      "dashes": false,
      "datasource": "$PROMETHEUS_DS",
      "decimals": 2,
      "description": "Risk of DB shutdown in the near future, approaching transaction ID wraparound.\n\nThis is a critical situation.\n\nThis saturation metric measures how close the database is to Transaction ID wraparound.\n\nWhen wraparound occurs, the database will automatically shutdown to prevent data loss, causing a full outage.\n\nRecovery would require entering single-user mode to run vacuum, taking the site down for a potentially multi-hour maintenance session.\n\nTo avoid reaching the db shutdown threshold, consider the following short-term actions:\n\n1. Escalate to the SRE Datastores team, and then,\n\n2. Find and terminate any very old transactions. The runbook for this alert has details.  Do this first.  It is the most critical step and may be all that is necessary to let autovacuum do its job.\n\n3. Run a manual vacuum on tables with oldest relfrozenxid.  Manual vacuums run faster than autovacuum.\n\n4. Add autovacuum workers or reduce autovacuum cost delay, if autovacuum is chronically unable to keep up with the transaction rate.\n\nLong running transaction dashboard: https://dashboards.gitlab.net/d/alerts-long_running_transactions/alerts-long-running-transactions?orgId=1\n Lower is better.",
      "fill": 0,
      "fillGradient": 0,
      "gridPos": {
        "h": 20,
        "w": 18,
        "x": 0,
        "y": 0
      },
      "id": 3666116359,
      "legend": {
        "alignAsTable": true,
        "avg": true,
        "current": true,
        "hideEmpty": true,
        "max": true,
        "min": true,
        "rightSide": false,
        "show": true,
        "sideWidth": null,
        "sort": "max",
        "sortDesc": true,
        "total": false,
        "values": true
      },
      "lines": true,
      "linewidth": 1,
      "links": [

      ],
      "nullPointMode": "null",
      "percentage": false,
      "pointradius": 5,
      "points": false,
      "renderer": "flot",
      "repeat": null,
      "seriesOverrides": [
        {
          "alias": "/^Soft SLO/",
          "color": "#FF4500",
          "dashLength": 4,
          "dashes": true,
          "legend": true,
          "lines": true,
          "linewidth": 2,
          "nullPointMode": "connected",
          "spaceLength": 10,
          "zindex": -2
        },
        {
          "alias": "/^Hard SLO/",
          "color": "#F2495C",
          "dashLength": 4,
          "dashes": true,
          "legend": true,
          "lines": true,
          "linewidth": 4,
          "nullPointMode": "connected",
          "spaceLength": 4,
          "zindex": -2
        },
        {
          "alias": "/aggregated /",
          "color": "#E7D551",
          "linewidth": 2,
          "zindex": 3
        },
        {
          "alias": "/^95th quantile for week/",
          "color": "#37872D",
          "dashLength": 4,
          "dashes": true,
          "legend": true,
          "lines": true,
          "linewidth": 1,
          "nullPointMode": "connected",
          "spaceLength": 10,
          "zindex": -2
        },
        {
          "alias": "/^99th quantile for week/",
          "color": "#56A64B",
          "dashLength": 4,
          "dashes": true,
          "legend": true,
          "lines": true,
          "linewidth": 2,
          "nullPointMode": "connected",
          "spaceLength": 4,
          "zindex": -2
        }
      ],
      "spaceLength": 10,
      "stableId": "saturation-pg_xid_wraparound",
      "stack": false,
      "steppedLine": false,
      "targets": [
        {
          "expr": "clamp_min(\n  clamp_max(\n    max by(environment, tier, type, stage, shard, datname) (\n  clamp_min(\n    clamp_max(\n      (\n        max without (series) (\n          label_replace(pg_database_wraparound_age_datfrozenxid{env=\"$environment\",stage=\"$stage\",type=\"$type\"}, \"series\", \"datfrozenxid\", \"\", \"\")\n          or\n          label_replace(pg_database_wraparound_age_datminmxid{env=\"$environment\",stage=\"$stage\",type=\"$type\"}, \"series\", \"datminmxid\", \"\", \"\")\n        )\n        and on (instance, job) (pg_replication_is_replica{env=\"$environment\",stage=\"$stage\",type=\"$type\"} == 0)\n      )\n      /\n      (2^31 - 10^6)\n      ,\n      1)\n  ,\n  0)\n)\n\n  ,1)\n,0)\n",
          "format": "time_series",
          "interval": "1m",
          "intervalFactor": 1,
          "legendFormat": "{{ datname }}",
          "refId": "A"
        },
        {
          "expr": "clamp_min(\n  clamp_max(\n    max(\n      max_over_time(gitlab_component_saturation:ratio{env=\"$environment\",stage=\"$stage\",type=\"$type\", component=\"pg_xid_wraparound\"}[$__interval])\n    ) by (component)\n  ,1)\n,0)\n",
          "format": "time_series",
          "interval": "1m",
          "intervalFactor": 1,
          "legendFormat": "aggregated {{ component }}",
          "refId": "B"
        },
        {
          "expr": "max(\n  gitlab_component_saturation:ratio_quantile95_1w{env=\"$environment\",stage=\"$stage\",type=\"$type\", component=\"pg_xid_wraparound\"}\n)\n",
          "format": "time_series",
          "interval": "1m",
          "intervalFactor": 1,
          "legendFormat": "95th quantile for week {{ component }}",
          "refId": "C"
        },
        {
          "expr": "max(\n  gitlab_component_saturation:ratio_quantile99_1w{env=\"$environment\",stage=\"$stage\",type=\"$type\", component=\"pg_xid_wraparound\"}\n)\n",
          "format": "time_series",
          "interval": "1m",
          "intervalFactor": 1,
          "legendFormat": "99th quantile for week {{ component }}",
          "refId": "D"
        },
        {
          "expr": "avg(slo:max:soft:gitlab_component_saturation:ratio{component=\"pg_xid_wraparound\"}) by (component)\n",
          "format": "time_series",
          "interval": "1m",
          "intervalFactor": 1,
          "legendFormat": "Soft SLO: {{ component }}",
          "refId": "E"
        },
        {
          "expr": "avg(slo:max:hard:gitlab_component_saturation:ratio{component=\"pg_xid_wraparound\"}) by (component)\n",
          "format": "time_series",
          "interval": "1m",
          "intervalFactor": 1,
          "legendFormat": "Hard SLO: {{ component }}",
          "refId": "F"
        }
      ],
      "thresholds": [

      ],
      "timeFrom": null,
      "timeShift": null,
      "title": "pg_xid_wraparound component saturation: Transaction ID Wraparound",
      "tooltip": {
        "shared": true,
        "sort": 2,
        "value_type": "individual"
      },
      "type": "graph",
      "xaxis": {
        "buckets": null,
        "mode": "time",
        "name": null,
        "show": true,
        "values": [

        ]
      },
      "yaxes": [
        {
          "format": "percentunit",
          "label": "Saturation %",
          "logBase": 1,
          "max": 1,
          "min": null,
          "show": true
        },
        {
          "format": "short",
          "label": null,
          "logBase": 1,
          "max": 1,
          "min": 0,
          "show": false
        }
      ]
    },
    {
      "content": "## Transaction ID Wraparound\n\nRisk of DB shutdown in the near future, approaching transaction ID wraparound.\n\nThis is a critical situation.\n\nThis saturation metric measures how close the database is to Transaction ID wraparound.\n\nWhen wraparound occurs, the database will automatically shutdown to prevent data loss, causing a full outage.\n\nRecovery would require entering single-user mode to run vacuum, taking the site down for a potentially multi-hour maintenance session.\n\nTo avoid reaching the db shutdown threshold, consider the following short-term actions:\n\n1. Escalate to the SRE Datastores team, and then,\n\n2. Find and terminate any very old transactions. The runbook for this alert has details.  Do this first.  It is the most critical step and may be all that is necessary to let autovacuum do its job.\n\n3. Run a manual vacuum on tables with oldest relfrozenxid.  Manual vacuums run faster than autovacuum.\n\n4. Add autovacuum workers or reduce autovacuum cost delay, if autovacuum is chronically unable to keep up with the transaction rate.\n\nLong running transaction dashboard: https://dashboards.gitlab.net/d/alerts-long_running_transactions/alerts-long-running-transactions?orgId=1\n\n\n## What to do from here?\n\n* Check the ${type} service overview dashboard (accessible from the menu above)\n* [Find related issues on GitLab.com](https://gitlab.com/groups/gitlab-com/gl-infra/-/issues?scope=all&state=all&label_name[]=GitLab.com+Resource+Saturation&search=pg_xid_wraparound)\n* [Create an issue in the Infrastructure Tracker](https://gitlab.com/gitlab-com/gl-infra/reliability/-/issues/new?issue[title]=Resource+Saturation:+pg_xid_wraparound&issue[description]=/label+~\"GitLab.com+Resource+Saturation\")\n\nKeep in mind that this is a **causal alert**. This means that this may not neccessarily\nbe leading to user impact. Check the alert list below for active symptom based\nalerts incidating potential user impact.\n",
      "datasource": null,
      "gridPos": {
        "h": 14,
        "w": 6,
        "x": 18,
        "y": 0
      },
      "id": 3,
      "mode": "markdown",
      "title": "Help",
      "type": "text"
    },
    {
      "columns": [

      ],
      "datasource": "$PROMETHEUS_DS",
      "gridPos": {
        "h": 6,
        "w": 6,
        "x": 18,
        "y": 14
      },
      "id": 4,
      "links": [

      ],
      "styles": [
        {
          "alias": "Time",
          "pattern": "Time",
          "type": "hidden"
        },
        {
          "alias": "Alert",
          "decimals": 2,
          "link": true,
          "linkTooltip": "Open alertmanager",
          "linkUrl": "https://alerts.gitlab.net/#/alerts?filter=%7Balertname%3D%22${__cell}%22%2C%20env%3D%22${environment}%22%7D",
          "mappingType": 2,
          "pattern": "alertname",
          "type": "string",
          "unit": "short"
        },
        {
          "alias": "Score",
          "colorMode": "row",
          "colors": [
            "#CCCC00",
            "#CC6600",
            "#CC3300"
          ],
          "decimals": 0,
          "mappingType": 1,
          "pattern": "Value",
          "thresholds": [
            "2",
            "3"
          ],
          "type": "number",
          "unit": "short"
        }
      ],
      "targets": [
        {
          "expr": "sort(\n  max(\n    ALERTS{alert_type=\"symptom\", type=\"${type}\", environment=\"$environment\", severity=\"s1\", alertstate=\"firing\"} * 4\n    or\n    ALERTS{alert_type=\"symptom\", type=\"${type}\", environment=\"$environment\", severity=\"s2\", alertstate=\"firing\"} * 3\n    or\n    ALERTS{alert_type=\"symptom\", type=\"${type}\", environment=\"$environment\", severity=\"s3\", alertstate=\"firing\"} * 2\n    or\n    ALERTS{alert_type=\"symptom\", type=\"${type}\", environment=\"$environment\", alertstate=\"firing\"}\n  ) by (environment, alertname, severity)\n)\n",
          "format": "table",
          "instant": true,
          "interval": "1m",
          "intervalFactor": 1,
          "legendFormat": "",
          "refId": "A"
        }
      ],
      "timeFrom": null,
      "timeShift": null,
      "title": "Potentially User Impacting Alerts",
      "type": "table"
    },
    {
      "content": "Made with ❤️ and [Grafonnet](https://github.com/grafana/grafonnet-lib). [Contribute to this dashboard on GitLab.com](https://gitlab.com/gitlab-com/runbooks/blob/master/dashboards)\n",
      "datasource": null,
      "gridPos": {
        "h": 2,
        "w": 24,
        "x": 0,
        "y": 110000
      },
      "id": 5,
      "mode": "markdown",
      "title": "Source",
      "type": "text"
    }
  ],
  "refresh": "",
  "rows": [

  ],
  "schemaVersion": 16,
  "style": "light",
  "tags": [
    "managed",
    "alerts",
    "alert-target",
    "saturationdetail"
  ],
  "templating": {
    "list": [
      {
        "current": {
          "text": "Global",
          "value": "Global"
        },
        "hide": 0,
        "label": null,
        "name": "PROMETHEUS_DS",
        "options": [

        ],
        "query": "prometheus",
        "refresh": 1,
        "regex": "",
        "type": "datasource"
      },
      {
        "allValue": null,
        "current": {
          "text": "gprd",
          "value": "gprd"
        },
        "datasource": "$PROMETHEUS_DS",
        "hide": 0,
        "includeAll": false,
        "label": null,
        "multi": false,
        "name": "environment",
        "options": [

        ],
        "query": "label_values(gitlab_service_ops:rate, environment)",
        "refresh": 1,
        "regex": "",
        "sort": 1,
        "tagValuesQuery": "",
        "tags": [

        ],
        "tagsQuery": "",
        "type": "query",
        "useTags": false
      },
      {
        "allValue": null,
        "current": {
          "text": "patroni",
          "value": "patroni"
        },
        "datasource": "$PROMETHEUS_DS",
        "hide": 0,
        "includeAll": false,
        "label": null,
        "multi": false,
        "name": "type",
        "options": [

        ],
        "query": "label_values(gitlab_service_ops:rate{environment=\"$environment\"}, type)",
        "refresh": 1,
        "regex": "",
        "sort": 1,
        "tagValuesQuery": "",
        "tags": [

        ],
        "tagsQuery": "",
        "type": "query",
        "useTags": false
      },
      {
        "allValue": null,
        "current": {
          "text": "main",
          "value": "main"
        },
        "hide": 0,
        "includeAll": false,
        "label": "",
        "multi": false,
        "name": "stage",
        "options": [
          {
            "text": "main",
            "value": "main"
          },
          {
            "text": "cny",
            "value": "cny"
          },
          {
            "text": "",
            "value": ""
          }
        ],
        "query": "main,cny,",
        "refresh": 0,
        "type": "custom"
      }
    ]
  },
  "time": {
    "from": "now-6h/m",
    "to": "now/m"
  },
  "timepicker": {
    "refresh_intervals": [
      "1m",
      "5m",
      "10m",
      "15m",
      "30m"
    ],
    "time_options": [
      "5m",
      "15m",
      "1h",
      "6h",
      "12h",
      "24h",
      "2d",
      "7d",
      "30d"
    ]
  },
  "timezone": "utc",
  "title": "alerts: pg xid wraparound: Saturation Detail",
  "uid": "alerts-sat_pg_xid_wraparound",
  "version": 2452
}