{
  "__inputs": [

  ],
  "__requires": [

  ],
  "annotations": {
    "list": [
      {
        "builtIn": 1,
        "datasource": "-- Grafana --",
        "enable": true,
        "hide": false,
        "iconColor": "#96D98D",
        "name": "deploy",
        "showIn": 0,
        "tags": [
          "deploy",
          "$environment"
        ],
        "type": "tags"
      },
      {
        "builtIn": 1,
        "datasource": "-- Grafana --",
        "enable": false,
        "hide": false,
        "iconColor": "#FFEE52",
        "name": "canary-deploy",
        "showIn": 0,
        "tags": [
          "deploy",
          "${environment}-cny"
        ],
        "type": "tags"
      },
      {
        "builtIn": 1,
        "datasource": "-- Grafana --",
        "enable": false,
        "hide": false,
        "iconColor": "#CA95E5",
        "name": "feature-flags",
        "showIn": 0,
        "tags": [
          "feature-flag",
          "${environment}"
        ],
        "type": "tags"
      }
    ]
  },
  "description": "Uploaded by https://gitlab.com/gitlab-com/runbooks/-/jobs/5007602057 at Mon Sep  4 05:52:14 UTC 2023",
  "editable": false,
  "gnetId": null,
  "graphTooltip": 1,
  "hideControls": false,
  "id": null,
  "links": [
    {
      "asDropdown": true,
      "icon": "external link",
      "includeVars": false,
      "keepTime": true,
      "tags": "",
      "targetBlank": false,
      "title": "Platform Triage",
      "type": "link",
      "url": "https://dashboards.gitlab.net/d/general-triage/platform-triage?orgId=1"
    },
    {
      "asDropdown": true,
      "icon": "external link",
      "includeVars": true,
      "keepTime": true,
      "tags": [
        "managed",
        "service overview"
      ],
      "targetBlank": false,
      "title": "Service Overview Dashboards",
      "type": "dashboards",
      "url": ""
    },
    {
      "asDropdown": true,
      "icon": "dashboard",
      "includeVars": true,
      "keepTime": true,
      "tags": "type:cloud-sql",
      "targetBlank": false,
      "title": "cloud-sql Detail",
      "type": "dashboards",
      "url": ""
    },
    {
      "asDropdown": true,
      "icon": "external link",
      "includeVars": true,
      "keepTime": true,
      "tags": [
        "managed",
        "type:cloud-sql",
        "kube detail"
      ],
      "targetBlank": false,
      "title": "☸️ cloud-sql Kubernetes Detail",
      "type": "dashboards",
      "url": ""
    }
  ],
  "panels": [
    {
      "collapse": false,
      "collapsed": false,
      "gridPos": {
        "h": 1,
        "w": 24,
        "x": 0,
        "y": 0
      },
      "id": 2,
      "panels": [

      ],
      "repeat": null,
      "repeatIteration": null,
      "repeatRowId": null,
      "showTitle": true,
      "title": "🌡️ Aggregated Service Level Indicators (𝙎𝙇𝙄𝙨)",
      "titleSize": "h6",
      "type": "row"
    },
    {
      "bars": false,
      "dashLength": 10,
      "dashes": false,
      "datasource": "$PROMETHEUS_DS",
      "decimals": 2,
      "description": "Saturation is a measure of what ratio of a finite resource is currently being utilized. Lower is better.",
      "fill": 0,
      "fillGradient": 0,
      "gridPos": {
        "h": 8,
        "w": 24,
        "x": 0,
        "y": 1
      },
      "id": 1217942947,
      "legend": {
        "alignAsTable": true,
        "avg": true,
        "current": true,
        "hideEmpty": true,
        "max": true,
        "min": true,
        "rightSide": false,
        "show": false,
        "total": false,
        "values": true
      },
      "lines": true,
      "linewidth": 1,
      "nullPointMode": "null",
      "percentage": false,
      "pointradius": 5,
      "points": false,
      "renderer": "flot",
      "spaceLength": 10,
      "stableId": "service-utilization",
      "stack": false,
      "steppedLine": false,
      "targets": [
        {
          "expr": "max(\n  max_over_time(\n    gitlab_component_saturation:ratio{env=\"$environment\",environment=\"$environment\",stage=\"$stage\",type=\"cloud-sql\"}[$__interval]\n  )\n) by (component)\n",
          "format": "time_series",
          "interval": "1m",
          "intervalFactor": 1,
          "legendFormat": "{{ component }} component",
          "refId": "A"
        }
      ],
      "title": "Saturation",
      "tooltip": {
        "shared": true,
        "sort": 2,
        "value_type": "individual"
      },
      "type": "graph",
      "xaxis": {
        "mode": "time",
        "show": true
      },
      "yaxes": [
        {
          "format": "percentunit",
          "label": "",
          "logBase": 1,
          "max": 1,
          "show": true
        },
        {
          "format": "short",
          "logBase": 1,
          "max": 1,
          "min": 0,
          "show": false
        }
      ]
    },
    {
      "collapse": false,
      "collapsed": false,
      "gridPos": {
        "h": 1,
        "w": 24,
        "x": 0,
        "y": 20
      },
      "id": 4,
      "panels": [

      ],
      "repeat": null,
      "repeatIteration": null,
      "repeatRowId": null,
      "showTitle": true,
      "title": "🔬 Service Level Indicators",
      "titleSize": "h6",
      "type": "row"
    },
    {
      "collapse": true,
      "collapsed": true,
      "gridPos": {
        "h": 1,
        "w": 24,
        "x": 0,
        "y": 500
      },
      "id": 5,
      "panels": [
        {
          "aliasColors": {
          },
          "bars": false,
          "dashLength": 10,
          "dashes": false,
          "datasource": "$PROMETHEUS_DS",
          "decimals": 2,
          "description": "CloudSQL CPU utilization.\n\nSee https://cloud.google.com/monitoring/api/metrics_gcp#gcp-cloudsql for\nmore details\n Lower is better.",
          "fill": 0,
          "fillGradient": 0,
          "gridPos": {
            "h": 10,
            "w": 12,
            "x": 0,
            "y": 0
          },
          "id": 3017284519,
          "legend": {
            "alignAsTable": true,
            "avg": true,
            "current": true,
            "hideEmpty": true,
            "max": true,
            "min": true,
            "rightSide": false,
            "show": true,
            "sideWidth": null,
            "sort": "max",
            "sortDesc": true,
            "total": false,
            "values": true
          },
          "lines": true,
          "linewidth": 1,
          "links": [

          ],
          "nullPointMode": "null",
          "percentage": false,
          "pointradius": 5,
          "points": false,
          "renderer": "flot",
          "repeat": null,
          "seriesOverrides": [
            {
              "alias": "/^Soft SLO/",
              "color": "#FF4500",
              "dashLength": 4,
              "dashes": true,
              "legend": true,
              "lines": true,
              "linewidth": 2,
              "nullPointMode": "connected",
              "spaceLength": 10,
              "zindex": -2
            },
            {
              "alias": "/^Hard SLO/",
              "color": "#F2495C",
              "dashLength": 4,
              "dashes": true,
              "legend": true,
              "lines": true,
              "linewidth": 4,
              "nullPointMode": "connected",
              "spaceLength": 4,
              "zindex": -2
            },
            {
              "alias": "/aggregated /",
              "color": "#E7D551",
              "linewidth": 2,
              "zindex": 3
            },
            {
              "alias": "/^95th quantile for week/",
              "color": "#37872D",
              "dashLength": 4,
              "dashes": true,
              "legend": true,
              "lines": true,
              "linewidth": 1,
              "nullPointMode": "connected",
              "spaceLength": 10,
              "zindex": -2
            },
            {
              "alias": "/^99th quantile for week/",
              "color": "#56A64B",
              "dashLength": 4,
              "dashes": true,
              "legend": true,
              "lines": true,
              "linewidth": 2,
              "nullPointMode": "connected",
              "spaceLength": 4,
              "zindex": -2
            }
          ],
          "spaceLength": 10,
          "stableId": "saturation-cloudsql_cpu",
          "stack": false,
          "steppedLine": false,
          "targets": [
            {
              "expr": "clamp_min(\n  clamp_max(\n    max by(environment, shard, database_id) (\n  clamp_min(\n    clamp_max(\n      avg_over_time(stackdriver_cloudsql_database_cloudsql_googleapis_com_database_cpu_utilization{env=\"$environment\",environment=\"$environment\",stage=\"$stage\",type=\"cloud-sql\"}[5m])\n      ,\n      1)\n  ,\n  0)\n)\n\n  ,1)\n,0)\n",
              "format": "time_series",
              "interval": "1m",
              "intervalFactor": 1,
              "legendFormat": "{{ database_id }}",
              "refId": "A"
            },
            {
              "expr": "clamp_min(\n  clamp_max(\n    max(\n      max_over_time(gitlab_component_saturation:ratio{env=\"$environment\",environment=\"$environment\",stage=\"$stage\",type=\"cloud-sql\", component=\"cloudsql_cpu\"}[$__interval])\n    ) by (component)\n  ,1)\n,0)\n",
              "format": "time_series",
              "interval": "1m",
              "intervalFactor": 1,
              "legendFormat": "aggregated {{ component }}",
              "refId": "B"
            },
            {
              "expr": "max(\n  gitlab_component_saturation:ratio_quantile95_1w{env=\"$environment\",environment=\"$environment\",stage=\"$stage\",type=\"cloud-sql\", component=\"cloudsql_cpu\"}\n)\n",
              "format": "time_series",
              "interval": "1m",
              "intervalFactor": 1,
              "legendFormat": "95th quantile for week {{ component }}",
              "refId": "C"
            },
            {
              "expr": "max(\n  gitlab_component_saturation:ratio_quantile99_1w{env=\"$environment\",environment=\"$environment\",stage=\"$stage\",type=\"cloud-sql\", component=\"cloudsql_cpu\"}\n)\n",
              "format": "time_series",
              "interval": "1m",
              "intervalFactor": 1,
              "legendFormat": "99th quantile for week {{ component }}",
              "refId": "D"
            },
            {
              "expr": "avg(slo:max:soft:gitlab_component_saturation:ratio{component=\"cloudsql_cpu\"}) by (component)\n",
              "format": "time_series",
              "interval": "1m",
              "intervalFactor": 1,
              "legendFormat": "Soft SLO: {{ component }}",
              "refId": "E"
            },
            {
              "expr": "avg(slo:max:hard:gitlab_component_saturation:ratio{component=\"cloudsql_cpu\"}) by (component)\n",
              "format": "time_series",
              "interval": "1m",
              "intervalFactor": 1,
              "legendFormat": "Hard SLO: {{ component }}",
              "refId": "F"
            }
          ],
          "thresholds": [

          ],
          "timeFrom": null,
          "timeShift": null,
          "title": "cloudsql_cpu component saturation: CloudSQL CPU Utilization",
          "tooltip": {
            "shared": true,
            "sort": 2,
            "value_type": "individual"
          },
          "type": "graph",
          "xaxis": {
            "buckets": null,
            "mode": "time",
            "name": null,
            "show": true,
            "values": [

            ]
          },
          "yaxes": [
            {
              "format": "percentunit",
              "label": "Saturation %",
              "logBase": 1,
              "max": 1,
              "min": null,
              "show": true
            },
            {
              "format": "short",
              "label": null,
              "logBase": 1,
              "max": 1,
              "min": 0,
              "show": false
            }
          ]
        },
        {
          "aliasColors": {
          },
          "bars": false,
          "dashLength": 10,
          "dashes": false,
          "datasource": "$PROMETHEUS_DS",
          "decimals": 2,
          "description": "CloudSQL Disk utilization.\n\nSee https://cloud.google.com/monitoring/api/metrics_gcp#gcp-cloudsql for\nmore details\n Lower is better.",
          "fill": 0,
          "fillGradient": 0,
          "gridPos": {
            "h": 10,
            "w": 12,
            "x": 12,
            "y": 0
          },
          "id": 2351208402,
          "legend": {
            "alignAsTable": true,
            "avg": true,
            "current": true,
            "hideEmpty": true,
            "max": true,
            "min": true,
            "rightSide": false,
            "show": true,
            "sideWidth": null,
            "sort": "max",
            "sortDesc": true,
            "total": false,
            "values": true
          },
          "lines": true,
          "linewidth": 1,
          "links": [

          ],
          "nullPointMode": "null",
          "percentage": false,
          "pointradius": 5,
          "points": false,
          "renderer": "flot",
          "repeat": null,
          "seriesOverrides": [
            {
              "alias": "/^Soft SLO/",
              "color": "#FF4500",
              "dashLength": 4,
              "dashes": true,
              "legend": true,
              "lines": true,
              "linewidth": 2,
              "nullPointMode": "connected",
              "spaceLength": 10,
              "zindex": -2
            },
            {
              "alias": "/^Hard SLO/",
              "color": "#F2495C",
              "dashLength": 4,
              "dashes": true,
              "legend": true,
              "lines": true,
              "linewidth": 4,
              "nullPointMode": "connected",
              "spaceLength": 4,
              "zindex": -2
            },
            {
              "alias": "/aggregated /",
              "color": "#E7D551",
              "linewidth": 2,
              "zindex": 3
            },
            {
              "alias": "/^95th quantile for week/",
              "color": "#37872D",
              "dashLength": 4,
              "dashes": true,
              "legend": true,
              "lines": true,
              "linewidth": 1,
              "nullPointMode": "connected",
              "spaceLength": 10,
              "zindex": -2
            },
            {
              "alias": "/^99th quantile for week/",
              "color": "#56A64B",
              "dashLength": 4,
              "dashes": true,
              "legend": true,
              "lines": true,
              "linewidth": 2,
              "nullPointMode": "connected",
              "spaceLength": 4,
              "zindex": -2
            }
          ],
          "spaceLength": 10,
          "stableId": "saturation-cloudsql_disk",
          "stack": false,
          "steppedLine": false,
          "targets": [
            {
              "expr": "clamp_min(\n  clamp_max(\n    max by(environment, shard, database_id) (\n  clamp_min(\n    clamp_max(\n      avg_over_time(stackdriver_cloudsql_database_cloudsql_googleapis_com_database_disk_utilization{env=\"$environment\",environment=\"$environment\",stage=\"$stage\",type=\"cloud-sql\"}[5m])\n      ,\n      1)\n  ,\n  0)\n)\n\n  ,1)\n,0)\n",
              "format": "time_series",
              "interval": "1m",
              "intervalFactor": 1,
              "legendFormat": "{{ database_id }}",
              "refId": "A"
            },
            {
              "expr": "clamp_min(\n  clamp_max(\n    max(\n      max_over_time(gitlab_component_saturation:ratio{env=\"$environment\",environment=\"$environment\",stage=\"$stage\",type=\"cloud-sql\", component=\"cloudsql_disk\"}[$__interval])\n    ) by (component)\n  ,1)\n,0)\n",
              "format": "time_series",
              "interval": "1m",
              "intervalFactor": 1,
              "legendFormat": "aggregated {{ component }}",
              "refId": "B"
            },
            {
              "expr": "max(\n  gitlab_component_saturation:ratio_quantile95_1w{env=\"$environment\",environment=\"$environment\",stage=\"$stage\",type=\"cloud-sql\", component=\"cloudsql_disk\"}\n)\n",
              "format": "time_series",
              "interval": "1m",
              "intervalFactor": 1,
              "legendFormat": "95th quantile for week {{ component }}",
              "refId": "C"
            },
            {
              "expr": "max(\n  gitlab_component_saturation:ratio_quantile99_1w{env=\"$environment\",environment=\"$environment\",stage=\"$stage\",type=\"cloud-sql\", component=\"cloudsql_disk\"}\n)\n",
              "format": "time_series",
              "interval": "1m",
              "intervalFactor": 1,
              "legendFormat": "99th quantile for week {{ component }}",
              "refId": "D"
            },
            {
              "expr": "avg(slo:max:soft:gitlab_component_saturation:ratio{component=\"cloudsql_disk\"}) by (component)\n",
              "format": "time_series",
              "interval": "1m",
              "intervalFactor": 1,
              "legendFormat": "Soft SLO: {{ component }}",
              "refId": "E"
            },
            {
              "expr": "avg(slo:max:hard:gitlab_component_saturation:ratio{component=\"cloudsql_disk\"}) by (component)\n",
              "format": "time_series",
              "interval": "1m",
              "intervalFactor": 1,
              "legendFormat": "Hard SLO: {{ component }}",
              "refId": "F"
            }
          ],
          "thresholds": [

          ],
          "timeFrom": null,
          "timeShift": null,
          "title": "cloudsql_disk component saturation: CloudSQL Disk Utilization",
          "tooltip": {
            "shared": true,
            "sort": 2,
            "value_type": "individual"
          },
          "type": "graph",
          "xaxis": {
            "buckets": null,
            "mode": "time",
            "name": null,
            "show": true,
            "values": [

            ]
          },
          "yaxes": [
            {
              "format": "percentunit",
              "label": "Saturation %",
              "logBase": 1,
              "max": 1,
              "min": null,
              "show": true
            },
            {
              "format": "short",
              "label": null,
              "logBase": 1,
              "max": 1,
              "min": 0,
              "show": false
            }
          ]
        },
        {
          "aliasColors": {
          },
          "bars": false,
          "dashLength": 10,
          "dashes": false,
          "datasource": "$PROMETHEUS_DS",
          "decimals": 2,
          "description": "CloudSQL Memory utilization.\n\nSee https://cloud.google.com/monitoring/api/metrics_gcp#gcp-cloudsql for\nmore details\n Lower is better.",
          "fill": 0,
          "fillGradient": 0,
          "gridPos": {
            "h": 10,
            "w": 12,
            "x": 0,
            "y": 10
          },
          "id": 395749012,
          "legend": {
            "alignAsTable": true,
            "avg": true,
            "current": true,
            "hideEmpty": true,
            "max": true,
            "min": true,
            "rightSide": false,
            "show": true,
            "sideWidth": null,
            "sort": "max",
            "sortDesc": true,
            "total": false,
            "values": true
          },
          "lines": true,
          "linewidth": 1,
          "links": [

          ],
          "nullPointMode": "null",
          "percentage": false,
          "pointradius": 5,
          "points": false,
          "renderer": "flot",
          "repeat": null,
          "seriesOverrides": [
            {
              "alias": "/^Soft SLO/",
              "color": "#FF4500",
              "dashLength": 4,
              "dashes": true,
              "legend": true,
              "lines": true,
              "linewidth": 2,
              "nullPointMode": "connected",
              "spaceLength": 10,
              "zindex": -2
            },
            {
              "alias": "/^Hard SLO/",
              "color": "#F2495C",
              "dashLength": 4,
              "dashes": true,
              "legend": true,
              "lines": true,
              "linewidth": 4,
              "nullPointMode": "connected",
              "spaceLength": 4,
              "zindex": -2
            },
            {
              "alias": "/aggregated /",
              "color": "#E7D551",
              "linewidth": 2,
              "zindex": 3
            },
            {
              "alias": "/^95th quantile for week/",
              "color": "#37872D",
              "dashLength": 4,
              "dashes": true,
              "legend": true,
              "lines": true,
              "linewidth": 1,
              "nullPointMode": "connected",
              "spaceLength": 10,
              "zindex": -2
            },
            {
              "alias": "/^99th quantile for week/",
              "color": "#56A64B",
              "dashLength": 4,
              "dashes": true,
              "legend": true,
              "lines": true,
              "linewidth": 2,
              "nullPointMode": "connected",
              "spaceLength": 4,
              "zindex": -2
            }
          ],
          "spaceLength": 10,
          "stableId": "saturation-cloudsql_memory",
          "stack": false,
          "steppedLine": false,
          "targets": [
            {
              "expr": "clamp_min(\n  clamp_max(\n    max by(environment, shard, database_id) (\n  clamp_min(\n    clamp_max(\n      avg_over_time(stackdriver_cloudsql_database_cloudsql_googleapis_com_database_memory_utilization{env=\"$environment\",environment=\"$environment\",stage=\"$stage\",type=\"cloud-sql\"}[5m])\n      ,\n      1)\n  ,\n  0)\n)\n\n  ,1)\n,0)\n",
              "format": "time_series",
              "interval": "1m",
              "intervalFactor": 1,
              "legendFormat": "{{ database_id }}",
              "refId": "A"
            },
            {
              "expr": "clamp_min(\n  clamp_max(\n    max(\n      max_over_time(gitlab_component_saturation:ratio{env=\"$environment\",environment=\"$environment\",stage=\"$stage\",type=\"cloud-sql\", component=\"cloudsql_memory\"}[$__interval])\n    ) by (component)\n  ,1)\n,0)\n",
              "format": "time_series",
              "interval": "1m",
              "intervalFactor": 1,
              "legendFormat": "aggregated {{ component }}",
              "refId": "B"
            },
            {
              "expr": "max(\n  gitlab_component_saturation:ratio_quantile95_1w{env=\"$environment\",environment=\"$environment\",stage=\"$stage\",type=\"cloud-sql\", component=\"cloudsql_memory\"}\n)\n",
              "format": "time_series",
              "interval": "1m",
              "intervalFactor": 1,
              "legendFormat": "95th quantile for week {{ component }}",
              "refId": "C"
            },
            {
              "expr": "max(\n  gitlab_component_saturation:ratio_quantile99_1w{env=\"$environment\",environment=\"$environment\",stage=\"$stage\",type=\"cloud-sql\", component=\"cloudsql_memory\"}\n)\n",
              "format": "time_series",
              "interval": "1m",
              "intervalFactor": 1,
              "legendFormat": "99th quantile for week {{ component }}",
              "refId": "D"
            },
            {
              "expr": "avg(slo:max:soft:gitlab_component_saturation:ratio{component=\"cloudsql_memory\"}) by (component)\n",
              "format": "time_series",
              "interval": "1m",
              "intervalFactor": 1,
              "legendFormat": "Soft SLO: {{ component }}",
              "refId": "E"
            },
            {
              "expr": "avg(slo:max:hard:gitlab_component_saturation:ratio{component=\"cloudsql_memory\"}) by (component)\n",
              "format": "time_series",
              "interval": "1m",
              "intervalFactor": 1,
              "legendFormat": "Hard SLO: {{ component }}",
              "refId": "F"
            }
          ],
          "thresholds": [

          ],
          "timeFrom": null,
          "timeShift": null,
          "title": "cloudsql_memory component saturation: CloudSQL Memory Utilization",
          "tooltip": {
            "shared": true,
            "sort": 2,
            "value_type": "individual"
          },
          "type": "graph",
          "xaxis": {
            "buckets": null,
            "mode": "time",
            "name": null,
            "show": true,
            "values": [

            ]
          },
          "yaxes": [
            {
              "format": "percentunit",
              "label": "Saturation %",
              "logBase": 1,
              "max": 1,
              "min": null,
              "show": true
            },
            {
              "format": "short",
              "label": null,
              "logBase": 1,
              "max": 1,
              "min": 0,
              "show": false
            }
          ]
        }
      ],
      "repeat": null,
      "repeatIteration": null,
      "repeatRowId": null,
      "showTitle": true,
      "title": "🌡 Saturation Details",
      "titleSize": "h6",
      "type": "row"
    },
    {
      "collapse": true,
      "collapsed": true,
      "gridPos": {
        "x": 0,
        "y": 100010
      },
      "id": 9,
      "panels": [
        {
          "colors": [
            "rgba(50, 172, 45, 0.97)",
            "rgba(237, 129, 40, 0.89)",
            "rgba(245, 54, 54, 0.9)"
          ],
          "composites": [

          ],
          "datasource": "$PROMETHEUS_DS",
          "decimals": 3,
          "format": "percentunit",
          "graphId": "diagram_errors",
          "gridPos": {
            "h": 10,
            "w": 24,
            "x": 0,
            "y": 0
          },
          "id": 10,
          "init": {
            "arrowMarkerAbsolute": true,
            "cloneCssStyles": true,
            "flowchart": {
              "htmlLabels": true,
              "useMaxWidth": true
            },
            "gantt": {
              "barGap": 4,
              "barHeight": 20,
              "fontFamily": "\"Open-Sans\", \"sans-serif\"",
              "fontSize": 11,
              "gridLineStartPadding": 35,
              "leftPadding": 75,
              "numberSectionStyles": 3,
              "titleTopMargin": 25,
              "topPadding": 50
            },
            "logLevel": 3,
            "sequenceDiagram": {
              "actorMargin": 50,
              "bottomMarginAdj": 1,
              "boxMargin": 10,
              "boxTextMargin": 5,
              "diagramMarginX": 50,
              "diagramMarginY": 10,
              "height": 65,
              "messageMargin": 35,
              "mirrorActors": true,
              "noteMargin": 10,
              "useMaxWidth": true,
              "width": 150
            },
            "startOnLoad": false
          },
          "interval": "",
          "legend": {
            "avg": true,
            "current": true,
            "gradient": {
              "enabled": true,
              "show": true
            },
            "max": true,
            "min": true,
            "show": false,
            "total": true
          },
          "mappingType": 1,
          "mappingTypes": [

          ],
          "maxDataPoints": 100,
          "maxWidth": false,
          "mermaidServiceUrl": "",
          "metricCharacterReplacements": [

          ],
          "moddedSeriesVal": 0,
          "mode": "content",
          "nullPointMode": "connected",
          "options": {
            "content": "graph TD\n  subgraph db\n  cloud-sql\nend\n\n\n  \n"
          },
          "seriesOverrides": [

          ],
          "style": "",
          "targets": [
            {
              "expr": "clamp_max(\n  max_over_time(gitlab_service_errors:ratio_5m{environment=\"$environment\",monitor=\"global\",stage=\"$stage\"}[$__range])\n,\n  1\n)\n",
              "format": "time_series",
              "instant": true,
              "interval": "1m",
              "intervalFactor": 1,
              "legendFormat": "{{ type }}"
            }
          ],
          "thresholds": "0,0.001",
          "title": "System Diagram (Keyed by Error Rates)",
          "type": "jdbranham-diagram-panel",
          "valueMaps": [

          ],
          "valueName": "current",
          "valueOptions": [
            "avg",
            "min",
            "max",
            "total",
            "current"
          ]
        },
        {
          "colors": [
            "rgba(245, 54, 54, 0.9)",
            "#FF9830",
            "#73BF69"
          ],
          "composites": [

          ],
          "datasource": "$PROMETHEUS_DS",
          "decimals": 3,
          "format": "percentunit",
          "graphId": "diagram_apdex",
          "gridPos": {
            "h": 10,
            "w": 24,
            "x": 0,
            "y": 10
          },
          "id": 11,
          "init": {
            "arrowMarkerAbsolute": true,
            "cloneCssStyles": true,
            "flowchart": {
              "htmlLabels": true,
              "useMaxWidth": true
            },
            "gantt": {
              "barGap": 4,
              "barHeight": 20,
              "fontFamily": "\"Open-Sans\", \"sans-serif\"",
              "fontSize": 11,
              "gridLineStartPadding": 35,
              "leftPadding": 75,
              "numberSectionStyles": 3,
              "titleTopMargin": 25,
              "topPadding": 50
            },
            "logLevel": 3,
            "sequenceDiagram": {
              "actorMargin": 50,
              "bottomMarginAdj": 1,
              "boxMargin": 10,
              "boxTextMargin": 5,
              "diagramMarginX": 50,
              "diagramMarginY": 10,
              "height": 65,
              "messageMargin": 35,
              "mirrorActors": true,
              "noteMargin": 10,
              "useMaxWidth": true,
              "width": 150
            },
            "startOnLoad": false
          },
          "interval": "",
          "legend": {
            "avg": true,
            "current": true,
            "gradient": {
              "enabled": true,
              "show": true
            },
            "max": true,
            "min": true,
            "show": false,
            "total": true
          },
          "mappingType": 1,
          "mappingTypes": [

          ],
          "maxDataPoints": 100,
          "maxWidth": false,
          "mermaidServiceUrl": "",
          "metricCharacterReplacements": [

          ],
          "moddedSeriesVal": 0,
          "mode": "content",
          "nullPointMode": "connected",
          "options": {
            "content": "graph TD\n  subgraph db\n  cloud-sql\nend\n\n\n  \n"
          },
          "seriesOverrides": [

          ],
          "style": "",
          "targets": [
            {
              "expr": "min_over_time(gitlab_service_apdex:ratio_5m{environment=\"$environment\",monitor=\"global\",stage=\"$stage\"}[$__range])\n",
              "format": "time_series",
              "instant": true,
              "interval": "1m",
              "intervalFactor": 1,
              "legendFormat": "{{ type }}"
            }
          ],
          "thresholds": "0.99,0.995,0.999",
          "title": "System Diagram (Keyed by Apdex/Latency Scores)",
          "type": "jdbranham-diagram-panel",
          "valueMaps": [

          ],
          "valueName": "current",
          "valueOptions": [
            "avg",
            "min",
            "max",
            "total",
            "current"
          ]
        },
        {
          "colors": [

          ],
          "composites": [

          ],
          "datasource": "$PROMETHEUS_DS",
          "decimals": 3,
          "format": "percentunit",
          "graphId": "diagram_maturity",
          "gridPos": {
            "h": 10,
            "w": 24,
            "x": 0,
            "y": 20
          },
          "id": 12,
          "init": {
            "arrowMarkerAbsolute": true,
            "cloneCssStyles": true,
            "flowchart": {
              "htmlLabels": true,
              "useMaxWidth": true
            },
            "gantt": {
              "barGap": 4,
              "barHeight": 20,
              "fontFamily": "\"Open-Sans\", \"sans-serif\"",
              "fontSize": 11,
              "gridLineStartPadding": 35,
              "leftPadding": 75,
              "numberSectionStyles": 3,
              "titleTopMargin": 25,
              "topPadding": 50
            },
            "logLevel": 3,
            "sequenceDiagram": {
              "actorMargin": 50,
              "bottomMarginAdj": 1,
              "boxMargin": 10,
              "boxTextMargin": 5,
              "diagramMarginX": 50,
              "diagramMarginY": 10,
              "height": 65,
              "messageMargin": 35,
              "mirrorActors": true,
              "noteMargin": 10,
              "useMaxWidth": true,
              "width": 150
            },
            "startOnLoad": false
          },
          "interval": "",
          "legend": {
            "avg": true,
            "current": true,
            "gradient": {
              "enabled": true,
              "show": true
            },
            "max": true,
            "min": true,
            "show": false,
            "total": true
          },
          "mappingType": 1,
          "mappingTypes": [

          ],
          "maxDataPoints": 100,
          "maxWidth": false,
          "mermaidServiceUrl": "",
          "metricCharacterReplacements": [

          ],
          "moddedSeriesVal": 0,
          "mode": "content",
          "nullPointMode": "connected",
          "options": {
            "content": "graph TD\n  subgraph db\n  cloud-sql[\"cloud-sql (Level 1)\"]\nend\n\n\n  \n"
          },
          "seriesOverrides": [

          ],
          "style": "",
          "targets": [

          ],
          "thresholds": "",
          "title": "System Diagram (Keyed by Maturity Model)",
          "type": "jdbranham-diagram-panel",
          "valueMaps": [

          ],
          "valueName": "current",
          "valueOptions": [
            "avg",
            "min",
            "max",
            "total",
            "current"
          ]
        }
      ],
      "repeat": null,
      "repeatIteration": null,
      "repeatRowId": null,
      "showTitle": true,
      "title": "🗺️ System Diagrams",
      "titleSize": "h6",
      "type": "row"
    },
    {
      "content": "Made with ❤️ and [Grafonnet](https://github.com/grafana/grafonnet-lib). [Contribute to this dashboard on GitLab.com](https://gitlab.com/gitlab-com/runbooks/blob/master/dashboards)\n",
      "datasource": null,
      "gridPos": {
        "h": 2,
        "w": 24,
        "x": 0,
        "y": 110000
      },
      "id": 13,
      "mode": "markdown",
      "title": "Source",
      "type": "text"
    }
  ],
  "refresh": "",
  "rows": [

  ],
  "schemaVersion": 16,
  "style": "light",
  "tags": [
    "managed",
    "cloud-sql",
    "gitlab",
    "type:cloud-sql",
    "cloud-sql",
    "service overview"
  ],
  "templating": {
    "list": [
      {
        "current": {
          "text": "Global",
          "value": "Global"
        },
        "hide": 0,
        "label": null,
        "name": "PROMETHEUS_DS",
        "options": [

        ],
        "query": "prometheus",
        "refresh": 1,
        "regex": "",
        "type": "datasource"
      },
      {
        "allValue": null,
        "current": {
          "text": "gprd",
          "value": "gprd"
        },
        "datasource": "$PROMETHEUS_DS",
        "hide": 0,
        "includeAll": false,
        "label": null,
        "multi": false,
        "name": "environment",
        "options": [

        ],
        "query": "label_values(gitlab_service_ops:rate, environment)",
        "refresh": 1,
        "regex": "",
        "sort": 1,
        "tagValuesQuery": "",
        "tags": [

        ],
        "tagsQuery": "",
        "type": "query",
        "useTags": false
      },
      {
        "allValue": null,
        "current": {
          "text": "main",
          "value": "main"
        },
        "hide": 0,
        "includeAll": false,
        "label": "",
        "multi": false,
        "name": "stage",
        "options": [
          {
            "text": "main",
            "value": "main"
          },
          {
            "text": "cny",
            "value": "cny"
          },
          {
            "text": "",
            "value": ""
          }
        ],
        "query": "main,cny,",
        "refresh": 0,
        "type": "custom"
      }
    ]
  },
  "time": {
    "from": "now-6h/m",
    "to": "now/m"
  },
  "timepicker": {
    "refresh_intervals": [
      "1m",
      "5m",
      "10m",
      "15m",
      "30m"
    ],
    "time_options": [
      "5m",
      "15m",
      "1h",
      "6h",
      "12h",
      "24h",
      "2d",
      "7d",
      "30d"
    ]
  },
  "timezone": "utc",
  "title": "cloud-sql: Overview",
  "uid": "cloud-sql-main",
  "version": 1694
}