{
  "__inputs": [

  ],
  "__requires": [

  ],
  "annotations": {
    "list": [
      {
        "datasource": "-- Grafana --",
        "enable": false,
        "hide": false,
        "iconColor": "#19730E",
        "name": "Production deploys",
        "showIn": 0,
        "tags": [
          "deploy",
          "gprd"
        ],
        "type": "tags"
      },
      {
        "datasource": "-- Grafana --",
        "enable": false,
        "hide": false,
        "iconColor": "#E08400",
        "name": "Canary deploys",
        "showIn": 0,
        "tags": [
          "deploy",
          "gprd-cny"
        ],
        "type": "tags"
      },
      {
        "datasource": "-- Grafana --",
        "enable": false,
        "hide": false,
        "iconColor": "#5794F2",
        "name": "Staging deploys",
        "showIn": 0,
        "tags": [
          "deploy",
          "gstg"
        ],
        "type": "tags"
      },
      {
        "datasource": "-- Grafana --",
        "enable": false,
        "hide": false,
        "iconColor": "#8F3BB8",
        "name": "Staging Canary deploys",
        "showIn": 0,
        "tags": [
          "deploy",
          "gstg-cny"
        ],
        "type": "tags"
      }
    ]
  },
  "description": "Uploaded by https://gitlab.com/gitlab-com/runbooks/-/jobs/5007602057 at Mon Sep  4 05:56:33 UTC 2023",
  "editable": true,
  "gnetId": null,
  "graphTooltip": 1,
  "hideControls": false,
  "id": null,
  "links": [

  ],
  "panels": [
    {
      "collapse": false,
      "collapsed": false,
      "gridPos": {
        "h": 8,
        "w": 24,
        "x": 0,
        "y": 0
      },
      "id": 2,
      "panels": [

      ],
      "repeat": null,
      "repeatIteration": null,
      "repeatRowId": null,
      "showTitle": true,
      "title": "Percentage of rollbackable packages",
      "titleSize": "h6",
      "type": "row"
    },
    {
      "description": "Percentage of packages deployed to Production over the selected time range that could have been rolled back.",
      "fieldConfig": {
        "defaults": {
          "thresholds": {
            "mode": "percentage",
            "steps": [
              {
                "color": "red",
                "value": 0
              },
              {
                "color": "#EAB839",
                "value": 50
              },
              {
                "color": "green",
                "value": 80
              }
            ]
          },
          "unit": "percentunit"
        }
      },
      "gridPos": {
        "h": 4,
        "w": 12,
        "x": 0,
        "y": 1
      },
      "id": 3,
      "options": {
        "colorMode": "value",
        "graphMode": "area",
        "justifyMode": "auto",
        "orientation": "auto",
        "reduceOptions": {
          "calcs": [
            "mean"
          ],
          "fields": "",
          "values": false
        },
        "textMode": "auto"
      },
      "pluginVersion": "7",
      "targets": [
        {
          "expr": "sum(\n  increase(\n    delivery_deployment_can_rollback_total{target_env=\"gprd\"}[$__range]\n  )\n) /\nsum(\n  increase(\n    delivery_deployment_started_total{target_env=\"gprd\"}[$__range]\n  )\n)\n",
          "format": "time_series",
          "instant": true,
          "intervalFactor": 2,
          "legendFormat": "",
          "refId": "A"
        }
      ],
      "title": "🚀 gprd",
      "transparent": false,
      "type": "stat"
    },
    {
      "description": "Percentage of packages deployed to Staging over the selected time range that could have been rolled back.",
      "fieldConfig": {
        "defaults": {
          "thresholds": {
            "mode": "percentage",
            "steps": [
              {
                "color": "red",
                "value": 0
              },
              {
                "color": "#EAB839",
                "value": 50
              },
              {
                "color": "green",
                "value": 80
              }
            ]
          },
          "unit": "percentunit"
        }
      },
      "gridPos": {
        "h": 4,
        "w": 12,
        "x": 0,
        "y": 5
      },
      "id": 4,
      "options": {
        "colorMode": "value",
        "graphMode": "area",
        "justifyMode": "auto",
        "orientation": "auto",
        "reduceOptions": {
          "calcs": [
            "mean"
          ],
          "fields": "",
          "values": false
        },
        "textMode": "auto"
      },
      "pluginVersion": "7",
      "targets": [
        {
          "expr": "sum(\n  increase(\n    delivery_deployment_can_rollback_total{target_env=\"gstg\"}[$__range]\n  )\n) /\nsum(\n  increase(\n    delivery_deployment_started_total{target_env=\"gstg\"}[$__range]\n  )\n)\n",
          "format": "time_series",
          "instant": true,
          "intervalFactor": 2,
          "legendFormat": "",
          "refId": "A"
        }
      ],
      "title": "🏗 gstg",
      "transparent": false,
      "type": "stat"
    },
    {
      "bars": false,
      "dashLength": 10,
      "dashes": false,
      "decimals": 0,
      "description": "Percentage of deployments that could have been rolled back per day.",
      "fill": 1,
      "fillGradient": 0,
      "gridPos": {
        "h": 8,
        "w": 12,
        "x": 12,
        "y": 1
      },
      "id": 5,
      "legend": {
        "alignAsTable": true,
        "avg": false,
        "current": true,
        "max": false,
        "min": false,
        "rightSide": false,
        "show": true,
        "total": false,
        "values": true
      },
      "lines": true,
      "linewidth": 1,
      "nullPointMode": "null",
      "percentage": false,
      "pointradius": 5,
      "points": false,
      "renderer": "flot",
      "spaceLength": 10,
      "stack": false,
      "steppedLine": false,
      "targets": [
        {
          "expr": "sum(\n  increase(\n    delivery_deployment_can_rollback_total{target_env=~\"gprd|gstg\"}[1d]\n  )\n) by (target_env)\n/\nsum(\n  increase(\n    delivery_deployment_started_total{target_env=~\"gprd|gstg\"}[1d]\n  )\n) by (target_env)\n",
          "format": "time_series",
          "intervalFactor": 2,
          "legendFormat": "{{target_env}}",
          "refId": "A"
        }
      ],
      "title": "Percentage of deployments that could be rolled back per day",
      "tooltip": {
        "shared": true,
        "sort": 0,
        "value_type": "individual"
      },
      "type": "graph",
      "xaxis": {
        "mode": "time",
        "show": true
      },
      "yaxes": [
        {
          "decimals": 0,
          "format": "percentunit",
          "label": "Percentage",
          "logBase": 1,
          "max": 1,
          "min": 0,
          "show": true
        },
        {
          "decimals": 0,
          "format": "percentunit",
          "logBase": 1,
          "max": 1,
          "min": 0,
          "show": true
        }
      ]
    },
    {
      "collapse": false,
      "collapsed": false,
      "gridPos": {
        "h": 8,
        "w": 24,
        "x": 0,
        "y": 1000
      },
      "id": 6,
      "panels": [

      ],
      "repeat": null,
      "repeatIteration": null,
      "repeatRowId": null,
      "showTitle": true,
      "title": "Number of rollbacks performed",
      "titleSize": "h6",
      "type": "row"
    },
    {
      "description": "Number of rollbacks performed in Production over the selected time range.",
      "fieldConfig": {
        "defaults": {
          "thresholds": {
            "mode": "absolute"
          },
          "unit": "none"
        }
      },
      "gridPos": {
        "h": 4,
        "w": 12,
        "x": 0,
        "y": 1000
      },
      "id": 7,
      "options": {
        "colorMode": "value",
        "graphMode": "area",
        "justifyMode": "auto",
        "orientation": "auto",
        "reduceOptions": {
          "calcs": [
            "mean"
          ],
          "fields": "",
          "values": false
        },
        "textMode": "auto"
      },
      "pluginVersion": "7",
      "targets": [
        {
          "expr": "sum(\n  increase(\n    delivery_deployment_rollbacks_started_total{target_env=\"gprd\"}[$__range]\n  )\n)\n",
          "format": "time_series",
          "instant": true,
          "intervalFactor": 2,
          "legendFormat": "",
          "refId": "A"
        }
      ],
      "title": "🚀 gprd",
      "transparent": false,
      "type": "stat"
    },
    {
      "description": "Number of rollbacks performed in Staging over the selected time range.",
      "fieldConfig": {
        "defaults": {
          "thresholds": {
            "mode": "absolute"
          },
          "unit": "none"
        }
      },
      "gridPos": {
        "h": 4,
        "w": 12,
        "x": 0,
        "y": 1004
      },
      "id": 8,
      "options": {
        "colorMode": "value",
        "graphMode": "area",
        "justifyMode": "auto",
        "orientation": "auto",
        "reduceOptions": {
          "calcs": [
            "mean"
          ],
          "fields": "",
          "values": false
        },
        "textMode": "auto"
      },
      "pluginVersion": "7",
      "targets": [
        {
          "expr": "sum(\n  increase(\n    delivery_deployment_rollbacks_started_total{target_env=\"gstg\"}[$__range]\n  )\n)\n",
          "format": "time_series",
          "instant": true,
          "intervalFactor": 2,
          "legendFormat": "",
          "refId": "A"
        }
      ],
      "title": "🏗 gstg",
      "transparent": false,
      "type": "stat"
    },
    {
      "bars": false,
      "dashLength": 10,
      "dashes": false,
      "decimals": 0,
      "description": "Number of rollbacks performed per day.",
      "fill": 1,
      "fillGradient": 0,
      "gridPos": {
        "h": 8,
        "w": 12,
        "x": 12,
        "y": 1000
      },
      "id": 9,
      "legend": {
        "alignAsTable": true,
        "avg": false,
        "current": true,
        "max": false,
        "min": false,
        "rightSide": false,
        "show": true,
        "total": false,
        "values": true
      },
      "lines": true,
      "linewidth": 1,
      "nullPointMode": "null",
      "percentage": false,
      "pointradius": 5,
      "points": false,
      "renderer": "flot",
      "spaceLength": 10,
      "stack": false,
      "steppedLine": false,
      "targets": [
        {
          "expr": "sum(\n  increase(\n    delivery_deployment_rollbacks_started_total{target_env=~\"gprd|gstg\"}[$__range]\n  )\n) by (target_env)\n",
          "format": "time_series",
          "intervalFactor": 2,
          "legendFormat": "{{target_env}}",
          "refId": "A"
        }
      ],
      "title": "Number of rollbacks",
      "tooltip": {
        "shared": true,
        "sort": 0,
        "value_type": "individual"
      },
      "type": "graph",
      "xaxis": {
        "mode": "time",
        "show": true
      },
      "yaxes": [
        {
          "decimals": 0,
          "format": "short",
          "logBase": 1,
          "show": true
        },
        {
          "decimals": 0,
          "format": "short",
          "logBase": 1,
          "show": true
        }
      ]
    }
  ],
  "refresh": "",
  "rows": [

  ],
  "schemaVersion": 16,
  "style": "light",
  "tags": [
    "managed",
    "delivery",
    "release"
  ],
  "templating": {
    "list": [
      {
        "current": {
          "text": "Global",
          "value": "Global"
        },
        "hide": 0,
        "label": null,
        "name": "PROMETHEUS_DS",
        "options": [

        ],
        "query": "prometheus",
        "refresh": 1,
        "regex": "",
        "type": "datasource"
      }
    ]
  },
  "time": {
    "from": "now-30d",
    "to": "now/m"
  },
  "timepicker": {
    "refresh_intervals": [
      "1m",
      "5m",
      "10m",
      "15m",
      "30m"
    ],
    "time_options": [
      "5m",
      "15m",
      "1h",
      "6h",
      "12h",
      "24h",
      "2d",
      "7d",
      "30d"
    ]
  },
  "timezone": "utc",
  "title": "delivery: Rollback information",
  "uid": "delivery-rollback_info",
  "version": 2049
}