{
  "annotations": {
    "list": [
      {
        "builtIn": 1,
        "datasource": {
          "type": "datasource",
          "uid": "grafana"
        },
        "enable": true,
        "hide": false,
        "iconColor": "#CA95E5",
        "limit": 100,
        "name": "feature-flags",
        "showIn": 0,
        "tags": [
          "feature-flag",
          "${environment}"
        ],
        "target": {
          "limit": 100,
          "matchAny": false,
          "tags": [
            "feature-flag",
            "${environment}"
          ],
          "type": "tags"
        },
        "type": "tags"
      }
    ]
  },
  "editable": true,
  "fiscalYearStartMonth": 0,
  "graphTooltip": 1,
  "id": null,
  "links": [
    {
      "icon": "external link",
      "keepTime": true,
      "tags": [
        "GitalyMain"
      ],
      "type": "dashboards"
    },
    {
      "icon": "external link",
      "tags": [

      ],
      "targetBlank": true,
      "title": "Kibana",
      "type": "link",
      "url": "https://log.gprd.gitlab.net/app/discover?_a=%28index%3A%27gitaly-*%27%2Cquery%3A%28query_string%3A%28query%3A%27grpc.method:$method%27%29%29%29&_g=%28refreshInterval:%28display:Off,pause:!f,value:0%29,time:%28from:now-1h,mode:quick,to:now%29%29"
    }
  ],
  "liveNow": false,
  "panels": [
    {
      "datasource": {
        "type": "prometheus",
        "uid": "PA258B30F88C30650"
      },
      "fieldConfig": {
        "defaults": {
          "color": {
            "mode": "palette-classic"
          },
          "custom": {
            "axisCenteredZero": false,
            "axisColorMode": "text",
            "axisLabel": "",
            "axisPlacement": "auto",
            "barAlignment": 0,
            "drawStyle": "line",
            "fillOpacity": 10,
            "gradientMode": "none",
            "hideFrom": {
              "legend": false,
              "tooltip": false,
              "viz": false
            },
            "lineInterpolation": "linear",
            "lineWidth": 1,
            "pointSize": 5,
            "scaleDistribution": {
              "type": "linear"
            },
            "showPoints": "never",
            "spanNulls": true,
            "stacking": {
              "group": "A",
              "mode": "none"
            },
            "thresholdsStyle": {
              "mode": "off"
            }
          },
          "mappings": [

          ],
          "thresholds": {
            "mode": "absolute",
            "steps": [
              {
                "color": "green",
                "value": null
              },
              {
                "color": "red",
                "value": 80
              }
            ]
          },
          "unit": "reqps"
        },
        "overrides": [
          {
            "__systemRef": "hideSeriesFrom",
            "matcher": {
              "id": "byNames",
              "options": {
                "mode": "exclude",
                "names": [
                  "use_commit_graph_generation_data: false",
                  "use_commit_graph_generation_data: true"
                ],
                "prefix": "All except:",
                "readOnly": true
              }
            },
            "properties": [
              {
                "id": "custom.hideFrom",
                "value": {
                  "legend": false,
                  "tooltip": false,
                  "viz": true
                }
              }
            ]
          }
        ]
      },
      "gridPos": {
        "h": 5,
        "w": 24,
        "x": 0,
        "y": 0
      },
      "id": 16,
      "options": {
        "legend": {
          "calcs": [

          ],
          "displayMode": "list",
          "placement": "bottom",
          "showLegend": true
        },
        "tooltip": {
          "mode": "single",
          "sort": "none"
        }
      },
      "pluginVersion": "8.2.4",
      "targets": [
        {
          "datasource": {
            "type": "prometheus",
            "uid": "PA258B30F88C30650"
          },
          "expr": "sum(rate(gitaly_feature_flag_checks_total{env=\"$environment\"}[$__rate_interval])) by (flag,enabled)",
          "interval": "",
          "legendFormat": "{{flag}}: {{enabled}}",
          "refId": "A"
        }
      ],
      "title": "Feature Flags",
      "type": "timeseries"
    },
    {
      "datasource": {
        "type": "prometheus",
        "uid": "PA258B30F88C30650"
      },
      "description": "This graph represents the percentage of requests\nthat succeed.",
      "fieldConfig": {
        "defaults": {
          "color": {
            "mode": "palette-classic"
          },
          "custom": {
            "axisCenteredZero": false,
            "axisColorMode": "text",
            "axisLabel": "",
            "axisPlacement": "auto",
            "barAlignment": 0,
            "drawStyle": "line",
            "fillOpacity": 10,
            "gradientMode": "none",
            "hideFrom": {
              "legend": false,
              "tooltip": false,
              "viz": false
            },
            "lineInterpolation": "linear",
            "lineWidth": 1,
            "pointSize": 5,
            "scaleDistribution": {
              "type": "linear"
            },
            "showPoints": "never",
            "spanNulls": true,
            "stacking": {
              "group": "A",
              "mode": "none"
            },
            "thresholdsStyle": {
              "mode": "line+area"
            }
          },
          "decimals": 2,
          "links": [

          ],
          "mappings": [

          ],
          "max": 1,
          "min": 0,
          "thresholds": {
            "mode": "absolute",
            "steps": [
              {
                "color": "red",
                "value": null
              },
              {
                "color": "orange",
                "value": 0.9
              },
              {
                "color": "transparent",
                "value": 0.999
              }
            ]
          },
          "unit": "percentunit"
        },
        "overrides": [

        ]
      },
      "gridPos": {
        "h": 7,
        "w": 24,
        "x": 0,
        "y": 5
      },
      "id": 10,
      "links": [

      ],
      "options": {
        "legend": {
          "calcs": [
            "mean",
            "min"
          ],
          "displayMode": "list",
          "placement": "bottom",
          "showLegend": false
        },
        "tooltip": {
          "mode": "single",
          "sort": "none"
        }
      },
      "pluginVersion": "8.2.4",
      "targets": [
        {
          "datasource": {
            "type": "prometheus",
            "uid": "PA258B30F88C30650"
          },
          "dsType": "influxdb",
          "exemplar": true,
          "expr": "1 - (sum(gitaly:grpc_server_handled_total:error_rate1m{job=\"gitaly\", environment=\"$environment\", grpc_method=\"$method\"}) without (grpc_code) / gitaly:grpc_server_handled_total:rate1m{job=\"gitaly\", environment=\"$environment\", grpc_method=\"$method\"})",
          "format": "time_series",
          "groupBy": [
            {
              "params": [
                "$__interval"
              ],
              "type": "time"
            },
            {
              "params": [
                "null"
              ],
              "type": "fill"
            }
          ],
          "interval": "",
          "intervalFactor": 2,
          "legendFormat": "Success Rate",
          "orderByTime": "ASC",
          "policy": "default",
          "refId": "A",
          "resultFormat": "time_series",
          "select": [
            [
              {
                "params": [
                  "value"
                ],
                "type": "field"
              },
              {
                "params": [

                ],
                "type": "mean"
              }
            ]
          ],
          "step": 40,
          "tags": [

          ]
        }
      ],
      "title": "Success Ratio (SLA)",
      "type": "timeseries"
    },
    {
      "datasource": {
        "type": "prometheus",
        "uid": "PA258B30F88C30650"
      },
      "fieldConfig": {
        "defaults": {
          "color": {
            "mode": "palette-classic"
          },
          "custom": {
            "axisCenteredZero": false,
            "axisColorMode": "text",
            "axisLabel": "",
            "axisPlacement": "auto",
            "barAlignment": 0,
            "drawStyle": "line",
            "fillOpacity": 10,
            "gradientMode": "none",
            "hideFrom": {
              "legend": false,
              "tooltip": false,
              "viz": false
            },
            "lineInterpolation": "linear",
            "lineWidth": 1,
            "pointSize": 5,
            "scaleDistribution": {
              "type": "linear"
            },
            "showPoints": "never",
            "spanNulls": true,
            "stacking": {
              "group": "A",
              "mode": "none"
            },
            "thresholdsStyle": {
              "mode": "off"
            }
          },
          "links": [

          ],
          "mappings": [

          ],
          "min": 0,
          "thresholds": {
            "mode": "absolute",
            "steps": [
              {
                "color": "green",
                "value": null
              },
              {
                "color": "red",
                "value": 80
              }
            ]
          },
          "unit": "reqps"
        },
        "overrides": [

        ]
      },
      "gridPos": {
        "h": 5,
        "w": 8,
        "x": 0,
        "y": 12
      },
      "id": 1,
      "links": [

      ],
      "options": {
        "legend": {
          "calcs": [

          ],
          "displayMode": "list",
          "placement": "bottom",
          "showLegend": false
        },
        "tooltip": {
          "mode": "single",
          "sort": "none"
        }
      },
      "pluginVersion": "8.2.4",
      "targets": [
        {
          "datasource": {
            "type": "prometheus",
            "uid": "PA258B30F88C30650"
          },
          "dsType": "influxdb",
          "exemplar": true,
          "expr": "sum(gitaly:grpc_server_handled_total:rate1m{job=\"gitaly\",environment=\"$environment\",grpc_method=\"$method\"}) by (grpc_method)",
          "format": "time_series",
          "groupBy": [
            {
              "params": [
                "$__interval"
              ],
              "type": "time"
            },
            {
              "params": [
                "null"
              ],
              "type": "fill"
            }
          ],
          "interval": "",
          "intervalFactor": 2,
          "legendFormat": "",
          "policy": "default",
          "refId": "A",
          "resultFormat": "time_series",
          "select": [
            [
              {
                "params": [
                  "value"
                ],
                "type": "field"
              },
              {
                "params": [

                ],
                "type": "mean"
              }
            ]
          ],
          "step": 120,
          "tags": [

          ]
        }
      ],
      "title": "Total Rate",
      "type": "timeseries"
    },
    {
      "datasource": {
        "type": "prometheus",
        "uid": "PA258B30F88C30650"
      },
      "fieldConfig": {
        "defaults": {
          "color": {
            "mode": "palette-classic"
          },
          "custom": {
            "axisCenteredZero": false,
            "axisColorMode": "text",
            "axisLabel": "",
            "axisPlacement": "auto",
            "barAlignment": 0,
            "drawStyle": "line",
            "fillOpacity": 10,
            "gradientMode": "none",
            "hideFrom": {
              "legend": false,
              "tooltip": false,
              "viz": false
            },
            "lineInterpolation": "linear",
            "lineWidth": 1,
            "pointSize": 5,
            "scaleDistribution": {
              "type": "linear"
            },
            "showPoints": "never",
            "spanNulls": true,
            "stacking": {
              "group": "A",
              "mode": "none"
            },
            "thresholdsStyle": {
              "mode": "off"
            }
          },
          "links": [

          ],
          "mappings": [

          ],
          "min": 0,
          "thresholds": {
            "mode": "absolute",
            "steps": [
              {
                "color": "green",
                "value": null
              },
              {
                "color": "red",
                "value": 80
              }
            ]
          },
          "unit": "reqps"
        },
        "overrides": [

        ]
      },
      "gridPos": {
        "h": 5,
        "w": 8,
        "x": 8,
        "y": 12
      },
      "id": 2,
      "links": [

      ],
      "options": {
        "legend": {
          "calcs": [

          ],
          "displayMode": "list",
          "placement": "bottom",
          "showLegend": false
        },
        "tooltip": {
          "mode": "single",
          "sort": "none"
        }
      },
      "pluginVersion": "8.2.4",
      "targets": [
        {
          "datasource": {
            "type": "prometheus",
            "uid": "PA258B30F88C30650"
          },
          "dsType": "influxdb",
          "editorMode": "code",
          "exemplar": true,
          "expr": "sum(gitaly:grpc_server_handled_total:rate1m{job=\"gitaly\",environment=\"$environment\",grpc_method=\"$method\"} - sum(gitaly:grpc_server_handled_total:error_rate1m{job=\"gitaly\", environment=\"$environment\", grpc_method=\"$method\"}) without (grpc_code))",
          "format": "time_series",
          "groupBy": [
            {
              "params": [
                "$__interval"
              ],
              "type": "time"
            },
            {
              "params": [
                "null"
              ],
              "type": "fill"
            }
          ],
          "interval": "",
          "intervalFactor": 2,
          "legendFormat": "",
          "policy": "default",
          "range": true,
          "refId": "A",
          "resultFormat": "time_series",
          "select": [
            [
              {
                "params": [
                  "value"
                ],
                "type": "field"
              },
              {
                "params": [

                ],
                "type": "mean"
              }
            ]
          ],
          "step": 120,
          "tags": [

          ]
        }
      ],
      "title": "Success Rate",
      "type": "timeseries"
    },
    {
      "datasource": {
        "type": "prometheus",
        "uid": "PA258B30F88C30650"
      },
      "description": "",
      "fieldConfig": {
        "defaults": {
          "color": {
            "mode": "palette-classic"
          },
          "custom": {
            "axisCenteredZero": false,
            "axisColorMode": "text",
            "axisLabel": "",
            "axisPlacement": "auto",
            "barAlignment": 0,
            "drawStyle": "line",
            "fillOpacity": 10,
            "gradientMode": "none",
            "hideFrom": {
              "legend": false,
              "tooltip": false,
              "viz": false
            },
            "lineInterpolation": "linear",
            "lineWidth": 1,
            "pointSize": 5,
            "scaleDistribution": {
              "type": "linear"
            },
            "showPoints": "never",
            "spanNulls": true,
            "stacking": {
              "group": "A",
              "mode": "none"
            },
            "thresholdsStyle": {
              "mode": "off"
            }
          },
          "links": [

          ],
          "mappings": [

          ],
          "min": 0,
          "thresholds": {
            "mode": "absolute",
            "steps": [
              {
                "color": "green",
                "value": null
              },
              {
                "color": "red",
                "value": 80
              }
            ]
          },
          "unit": "reqps"
        },
        "overrides": [

        ]
      },
      "gridPos": {
        "h": 5,
        "w": 8,
        "x": 16,
        "y": 12
      },
      "id": 3,
      "links": [
        {
          "targetBlank": true,
          "title": "Gitaly Feature - Error Diagnostics",
          "url": "/dashboard/db/gitaly-feature-error-diagnostics?$__url_time_range&$__all_variables"
        }
      ],
      "options": {
        "legend": {
          "calcs": [

          ],
          "displayMode": "list",
          "placement": "bottom",
          "showLegend": true
        },
        "tooltip": {
          "mode": "single",
          "sort": "none"
        }
      },
      "pluginVersion": "8.2.4",
      "targets": [
        {
          "datasource": {
            "type": "prometheus",
            "uid": "PA258B30F88C30650"
          },
          "dsType": "influxdb",
          "expr": "sum(gitaly:grpc_server_handled_total:error_rate1m{job=\"gitaly\", environment=\"$environment\", grpc_method=\"$method\"}) by (grpc_code)",
          "format": "time_series",
          "groupBy": [
            {
              "params": [
                "$__interval"
              ],
              "type": "time"
            },
            {
              "params": [
                "null"
              ],
              "type": "fill"
            }
          ],
          "interval": "",
          "intervalFactor": 2,
          "legendFormat": "{{grpc_code}}",
          "policy": "default",
          "refId": "A",
          "resultFormat": "time_series",
          "select": [
            [
              {
                "params": [
                  "value"
                ],
                "type": "field"
              },
              {
                "params": [

                ],
                "type": "mean"
              }
            ]
          ],
          "step": 120,
          "tags": [

          ]
        }
      ],
      "title": "Failures Rate",
      "type": "timeseries"
    },
    {
      "datasource": {
        "type": "prometheus",
        "uid": "PA258B30F88C30650"
      },
      "fieldConfig": {
        "defaults": {
          "color": {
            "mode": "palette-classic"
          },
          "custom": {
            "axisCenteredZero": false,
            "axisColorMode": "text",
            "axisLabel": "",
            "axisPlacement": "auto",
            "barAlignment": 0,
            "drawStyle": "line",
            "fillOpacity": 0,
            "gradientMode": "none",
            "hideFrom": {
              "legend": false,
              "tooltip": false,
              "viz": false
            },
            "lineInterpolation": "linear",
            "lineWidth": 1,
            "pointSize": 5,
            "scaleDistribution": {
              "log": 10,
              "type": "log"
            },
            "showPoints": "never",
            "spanNulls": true,
            "stacking": {
              "group": "A",
              "mode": "none"
            },
            "thresholdsStyle": {
              "mode": "off"
            }
          },
          "links": [

          ],
          "mappings": [

          ],
          "thresholds": {
            "mode": "absolute",
            "steps": [
              {
                "color": "green",
                "value": null
              },
              {
                "color": "red",
                "value": 80
              }
            ]
          },
          "unit": "ms"
        },
        "overrides": [
          {
            "__systemRef": "hideSeriesFrom",
            "matcher": {
              "id": "byNames",
              "options": {
                "mode": "exclude",
                "names": [
                  "P50"
                ],
                "prefix": "All except:",
                "readOnly": true
              }
            },
            "properties": [
              {
                "id": "custom.hideFrom",
                "value": {
                  "legend": false,
                  "tooltip": false,
                  "viz": true
                }
              }
            ]
          }
        ]
      },
      "gridPos": {
        "h": 9,
        "w": 24,
        "x": 0,
        "y": 17
      },
      "id": 13,
      "links": [

      ],
      "options": {
        "legend": {
          "calcs": [

          ],
          "displayMode": "list",
          "placement": "bottom",
          "showLegend": true
        },
        "tooltip": {
          "mode": "single",
          "sort": "none"
        }
      },
      "pluginVersion": "8.2.4",
      "targets": [
        {
          "datasource": {
            "type": "prometheus",
            "uid": "PA258B30F88C30650"
          },
          "editorMode": "code",
          "expr": "histogram_quantile(0.99, sum(gitaly:grpc_server_handling_seconds_bucket:rate1m{job=\"gitaly\", environment=\"$environment\", grpc_method=\"$method\"}) by (le)) * 1000",
          "hide": false,
          "interval": "",
          "legendFormat": "P99",
          "range": true,
          "refId": "A"
        },
        {
          "datasource": {
            "type": "prometheus",
            "uid": "PA258B30F88C30650"
          },
          "editorMode": "code",
          "expr": "histogram_quantile(0.95, sum(gitaly:grpc_server_handling_seconds_bucket:rate1m{job=\"gitaly\", environment=\"$environment\", grpc_method=\"$method\"}) by (le)) * 1000",
          "hide": false,
          "legendFormat": "P95",
          "range": true,
          "refId": "B"
        },
        {
          "datasource": {
            "type": "prometheus",
            "uid": "PA258B30F88C30650"
          },
          "editorMode": "code",
          "expr": "histogram_quantile(0.5, sum(gitaly:grpc_server_handling_seconds_bucket:rate1m{job=\"gitaly\", environment=\"$environment\", grpc_method=\"$method\"}) by (le)) * 1000",
          "hide": false,
          "legendFormat": "P50",
          "range": true,
          "refId": "D"
        },
        {
          "datasource": {
            "type": "prometheus",
            "uid": "PA258B30F88C30650"
          },
          "editorMode": "code",
          "expr": "avg(1000 * avg(gitaly:grpc_server_handling_seconds:avg5m{job=\"gitaly\", environment=\"$environment\", grpc_method=\"$method\"}))",
          "format": "time_series",
          "hide": false,
          "interval": "",
          "intervalFactor": 2,
          "legendFormat": "mean",
          "range": true,
          "refId": "C",
          "step": 40
        }
      ],
      "title": "Latency",
      "type": "timeseries"
    },
    {
      "datasource": {
        "type": "prometheus",
        "uid": "PA258B30F88C30650"
      },
      "fieldConfig": {
        "defaults": {
          "color": {
            "mode": "palette-classic"
          },
          "custom": {
            "axisCenteredZero": false,
            "axisColorMode": "text",
            "axisLabel": "",
            "axisPlacement": "auto",
            "barAlignment": 0,
            "drawStyle": "line",
            "fillOpacity": 0,
            "gradientMode": "none",
            "hideFrom": {
              "legend": false,
              "tooltip": false,
              "viz": false
            },
            "lineInterpolation": "linear",
            "lineWidth": 1,
            "pointSize": 5,
            "scaleDistribution": {
              "log": 10,
              "type": "log"
            },
            "showPoints": "auto",
            "spanNulls": false,
            "stacking": {
              "group": "A",
              "mode": "none"
            },
            "thresholdsStyle": {
              "mode": "off"
            }
          },
          "mappings": [

          ],
          "thresholds": {
            "mode": "absolute",
            "steps": [
              {
                "color": "green",
                "value": null
              },
              {
                "color": "red",
                "value": 80
              }
            ]
          },
          "unit": "s"
        },
        "overrides": [
          {
            "__systemRef": "hideSeriesFrom",
            "matcher": {
              "id": "byNames",
              "options": {
                "mode": "exclude",
                "names": [
                  "commit-graph"
                ],
                "prefix": "All except:",
                "readOnly": true
              }
            },
            "properties": [
              {
                "id": "custom.hideFrom",
                "value": {
                  "legend": false,
                  "tooltip": false,
                  "viz": true
                }
              }
            ]
          }
        ]
      },
      "gridPos": {
        "h": 8,
        "w": 24,
        "x": 0,
        "y": 26
      },
      "id": 18,
      "options": {
        "legend": {
          "calcs": [

          ],
          "displayMode": "list",
          "placement": "bottom",
          "showLegend": true
        },
        "tooltip": {
          "mode": "single",
          "sort": "none"
        }
      },
      "targets": [
        {
          "datasource": {
            "type": "prometheus",
            "uid": "PA258B30F88C30650"
          },
          "editorMode": "code",
          "expr": "sum by(gcmd, subcmd) (\n  rate(\n    gitaly_command_cpu_seconds_total{env=\"$environment\",environment=\"$environment\",type=\"gitaly\", grpc_method=\"$method\"}[$__rate_interval]\n  )\n)",
          "legendFormat": "__auto",
          "range": true,
          "refId": "A"
        }
      ],
      "title": "Per-Git-command latency",
      "type": "timeseries"
    },
    {
      "datasource": {
        "type": "prometheus",
        "uid": "PA258B30F88C30650"
      },
      "fieldConfig": {
        "defaults": {
          "color": {
            "mode": "palette-classic"
          },
          "custom": {
            "axisCenteredZero": false,
            "axisColorMode": "text",
            "axisLabel": "",
            "axisPlacement": "auto",
            "barAlignment": 0,
            "drawStyle": "line",
            "fillOpacity": 0,
            "gradientMode": "none",
            "hideFrom": {
              "legend": false,
              "tooltip": false,
              "viz": false
            },
            "lineInterpolation": "linear",
            "lineWidth": 2,
            "pointSize": 5,
            "scaleDistribution": {
              "type": "linear"
            },
            "showPoints": "never",
            "spanNulls": true,
            "stacking": {
              "group": "A",
              "mode": "none"
            },
            "thresholdsStyle": {
              "mode": "off"
            }
          },
          "links": [

          ],
          "mappings": [

          ],
          "min": 0,
          "thresholds": {
            "mode": "absolute",
            "steps": [
              {
                "color": "green",
                "value": null
              },
              {
                "color": "red",
                "value": 80
              }
            ]
          },
          "unit": "reqps"
        },
        "overrides": [
          {
            "matcher": {
              "id": "byName",
              "options": "last week"
            },
            "properties": [
              {
                "id": "color",
                "value": {
                  "fixedColor": "text",
                  "mode": "fixed"
                }
              },
              {
                "id": "custom.lineStyle",
                "value": {
                  "dash": [
                    4,
                    1
                  ],
                  "fill": "dash"
                }
              },
              {
                "id": "custom.lineWidth",
                "value": 1
              }
            ]
          }
        ]
      },
      "gridPos": {
        "h": 6,
        "w": 24,
        "x": 0,
        "y": 34
      },
      "id": 5,
      "links": [

      ],
      "options": {
        "legend": {
          "calcs": [
            "mean",
            "max",
            "min"
          ],
          "displayMode": "list",
          "placement": "bottom",
          "showLegend": true
        },
        "tooltip": {
          "mode": "single",
          "sort": "none"
        }
      },
      "pluginVersion": "8.2.4",
      "targets": [
        {
          "datasource": {
            "type": "prometheus",
            "uid": "PA258B30F88C30650"
          },
          "expr": "sum(rate(grpc_server_handled_total{job=\"gitaly\", environment=\"$environment\", grpc_method=\"$method\"}[1m]))",
          "format": "time_series",
          "interval": "",
          "intervalFactor": 4,
          "legendFormat": "now",
          "refId": "B",
          "step": 80
        },
        {
          "datasource": {
            "type": "prometheus",
            "uid": "PA258B30F88C30650"
          },
          "expr": "sum(rate(grpc_server_handled_total{job=\"gitaly\", environment=\"$environment\", grpc_method=\"$method\"}[1m] offset 1w))",
          "format": "time_series",
          "interval": "",
          "intervalFactor": 4,
          "legendFormat": "last week",
          "refId": "A",
          "step": 80
        }
      ],
      "title": "Calls per Second per Tier",
      "type": "timeseries"
    },
    {
      "datasource": {
        "type": "prometheus",
        "uid": "PA258B30F88C30650"
      },
      "fieldConfig": {
        "defaults": {
          "color": {
            "mode": "palette-classic"
          },
          "custom": {
            "axisCenteredZero": false,
            "axisColorMode": "text",
            "axisLabel": "",
            "axisPlacement": "auto",
            "barAlignment": 0,
            "drawStyle": "line",
            "fillOpacity": 10,
            "gradientMode": "none",
            "hideFrom": {
              "legend": false,
              "tooltip": false,
              "viz": false
            },
            "lineInterpolation": "linear",
            "lineWidth": 1,
            "pointSize": 5,
            "scaleDistribution": {
              "log": 10,
              "type": "log"
            },
            "showPoints": "never",
            "spanNulls": true,
            "stacking": {
              "group": "A",
              "mode": "none"
            },
            "thresholdsStyle": {
              "mode": "off"
            }
          },
          "links": [

          ],
          "mappings": [

          ],
          "thresholds": {
            "mode": "absolute",
            "steps": [
              {
                "color": "green",
                "value": null
              },
              {
                "color": "red",
                "value": 80
              }
            ]
          },
          "unit": "reqps"
        },
        "overrides": [
          {
            "matcher": {
              "id": "byName",
              "options": "rate (1m) -1w"
            },
            "properties": [
              {
                "id": "color",
                "value": {
                  "fixedColor": "#3F2B5B",
                  "mode": "fixed"
                }
              },
              {
                "id": "custom.fillOpacity",
                "value": 0
              },
              {
                "id": "custom.lineStyle",
                "value": {
                  "dash": [
                    3,
                    1
                  ],
                  "fill": "dash"
                }
              }
            ]
          }
        ]
      },
      "gridPos": {
        "h": 7,
        "w": 24,
        "x": 0,
        "y": 40
      },
      "id": 11,
      "links": [

      ],
      "options": {
        "legend": {
          "calcs": [

          ],
          "displayMode": "list",
          "placement": "bottom",
          "showLegend": true
        },
        "tooltip": {
          "mode": "single",
          "sort": "none"
        }
      },
      "pluginVersion": "8.2.4",
      "targets": [
        {
          "datasource": {
            "type": "prometheus",
            "uid": "PA258B30F88C30650"
          },
          "dsType": "influxdb",
          "expr": "sum(gitaly:grpc_server_handled_total:rate1m {job=\"gitaly\", grpc_method=\"$method\"})\n",
          "format": "time_series",
          "groupBy": [
            {
              "params": [
                "$__interval"
              ],
              "type": "time"
            },
            {
              "params": [
                "null"
              ],
              "type": "fill"
            }
          ],
          "intervalFactor": 2,
          "legendFormat": "rate (1m)",
          "orderByTime": "ASC",
          "policy": "default",
          "refId": "A",
          "resultFormat": "time_series",
          "select": [
            [
              {
                "params": [
                  "value"
                ],
                "type": "field"
              },
              {
                "params": [

                ],
                "type": "mean"
              }
            ]
          ],
          "step": 40,
          "tags": [

          ]
        },
        {
          "datasource": {
            "type": "prometheus",
            "uid": "PA258B30F88C30650"
          },
          "expr": "sum(gitaly:grpc_server_handled_total:rate1m{job=\"gitaly\", grpc_method=\"$method\"} offset 1w)",
          "format": "time_series",
          "intervalFactor": 2,
          "legendFormat": "rate (1m) -1w",
          "refId": "B",
          "step": 40
        }
      ],
      "title": "Call Rate vs 1 week prior (log₁₀)",
      "type": "timeseries"
    },
    {
      "datasource": {
        "type": "prometheus",
        "uid": "PA258B30F88C30650"
      },
      "fieldConfig": {
        "defaults": {
          "color": {
            "mode": "palette-classic"
          },
          "custom": {
            "axisCenteredZero": false,
            "axisColorMode": "text",
            "axisLabel": "",
            "axisPlacement": "auto",
            "barAlignment": 0,
            "drawStyle": "line",
            "fillOpacity": 50,
            "gradientMode": "none",
            "hideFrom": {
              "legend": false,
              "tooltip": false,
              "viz": false
            },
            "lineInterpolation": "linear",
            "lineWidth": 0,
            "pointSize": 5,
            "scaleDistribution": {
              "type": "linear"
            },
            "showPoints": "never",
            "spanNulls": true,
            "stacking": {
              "group": "A",
              "mode": "normal"
            },
            "thresholdsStyle": {
              "mode": "off"
            }
          },
          "decimals": 2,
          "links": [

          ],
          "mappings": [

          ],
          "thresholds": {
            "mode": "absolute",
            "steps": [
              {
                "color": "green",
                "value": null
              },
              {
                "color": "red",
                "value": 80
              }
            ]
          },
          "unit": "reqps"
        },
        "overrides": [

        ]
      },
      "gridPos": {
        "h": 7,
        "w": 24,
        "x": 0,
        "y": 47
      },
      "id": 12,
      "links": [

      ],
      "options": {
        "legend": {
          "calcs": [

          ],
          "displayMode": "list",
          "placement": "bottom",
          "showLegend": true
        },
        "tooltip": {
          "mode": "single",
          "sort": "none"
        }
      },
      "pluginVersion": "8.2.4",
      "targets": [
        {
          "datasource": {
            "type": "prometheus",
            "uid": "PA258B30F88C30650"
          },
          "dsType": "influxdb",
          "expr": "sum(rate(grpc_server_handled_total{job=\"gitaly\", environment=\"$environment\", grpc_method=\"$method\"}[10m])) BY (fqdn)",
          "format": "time_series",
          "groupBy": [
            {
              "params": [
                "$__interval"
              ],
              "type": "time"
            },
            {
              "params": [
                "null"
              ],
              "type": "fill"
            }
          ],
          "intervalFactor": 2,
          "legendFormat": "{{ fqdn }}",
          "orderByTime": "ASC",
          "policy": "default",
          "refId": "A",
          "resultFormat": "time_series",
          "select": [
            [
              {
                "params": [
                  "value"
                ],
                "type": "field"
              },
              {
                "params": [

                ],
                "type": "mean"
              }
            ]
          ],
          "step": 40,
          "tags": [

          ]
        }
      ],
      "title": "Server Breakdown",
      "type": "timeseries"
    },
    {
      "datasource": {
        "type": "prometheus",
        "uid": "PA258B30F88C30650"
      },
      "fieldConfig": {
        "defaults": {
          "color": {
            "mode": "palette-classic"
          },
          "custom": {
            "axisCenteredZero": false,
            "axisColorMode": "text",
            "axisLabel": "",
            "axisPlacement": "auto",
            "barAlignment": 0,
            "drawStyle": "line",
            "fillOpacity": 35,
            "gradientMode": "none",
            "hideFrom": {
              "legend": false,
              "tooltip": false,
              "viz": false
            },
            "lineInterpolation": "linear",
            "lineWidth": 1,
            "pointSize": 5,
            "scaleDistribution": {
              "log": 10,
              "type": "log"
            },
            "showPoints": "never",
            "spanNulls": true,
            "stacking": {
              "group": "A",
              "mode": "none"
            },
            "thresholdsStyle": {
              "mode": "off"
            }
          },
          "links": [

          ],
          "mappings": [

          ],
          "thresholds": {
            "mode": "absolute",
            "steps": [
              {
                "color": "green",
                "value": null
              },
              {
                "color": "red",
                "value": 80
              }
            ]
          },
          "unit": "short"
        },
        "overrides": [
          {
            "matcher": {
              "id": "byName",
              "options": "12 hour avg"
            },
            "properties": [
              {
                "id": "custom.fillOpacity",
                "value": 0
              },
              {
                "id": "custom.lineStyle",
                "value": {
                  "dash": [
                    2,
                    2
                  ],
                  "fill": "dash"
                }
              }
            ]
          },
          {
            "matcher": {
              "id": "byName",
              "options": "12 hour 2σ"
            },
            "properties": [
              {
                "id": "color",
                "value": {
                  "fixedColor": "#99440A",
                  "mode": "fixed"
                }
              },
              {
                "id": "custom.fillOpacity",
                "value": 0
              },
              {
                "id": "custom.lineStyle",
                "value": {
                  "dash": [
                    5,
                    2
                  ],
                  "fill": "dash"
                }
              }
            ]
          },
          {
            "matcher": {
              "id": "byName",
              "options": "error rate"
            },
            "properties": [
              {
                "id": "custom.fillBelowTo",
                "value": "12 hour 2σ"
              }
            ]
          }
        ]
      },
      "gridPos": {
        "h": 7,
        "w": 24,
        "x": 0,
        "y": 54
      },
      "id": 9,
      "links": [

      ],
      "options": {
        "legend": {
          "calcs": [

          ],
          "displayMode": "list",
          "placement": "bottom",
          "showLegend": true
        },
        "tooltip": {
          "mode": "single",
          "sort": "none"
        }
      },
      "pluginVersion": "8.2.4",
      "targets": [
        {
          "datasource": {
            "type": "prometheus",
            "uid": "PA258B30F88C30650"
          },
          "dsType": "influxdb",
          "expr": "gitaly:grpc_server_handled_total:error_rate1m{job=\"gitaly\",environment=\"$environment\",grpc_method=\"$method\"}",
          "format": "time_series",
          "groupBy": [
            {
              "params": [
                "$__interval"
              ],
              "type": "time"
            },
            {
              "params": [
                "null"
              ],
              "type": "fill"
            }
          ],
          "intervalFactor": 2,
          "legendFormat": "{{ grpc_code }}",
          "orderByTime": "ASC",
          "policy": "default",
          "refId": "A",
          "resultFormat": "time_series",
          "select": [
            [
              {
                "params": [
                  "value"
                ],
                "type": "field"
              },
              {
                "params": [

                ],
                "type": "mean"
              }
            ]
          ],
          "step": 40,
          "tags": [

          ]
        },
        {
          "datasource": {
            "type": "prometheus",
            "uid": "PA258B30F88C30650"
          },
          "expr": "gitaly:grpc_server_handled_total:error_avg_rate12h{job=\"gitaly\",environment=\"$environment\",grpc_method=\"$method\"}",
          "format": "time_series",
          "interval": "",
          "intervalFactor": 2,
          "legendFormat": "12 hour avg",
          "refId": "B",
          "step": 40
        },
        {
          "datasource": {
            "type": "prometheus",
            "uid": "PA258B30F88C30650"
          },
          "expr": "gitaly:grpc_server_handled_total:error_avg_rate12h{job=\"gitaly\",environment=\"$environment\",grpc_method=\"$method\"} +  gitaly:grpc_server_handled_total:error_rate1m_stddev_over_time12h{environment=\"gitaly\", job=\"$job\"}",
          "format": "time_series",
          "intervalFactor": 2,
          "legendFormat": "12 hour 2σ",
          "refId": "C",
          "step": 40
        }
      ],
      "title": "12 hour error anomaly rates (log₁₀)",
      "type": "timeseries"
    },
    {
      "datasource": {
        "type": "prometheus",
        "uid": "PA258B30F88C30650"
      },
      "fieldConfig": {
        "defaults": {
          "color": {
            "mode": "palette-classic"
          },
          "custom": {
            "axisCenteredZero": false,
            "axisColorMode": "text",
            "axisLabel": "",
            "axisPlacement": "auto",
            "barAlignment": 0,
            "drawStyle": "line",
            "fillOpacity": 10,
            "gradientMode": "none",
            "hideFrom": {
              "legend": false,
              "tooltip": false,
              "viz": false
            },
            "lineInterpolation": "linear",
            "lineWidth": 1,
            "pointSize": 5,
            "scaleDistribution": {
              "type": "linear"
            },
            "showPoints": "never",
            "spanNulls": true,
            "stacking": {
              "group": "A",
              "mode": "none"
            },
            "thresholdsStyle": {
              "mode": "off"
            }
          },
          "links": [

          ],
          "mappings": [

          ],
          "min": 0,
          "thresholds": {
            "mode": "absolute",
            "steps": [
              {
                "color": "green",
                "value": null
              },
              {
                "color": "red",
                "value": 80
              }
            ]
          },
          "unit": "short"
        },
        "overrides": [

        ]
      },
      "gridPos": {
        "h": 7,
        "w": 24,
        "x": 0,
        "y": 61
      },
      "id": 14,
      "links": [

      ],
      "options": {
        "legend": {
          "calcs": [

          ],
          "displayMode": "list",
          "placement": "bottom",
          "showLegend": true
        },
        "tooltip": {
          "mode": "single",
          "sort": "none"
        }
      },
      "pluginVersion": "8.2.4",
      "targets": [
        {
          "datasource": {
            "type": "prometheus",
            "uid": "PA258B30F88C30650"
          },
          "dsType": "influxdb",
          "expr": "sum(gitaly_rate_limiting_in_progress{grpc_method=\"$method\", environment=\"$environment\"}) by (fqdn)",
          "format": "time_series",
          "groupBy": [
            {
              "params": [
                "$__interval"
              ],
              "type": "time"
            },
            {
              "params": [
                "null"
              ],
              "type": "fill"
            }
          ],
          "intervalFactor": 2,
          "legendFormat": "In Progress - {{ fqdn }}",
          "orderByTime": "ASC",
          "policy": "default",
          "refId": "A",
          "resultFormat": "time_series",
          "select": [
            [
              {
                "params": [
                  "value"
                ],
                "type": "field"
              },
              {
                "params": [

                ],
                "type": "mean"
              }
            ]
          ],
          "tags": [

          ]
        },
        {
          "datasource": {
            "type": "prometheus",
            "uid": "PA258B30F88C30650"
          },
          "expr": "sum(gitaly_rate_limiting_queued{grpc_method=\"$method\", environment=\"$environment\"}) by (fqdn)",
          "format": "time_series",
          "intervalFactor": 2,
          "legendFormat": "Queued - {{ fqdn }}",
          "refId": "B"
        }
      ],
      "title": "Rate Limiting",
      "type": "timeseries"
    }
  ],
  "refresh": "5m",
  "schemaVersion": 37,
  "style": "dark",
  "tags": [
    "Gitaly",
    "unmanaged"
  ],
  "templating": {
    "list": [
      {
        "current": {
          "text": "gprd",
          "value": "gprd"
        },
        "hide": 0,
        "includeAll": false,
        "multi": false,
        "name": "environment",
        "options": [
          {
            "selected": true,
            "text": "gprd",
            "value": "gprd"
          },
          {
            "selected": false,
            "text": "gstg",
            "value": "gstg"
          }
        ],
        "query": "gprd,gstg",
        "queryValue": "",
        "skipUrlSync": false,
        "type": "custom"
      },
      {
        "current": {
          "selected": false,
          "text": "GetInfoAttributes",
          "value": "GetInfoAttributes"
        },
        "datasource": {
          "type": "prometheus",
          "uid": "$prometheus"
        },
        "definition": "",
        "hide": 0,
        "includeAll": false,
        "label": "method",
        "multi": false,
        "name": "method",
        "options": [

        ],
        "query": {
          "query": "grpc_server_handled_total{grpc_code=\"OK\"}",
          "refId": "prometheus-01-inf-gstg-method-Variable-Query"
        },
        "refresh": 2,
        "regex": "/.*grpc_method=\"([^\"]*).*/",
        "skipUrlSync": false,
        "sort": 1,
        "tagValuesQuery": "",
        "tagsQuery": "",
        "type": "query",
        "useTags": false
      },
      {
        "current": {
          "text": "prometheus-01-inf-gprd",
          "value": "prometheus-01-inf-gprd"
        },
        "hide": 2,
        "includeAll": false,
        "multi": false,
        "name": "prometheus",
        "options": [

        ],
        "query": "prometheus",
        "refresh": 1,
        "regex": "prometheus-01-inf-[[environment]]",
        "skipUrlSync": false,
        "type": "datasource"
      }
    ]
  },
  "time": {
    "from": "now-12h",
    "to": "now"
  },
  "timepicker": {
    "refresh_intervals": [
      "5s",
      "10s",
      "30s",
      "1m",
      "5m",
      "15m",
      "30m",
      "1h",
      "2h",
      "1d"
    ],
    "time_options": [
      "5m",
      "15m",
      "1h",
      "6h",
      "12h",
      "24h",
      "2d",
      "7d",
      "30d"
    ]
  },
  "timezone": "utc",
  "title": "Gitaly Feature Status",
  "uid": "000000199",
  "version": 31,
  "weekStart": ""
}