{
  "__inputs": [

  ],
  "__requires": [

  ],
  "annotations": {
    "list": [
      {
        "builtIn": 1,
        "datasource": "-- Grafana --",
        "enable": true,
        "hide": false,
        "iconColor": "#96D98D",
        "name": "deploy",
        "showIn": 0,
        "tags": [
          "deploy",
          "$environment"
        ],
        "type": "tags"
      },
      {
        "builtIn": 1,
        "datasource": "-- Grafana --",
        "enable": false,
        "hide": false,
        "iconColor": "#FFEE52",
        "name": "canary-deploy",
        "showIn": 0,
        "tags": [
          "deploy",
          "${environment}-cny"
        ],
        "type": "tags"
      },
      {
        "builtIn": 1,
        "datasource": "-- Grafana --",
        "enable": false,
        "hide": false,
        "iconColor": "#CA95E5",
        "name": "feature-flags",
        "showIn": 0,
        "tags": [
          "feature-flag",
          "${environment}"
        ],
        "type": "tags"
      }
    ]
  },
  "description": "Uploaded by https://gitlab.com/gitlab-com/runbooks/-/jobs/5007602057 at Mon Sep  4 05:57:03 UTC 2023",
  "editable": false,
  "gnetId": null,
  "graphTooltip": 1,
  "hideControls": false,
  "id": null,
  "links": [
    {
      "asDropdown": true,
      "icon": "external link",
      "includeVars": false,
      "keepTime": true,
      "tags": "",
      "targetBlank": false,
      "title": "Platform Triage",
      "type": "link",
      "url": "https://dashboards.gitlab.net/d/general-triage/platform-triage?orgId=1"
    },
    {
      "asDropdown": true,
      "icon": "external link",
      "includeVars": true,
      "keepTime": true,
      "tags": [
        "managed",
        "service overview"
      ],
      "targetBlank": false,
      "title": "Service Overview Dashboards",
      "type": "dashboards",
      "url": ""
    },
    {
      "asDropdown": true,
      "icon": "dashboard",
      "includeVars": true,
      "keepTime": true,
      "tags": "type:sidekiq",
      "targetBlank": false,
      "title": "Sidekiq Detail",
      "type": "dashboards",
      "url": ""
    },
    {
      "asDropdown": true,
      "icon": "external link",
      "includeVars": false,
      "keepTime": false,
      "tags": "",
      "targetBlank": true,
      "title": "Find issues for $queue",
      "type": "link",
      "url": "https://gitlab.com/groups/gitlab-com/gl-infra/-/issues?scope=all&state=all&label_name[]=Service%3A%3ASidekiq&search=$queue"
    }
  ],
  "panels": [
    {
      "datasource": null,
      "fieldConfig": {
        "defaults": {
          "displayName": "${__series.name}",
          "links": [

          ],
          "mappings": [

          ],
          "thresholds": {
            "mode": "absolute",
            "steps": [
              {
                "color": "yellow",
                "value": null
              }
            ]
          },
          "unit": "none"
        }
      },
      "gridPos": {
        "h": 4,
        "w": 3,
        "x": 0,
        "y": 0
      },
      "id": 2,
      "links": [

      ],
      "options": {
        "colorMode": "background",
        "graphMode": "none",
        "justifyMode": "auto",
        "orientation": "vertical",
        "reduceOptions": {
          "calcs": [
            "lastNotNull"
          ],
          "fields": "",
          "values": false
        },
        "textMode": "auto"
      },
      "pluginVersion": "7",
      "targets": [
        {
          "expr": "label_replace(\n  topk by (queue) (1, sum(rate(sidekiq_running_jobs{environment=\"$environment\", type=\"sidekiq\", stage=\"$stage\", queue=~\"$queue\"}[$__range])) by (queue, urgency)),\n  \"urgency\", \"unknown\", \"urgency\", \"\"\n)\n",
          "format": "time_series",
          "instant": true,
          "interval": "1m",
          "intervalFactor": 1,
          "legendFormat": "{{ urgency }} ({{ queue }})",
          "refId": "A"
        }
      ],
      "title": "Queue Attribute: Urgency",
      "transparent": false,
      "type": "stat"
    },
    {
      "datasource": null,
      "fieldConfig": {
        "defaults": {
          "displayName": "${__series.name}",
          "links": [

          ],
          "mappings": [

          ],
          "thresholds": {
            "mode": "absolute",
            "steps": [
              {
                "color": "blue",
                "value": null
              }
            ]
          },
          "unit": "none"
        }
      },
      "gridPos": {
        "h": 4,
        "w": 3,
        "x": 3,
        "y": 0
      },
      "id": 3,
      "links": [

      ],
      "options": {
        "colorMode": "background",
        "graphMode": "none",
        "justifyMode": "auto",
        "orientation": "vertical",
        "reduceOptions": {
          "calcs": [
            "lastNotNull"
          ],
          "fields": "",
          "values": false
        },
        "textMode": "auto"
      },
      "pluginVersion": "7",
      "targets": [
        {
          "expr": "label_replace(\n  topk by (queue) (1, sum(rate(sidekiq_running_jobs{environment=\"$environment\", type=\"sidekiq\", stage=\"$stage\", queue=~\"$queue\"}[$__range])) by (queue, feature_category)),\n  \"feature_category\", \"unknown\", \"feature_category\", \"\"\n)\n",
          "format": "time_series",
          "instant": true,
          "interval": "1m",
          "intervalFactor": 1,
          "legendFormat": "{{ feature_category }} ({{ queue }})",
          "refId": "A"
        }
      ],
      "title": "Queue Attribute: Feature Category",
      "transparent": false,
      "type": "stat"
    },
    {
      "datasource": null,
      "fieldConfig": {
        "defaults": {
          "displayName": "${__series.name}",
          "links": [

          ],
          "mappings": [

          ],
          "thresholds": {
            "mode": "absolute",
            "steps": [
              {
                "color": "orange",
                "value": null
              }
            ]
          },
          "unit": "none"
        }
      },
      "gridPos": {
        "h": 4,
        "w": 3,
        "x": 6,
        "y": 0
      },
      "id": 4,
      "links": [
        {
          "title": "Sidekiq Shard Detail: ${__field.label.shard}",
          "url": "/d/sidekiq-shard-detail/sidekiq-shard-detail?orgId=1&var-shard=${__field.label.shard}&var-environment=${environment}&var-stage=${stage}&${__url_time_range}"
        }
      ],
      "options": {
        "colorMode": "background",
        "graphMode": "none",
        "justifyMode": "auto",
        "orientation": "vertical",
        "reduceOptions": {
          "calcs": [
            "lastNotNull"
          ],
          "fields": "",
          "values": false
        },
        "textMode": "auto"
      },
      "pluginVersion": "7",
      "targets": [
        {
          "expr": "label_replace(\n  topk by (queue) (1, sum(rate(sidekiq_running_jobs{environment=\"$environment\", type=\"sidekiq\", stage=\"$stage\", queue=~\"$queue\"}[$__range])) by (queue, shard)),\n  \"shard\", \"unknown\", \"shard\", \"\"\n)\n",
          "format": "time_series",
          "instant": true,
          "interval": "1m",
          "intervalFactor": 1,
          "legendFormat": "{{ shard }} ({{ queue }})",
          "refId": "A"
        }
      ],
      "title": "Queue Attribute: Shard",
      "transparent": false,
      "type": "stat"
    },
    {
      "datasource": null,
      "fieldConfig": {
        "defaults": {
          "displayName": "${__series.name}",
          "links": [

          ],
          "mappings": [

          ],
          "thresholds": {
            "mode": "absolute",
            "steps": [
              {
                "color": "green",
                "value": null
              }
            ]
          },
          "unit": "none"
        }
      },
      "gridPos": {
        "h": 4,
        "w": 3,
        "x": 9,
        "y": 0
      },
      "id": 5,
      "links": [

      ],
      "options": {
        "colorMode": "background",
        "graphMode": "none",
        "justifyMode": "auto",
        "orientation": "vertical",
        "reduceOptions": {
          "calcs": [
            "lastNotNull"
          ],
          "fields": "",
          "values": false
        },
        "textMode": "auto"
      },
      "pluginVersion": "7",
      "targets": [
        {
          "expr": "label_replace(\n  topk by (queue) (1, sum(rate(sidekiq_running_jobs{environment=\"$environment\", type=\"sidekiq\", stage=\"$stage\", queue=~\"$queue\"}[$__range])) by (queue, external_dependencies)),\n  \"external_dependencies\", \"none\", \"external_dependencies\", \"\"\n)\n",
          "format": "time_series",
          "instant": true,
          "interval": "1m",
          "intervalFactor": 1,
          "legendFormat": "{{ external_dependencies }} ({{ queue }})",
          "refId": "A"
        }
      ],
      "title": "Queue Attribute: External Dependencies",
      "transparent": false,
      "type": "stat"
    },
    {
      "datasource": null,
      "fieldConfig": {
        "defaults": {
          "displayName": "${__series.name}",
          "links": [

          ],
          "mappings": [

          ],
          "thresholds": {
            "mode": "absolute",
            "steps": [
              {
                "color": "purple",
                "value": null
              }
            ]
          },
          "unit": "none"
        }
      },
      "gridPos": {
        "h": 4,
        "w": 3,
        "x": 12,
        "y": 0
      },
      "id": 6,
      "links": [

      ],
      "options": {
        "colorMode": "background",
        "graphMode": "none",
        "justifyMode": "auto",
        "orientation": "vertical",
        "reduceOptions": {
          "calcs": [
            "lastNotNull"
          ],
          "fields": "",
          "values": false
        },
        "textMode": "auto"
      },
      "pluginVersion": "7",
      "targets": [
        {
          "expr": "label_replace(\n  topk by (queue) (1, sum(rate(sidekiq_running_jobs{environment=\"$environment\", type=\"sidekiq\", stage=\"$stage\", queue=~\"$queue\"}[$__range])) by (queue, boundary)),\n  \"boundary\", \"none\", \"boundary\", \"\"\n)\n",
          "format": "time_series",
          "instant": true,
          "interval": "1m",
          "intervalFactor": 1,
          "legendFormat": "{{ boundary }} ({{ queue }})",
          "refId": "A"
        }
      ],
      "title": "Queue Attribute: Resource Boundary",
      "transparent": false,
      "type": "stat"
    },
    {
      "datasource": null,
      "description": "",
      "fieldConfig": {
        "defaults": {
          "decimals": 0,
          "displayName": "Max Queuing Duration SLO",
          "links": [

          ],
          "mappings": [

          ],
          "thresholds": {
            "mode": "absolute",
            "steps": [
              {
                "color": "light-red",
                "value": null
              }
            ]
          },
          "unit": "s"
        }
      },
      "gridPos": {
        "h": 4,
        "w": 3,
        "x": 15,
        "y": 0
      },
      "id": 7,
      "links": [

      ],
      "options": {
        "colorMode": "background",
        "graphMode": "none",
        "justifyMode": "auto",
        "orientation": "vertical",
        "reduceOptions": {
          "calcs": [
            "lastNotNull"
          ],
          "fields": "",
          "values": false
        },
        "textMode": "auto"
      },
      "pluginVersion": "7",
      "targets": [
        {
          "expr": "vector(NaN) and on () sidekiq_running_jobs{environment=\"$environment\", type=\"sidekiq\", stage=\"$stage\", queue=~\"$queue\", urgency=\"throttled\"}\nor\nvector(60.000000) and on () sidekiq_running_jobs{environment=\"$environment\", type=\"sidekiq\", stage=\"$stage\", queue=~\"$queue\", urgency=\"low\"}\nor\nvector(10.000000) and on () sidekiq_running_jobs{environment=\"$environment\", type=\"sidekiq\", stage=\"$stage\", queue=~\"$queue\", urgency=\"high\"}\n",
          "format": "time_series",
          "instant": true,
          "interval": "1m",
          "intervalFactor": 1,
          "legendFormat": "{{ queue }}",
          "refId": "A"
        }
      ],
      "title": "Max Queuing Duration SLO",
      "transformations": [

      ],
      "transparent": false,
      "type": "stat"
    },
    {
      "datasource": null,
      "description": "",
      "fieldConfig": {
        "defaults": {
          "decimals": 0,
          "displayName": "Max Execution Duration SLO",
          "links": [

          ],
          "mappings": [

          ],
          "thresholds": {
            "mode": "absolute",
            "steps": [
              {
                "color": "red",
                "value": null
              }
            ]
          },
          "unit": "s"
        }
      },
      "gridPos": {
        "h": 4,
        "w": 3,
        "x": 18,
        "y": 0
      },
      "id": 8,
      "links": [

      ],
      "options": {
        "colorMode": "background",
        "graphMode": "none",
        "justifyMode": "auto",
        "orientation": "vertical",
        "reduceOptions": {
          "calcs": [
            "lastNotNull"
          ],
          "fields": "",
          "values": false
        },
        "textMode": "auto"
      },
      "pluginVersion": "7",
      "targets": [
        {
          "expr": "vector(300.000000) and on () sidekiq_running_jobs{environment=\"$environment\", type=\"sidekiq\", stage=\"$stage\", queue=~\"$queue\", urgency=\"throttled\"}\nor\nvector(300.000000) and on () sidekiq_running_jobs{environment=\"$environment\", type=\"sidekiq\", stage=\"$stage\", queue=~\"$queue\", urgency=\"low\"}\nor\nvector(10.000000) and on () sidekiq_running_jobs{environment=\"$environment\", type=\"sidekiq\", stage=\"$stage\", queue=~\"$queue\", urgency=\"high\"}\n",
          "format": "time_series",
          "instant": true,
          "interval": "1m",
          "intervalFactor": 1,
          "legendFormat": "{{ queue }}",
          "refId": "A"
        }
      ],
      "title": "Max Execution Duration SLO",
      "transformations": [

      ],
      "transparent": false,
      "type": "stat"
    },
    {
      "datasource": null,
      "description": "",
      "fieldConfig": {
        "defaults": {
          "decimals": 0,
          "displayName": "Time until backlog is cleared",
          "links": [

          ],
          "mappings": [

          ],
          "thresholds": {
            "mode": "absolute",
            "steps": [
              {
                "color": "blue",
                "value": null
              }
            ]
          },
          "unit": "s"
        }
      },
      "gridPos": {
        "h": 4,
        "w": 3,
        "x": 21,
        "y": 0
      },
      "id": 9,
      "links": [

      ],
      "options": {
        "colorMode": "background",
        "graphMode": "none",
        "justifyMode": "auto",
        "orientation": "vertical",
        "reduceOptions": {
          "calcs": [
            "lastNotNull"
          ],
          "fields": "",
          "values": false
        },
        "textMode": "auto"
      },
      "pluginVersion": "7",
      "targets": [
        {
          "expr": "((sidekiq_queue_size{environment=\"$environment\", name=~\"$queue\"} and on(fqdn) (redis_connected_slaves != 0)) > 10)\n/\n(-deriv(sidekiq_queue_size{environment=\"$environment\", name=~\"$queue\"}[5m]) and on(fqdn) (redis_connected_slaves != 0) > 0)\n",
          "format": "time_series",
          "instant": true,
          "interval": "1m",
          "intervalFactor": 1,
          "legendFormat": "{{ name }}",
          "refId": "A"
        }
      ],
      "title": "Backlog",
      "transformations": [

      ],
      "transparent": false,
      "type": "stat"
    },
    {
      "collapse": false,
      "collapsed": false,
      "gridPos": {
        "h": 1,
        "w": 24,
        "x": 0,
        "y": 100
      },
      "id": 10,
      "panels": [

      ],
      "repeat": null,
      "repeatIteration": null,
      "repeatRowId": null,
      "showTitle": true,
      "title": "🌡 Queue Key Metrics",
      "titleSize": "h6",
      "type": "row"
    },
    {
      "aliasColors": {
      },
      "bars": false,
      "dashLength": 10,
      "dashes": false,
      "datasource": "$PROMETHEUS_DS",
      "decimals": 0,
      "description": "Queue apdex monitors the percentage of jobs that are dequeued within their queue threshold. Higher is better. Different jobs have different thresholds.",
      "fill": 0,
      "fillGradient": 0,
      "gridPos": {
        "h": 8,
        "w": 6,
        "x": 0,
        "y": 101
      },
      "id": 750569445,
      "legend": {
        "alignAsTable": true,
        "avg": true,
        "current": true,
        "hideEmpty": true,
        "max": true,
        "min": true,
        "rightSide": false,
        "show": true,
        "sideWidth": null,
        "total": false,
        "values": true
      },
      "lines": true,
      "linewidth": 2,
      "links": [

      ],
      "nullPointMode": "null",
      "options": {
        "dataLinks": [
          {
            "targetBlank": true,
            "title": "ElasticSearch: Sidekiq logs",
            "url": "https://log.gprd.gitlab.net/app/kibana#/discover?_a=(columns:!(json.class,json.queue,json.meta.project,json.job_status,json.scheduling_latency_s,json.duration_s),filters:!((meta:(index:'AWNABDRwNDuQHTm2tH6l',key:json.stage.keyword,params:'$stage',type:phrase),query:(match:(json.stage.keyword:(query:'$stage',type:phrase))))),index:'AWNABDRwNDuQHTm2tH6l',query:(language:kuery,query:'json.queue.keyword:${queue:lucene}'))&_g=(time:(from:'${__from:date:iso}',to:'${__to:date:iso}'))"
          },
          {
            "targetBlank": true,
            "title": "ElasticSearch: queue latency visualization",
            "url": "https://log.gprd.gitlab.net/app/kibana#/visualize/create?type=line&indexPattern=AWNABDRwNDuQHTm2tH6l&_a=(filters:!((meta:(index:'AWNABDRwNDuQHTm2tH6l',key:json.stage.keyword,params:'$stage',type:phrase),query:(match:(json.stage.keyword:(query:'$stage',type:phrase))))),query:(language:kuery,query:'json.queue.keyword:${queue:lucene}'),vis:(aggs:!((enabled:!t,id:'1',params:(field:json.scheduling_latency_s,percents:!(95)),schema:metric,type:percentiles),(enabled:!t,id:'2',params:(drop_partials:!t,extended_bounds:(),field:json.time,interval:auto,min_doc_count:1,scaleMetricValues:!f,timeRange:(from:'${__from:date:iso}',to:'${__to:date:iso}'),useNormalizedEsInterval:!t),schema:segment,type:date_histogram)),params:(valueAxes:!((id:'ValueAxis-1',labels:(filter:!t,rotate:0,show:!t,truncate:100),name:'LeftAxis-1',position:left,scale:(mode:normal,type:linear),show:!t,style:(),title:(text:'p95+Request+Duration:+json.scheduling_latency_s'),type:value)))))&_g=(time:(from:'${__from:date:iso}',to:'${__to:date:iso}'))"
          }
        ]
      },
      "percentage": false,
      "pointradius": 5,
      "points": false,
      "renderer": "flot",
      "repeat": null,
      "seriesOverrides": [
        {
          "alias": "/.* queue apdex$/",
          "color": "#E7D551",
          "zindex": 3
        }
      ],
      "spaceLength": 10,
      "stableId": "queue-apdex",
      "stack": false,
      "steppedLine": false,
      "targets": [
        {
          "expr": "clamp_min(clamp_max(sum by (queue) (\n  sli_aggregations:gitlab_sli_sidekiq_queueing_apdex_success_total_rate5m{environment=\"$environment\",queue=~\"$queue\"}\n)\n/\nsum by (queue) (\n  sli_aggregations:gitlab_sli_sidekiq_queueing_apdex_total_rate5m{environment=\"$environment\",queue=~\"$queue\"}\n)\n,1),0)\n",
          "format": "time_series",
          "interval": "1m",
          "intervalFactor": 1,
          "legendFormat": "{{ queue }} queue apdex",
          "refId": "A"
        }
      ],
      "thresholds": [

      ],
      "timeFrom": null,
      "timeShift": null,
      "title": "Queue Apdex",
      "tooltip": {
        "shared": true,
        "sort": 1,
        "value_type": "individual"
      },
      "type": "graph",
      "xaxis": {
        "buckets": null,
        "mode": "time",
        "name": null,
        "show": true,
        "values": [

        ]
      },
      "yaxes": [
        {
          "format": "percentunit",
          "label": "% Jobs within Max Queuing Duration SLO",
          "logBase": 1,
          "max": 1,
          "min": null,
          "show": true
        },
        {
          "format": "short",
          "label": null,
          "logBase": 1,
          "max": 1,
          "min": 0,
          "show": false
        }
      ]
    },
    {
      "aliasColors": {
      },
      "bars": false,
      "dashLength": 10,
      "dashes": false,
      "datasource": "$PROMETHEUS_DS",
      "decimals": 0,
      "description": "Execution apdex monitors the percentage of jobs that run within their execution (run-time) threshold. Higher is better. Different jobs have different thresholds.",
      "fill": 0,
      "fillGradient": 0,
      "gridPos": {
        "h": 8,
        "w": 6,
        "x": 6,
        "y": 101
      },
      "id": 2504679775,
      "legend": {
        "alignAsTable": true,
        "avg": true,
        "current": true,
        "hideEmpty": true,
        "max": true,
        "min": true,
        "rightSide": false,
        "show": true,
        "sideWidth": null,
        "total": false,
        "values": true
      },
      "lines": true,
      "linewidth": 2,
      "links": [

      ],
      "nullPointMode": "null",
      "options": {
        "dataLinks": [
          {
            "targetBlank": true,
            "title": "ElasticSearch: Sidekiq logs",
            "url": "https://log.gprd.gitlab.net/app/kibana#/discover?_a=(columns:!(json.class,json.queue,json.meta.project,json.job_status,json.scheduling_latency_s,json.duration_s),filters:!((meta:(index:'AWNABDRwNDuQHTm2tH6l',key:json.stage.keyword,params:'$stage',type:phrase),query:(match:(json.stage.keyword:(query:'$stage',type:phrase))))),index:'AWNABDRwNDuQHTm2tH6l',query:(language:kuery,query:'json.queue.keyword:${queue:lucene}'))&_g=(time:(from:'${__from:date:iso}',to:'${__to:date:iso}'))"
          },
          {
            "targetBlank": true,
            "title": "ElasticSearch: execution latency visualization",
            "url": "https://log.gprd.gitlab.net/app/kibana#/visualize/create?type=line&indexPattern=AWNABDRwNDuQHTm2tH6l&_a=(filters:!((meta:(index:'AWNABDRwNDuQHTm2tH6l',key:json.stage.keyword,params:'$stage',type:phrase),query:(match:(json.stage.keyword:(query:'$stage',type:phrase))))),query:(language:kuery,query:'json.queue.keyword:${queue:lucene}'),vis:(aggs:!((enabled:!t,id:'1',params:(field:json.duration_s,percents:!(95)),schema:metric,type:percentiles),(enabled:!t,id:'2',params:(drop_partials:!t,extended_bounds:(),field:json.time,interval:auto,min_doc_count:1,scaleMetricValues:!f,timeRange:(from:'${__from:date:iso}',to:'${__to:date:iso}'),useNormalizedEsInterval:!t),schema:segment,type:date_histogram)),params:(valueAxes:!((id:'ValueAxis-1',labels:(filter:!t,rotate:0,show:!t,truncate:100),name:'LeftAxis-1',position:left,scale:(mode:normal,type:linear),show:!t,style:(),title:(text:'p95+Request+Duration:+json.duration_s'),type:value)))))&_g=(time:(from:'${__from:date:iso}',to:'${__to:date:iso}'))"
          }
        ]
      },
      "percentage": false,
      "pointradius": 5,
      "points": false,
      "renderer": "flot",
      "repeat": null,
      "seriesOverrides": [
        {
          "alias": "/.* execution apdex$/",
          "color": "#E7D551",
          "zindex": 3
        }
      ],
      "spaceLength": 10,
      "stableId": "execution-apdex",
      "stack": false,
      "steppedLine": false,
      "targets": [
        {
          "expr": "clamp_min(clamp_max(sum by (queue) (\n  sli_aggregations:gitlab_sli_sidekiq_execution_apdex_success_total_rate5m{environment=\"$environment\",queue=~\"$queue\"}\n)\n/\nsum by (queue) (\n  sli_aggregations:gitlab_sli_sidekiq_execution_apdex_total_rate5m{environment=\"$environment\",queue=~\"$queue\"}\n)\n,1),0)\n",
          "format": "time_series",
          "interval": "1m",
          "intervalFactor": 1,
          "legendFormat": "{{ queue }} execution apdex",
          "refId": "A"
        }
      ],
      "thresholds": [

      ],
      "timeFrom": null,
      "timeShift": null,
      "title": "Execution Apdex",
      "tooltip": {
        "shared": true,
        "sort": 1,
        "value_type": "individual"
      },
      "type": "graph",
      "xaxis": {
        "buckets": null,
        "mode": "time",
        "name": null,
        "show": true,
        "values": [

        ]
      },
      "yaxes": [
        {
          "format": "percentunit",
          "label": "% Jobs within Max Execution Duration SLO",
          "logBase": 1,
          "max": 1,
          "min": null,
          "show": true
        },
        {
          "format": "short",
          "label": null,
          "logBase": 1,
          "max": 1,
          "min": 0,
          "show": false
        }
      ]
    },
    {
      "aliasColors": {
      },
      "bars": false,
      "dashLength": 10,
      "dashes": false,
      "datasource": "$PROMETHEUS_DS",
      "decimals": 0,
      "description": "Jobs executed per second",
      "fill": 0,
      "fillGradient": 0,
      "gridPos": {
        "h": 8,
        "w": 6,
        "x": 12,
        "y": 101
      },
      "id": 3168042924,
      "legend": {
        "alignAsTable": true,
        "avg": true,
        "current": true,
        "hideEmpty": true,
        "max": true,
        "min": true,
        "rightSide": false,
        "show": true,
        "sideWidth": null,
        "total": false,
        "values": true
      },
      "lines": true,
      "linewidth": 2,
      "links": [

      ],
      "nullPointMode": "null",
      "options": {
        "dataLinks": [
          {
            "targetBlank": true,
            "title": "ElasticSearch: Sidekiq logs",
            "url": "https://log.gprd.gitlab.net/app/kibana#/discover?_a=(columns:!(json.class,json.queue,json.meta.project,json.job_status,json.scheduling_latency_s,json.duration_s),filters:!((meta:(index:'AWNABDRwNDuQHTm2tH6l',key:json.stage.keyword,params:'$stage',type:phrase),query:(match:(json.stage.keyword:(query:'$stage',type:phrase))))),index:'AWNABDRwNDuQHTm2tH6l',query:(language:kuery,query:'json.queue.keyword:${queue:lucene}'))&_g=(time:(from:'${__from:date:iso}',to:'${__to:date:iso}'))"
          },
          {
            "targetBlank": true,
            "title": "ElasticSearch: RPS visualization",
            "url": "https://log.gprd.gitlab.net/app/kibana#/visualize/create?type=line&indexPattern=AWNABDRwNDuQHTm2tH6l&_a=(filters:!((meta:(index:'AWNABDRwNDuQHTm2tH6l',key:json.stage.keyword,params:'$stage',type:phrase),query:(match:(json.stage.keyword:(query:'$stage',type:phrase))))),query:(language:kuery,query:'json.queue.keyword:${queue:lucene}'),vis:(aggs:!((enabled:!t,id:'1',params:(),schema:metric,type:count),(enabled:!t,id:'2',params:(drop_partials:!t,extended_bounds:(),field:json.time,interval:auto,min_doc_count:1,scaleMetricValues:!f,timeRange:(from:'${__from:date:iso}',to:'${__to:date:iso}'),useNormalizedEsInterval:!t),schema:segment,type:date_histogram))))&_g=(time:(from:'${__from:date:iso}',to:'${__to:date:iso}'))"
          }
        ]
      },
      "percentage": false,
      "pointradius": 5,
      "points": false,
      "renderer": "flot",
      "repeat": null,
      "seriesOverrides": [
        {
          "alias": "/.* rps$/",
          "color": "#E7D551",
          "zindex": 3
        }
      ],
      "spaceLength": 10,
      "stableId": "request-rate",
      "stack": false,
      "steppedLine": false,
      "targets": [
        {
          "expr": "sum by (queue) (sli_aggregations:gitlab_sli_sidekiq_execution_total_rate5m{environment=\"$environment\", queue=~\"$queue\"})\n",
          "format": "time_series",
          "interval": "1m",
          "intervalFactor": 1,
          "legendFormat": "{{ queue }} rps",
          "refId": "A"
        }
      ],
      "thresholds": [

      ],
      "timeFrom": null,
      "timeShift": null,
      "title": "Execution Rate (RPS)",
      "tooltip": {
        "shared": true,
        "sort": 2,
        "value_type": "individual"
      },
      "type": "graph",
      "xaxis": {
        "buckets": null,
        "mode": "time",
        "name": null,
        "show": true,
        "values": [

        ]
      },
      "yaxes": [
        {
          "format": "ops",
          "label": "Jobs per Second",
          "logBase": 1,
          "max": null,
          "min": 0,
          "show": true
        },
        {
          "format": "short",
          "label": null,
          "logBase": 1,
          "max": 1,
          "min": 0,
          "show": false
        }
      ]
    },
    {
      "aliasColors": {
      },
      "bars": false,
      "dashLength": 10,
      "dashes": false,
      "datasource": "$PROMETHEUS_DS",
      "decimals": 2,
      "description": "Percentage of jobs that fail with an error. Lower is better.",
      "fill": 0,
      "fillGradient": 0,
      "gridPos": {
        "h": 8,
        "w": 6,
        "x": 18,
        "y": 101
      },
      "id": 2383655193,
      "legend": {
        "alignAsTable": true,
        "avg": true,
        "current": true,
        "hideEmpty": true,
        "max": true,
        "min": true,
        "rightSide": false,
        "show": true,
        "sideWidth": null,
        "total": false,
        "values": true
      },
      "lines": true,
      "linewidth": 2,
      "links": [

      ],
      "nullPointMode": "null",
      "options": {
        "dataLinks": [
          {
            "targetBlank": true,
            "title": "ElasticSearch: Sidekiq logs",
            "url": "https://log.gprd.gitlab.net/app/kibana#/discover?_a=(columns:!(json.class,json.queue,json.meta.project,json.job_status,json.scheduling_latency_s,json.duration_s),filters:!((meta:(index:'AWNABDRwNDuQHTm2tH6l',key:json.stage.keyword,params:'$stage',type:phrase),query:(match:(json.stage.keyword:(query:'$stage',type:phrase))))),index:'AWNABDRwNDuQHTm2tH6l',query:(language:kuery,query:'json.queue.keyword:${queue:lucene}'))&_g=(time:(from:'${__from:date:iso}',to:'${__to:date:iso}'))"
          },
          {
            "targetBlank": true,
            "title": "ElasticSearch: errors visualization",
            "url": "https://log.gprd.gitlab.net/app/kibana#/visualize/create?type=line&indexPattern=AWNABDRwNDuQHTm2tH6l&_a=(filters:!((meta:(index:'AWNABDRwNDuQHTm2tH6l',key:json.stage.keyword,params:'$stage',type:phrase),query:(match:(json.stage.keyword:(query:'$stage',type:phrase)))),(meta:(index:'AWNABDRwNDuQHTm2tH6l',key:json.job_status,params:fail,type:phrase),query:(match:(json.job_status:(query:fail,type:phrase))))),query:(language:kuery,query:'json.queue.keyword:${queue:lucene}'),vis:(aggs:!((enabled:!t,id:'1',params:(),schema:metric,type:count),(enabled:!t,id:'2',params:(drop_partials:!t,extended_bounds:(),field:json.time,interval:auto,min_doc_count:1,scaleMetricValues:!f,timeRange:(from:'${__from:date:iso}',to:'${__to:date:iso}'),useNormalizedEsInterval:!t),schema:segment,type:date_histogram))))&_g=(time:(from:'${__from:date:iso}',to:'${__to:date:iso}'))"
          }
        ]
      },
      "percentage": false,
      "pointradius": 5,
      "points": false,
      "renderer": "flot",
      "repeat": null,
      "seriesOverrides": [
        {
          "alias": "/.* error ratio$/",
          "color": "#E7D551",
          "zindex": 3
        }
      ],
      "spaceLength": 10,
      "stableId": "error-ratio",
      "stack": false,
      "steppedLine": false,
      "targets": [
        {
          "expr": "clamp_min(clamp_max(sum by (queue) (\n  (sli_aggregations:gitlab_sli_sidekiq_execution_error_total_rate5m{environment=\"$environment\", queue=~\"$queue\"} >= 0)\n)\n/\nsum by (queue) (\n  (sli_aggregations:gitlab_sli_sidekiq_execution_total_rate5m{environment=\"$environment\", queue=~\"$queue\"} >= 0)\n)\n,1),0)\n",
          "format": "time_series",
          "interval": "1m",
          "intervalFactor": 1,
          "legendFormat": "{{ queue }} error ratio",
          "refId": "A"
        }
      ],
      "thresholds": null,
      "timeFrom": null,
      "timeShift": null,
      "title": "Error Ratio",
      "tooltip": {
        "shared": true,
        "sort": 2,
        "value_type": "individual"
      },
      "type": "graph",
      "xaxis": {
        "buckets": null,
        "mode": "time",
        "name": null,
        "show": true,
        "values": [

        ]
      },
      "yaxes": [
        {
          "format": "percentunit",
          "label": "Error Percentage",
          "logBase": 1,
          "max": null,
          "min": null,
          "show": true
        },
        {
          "format": "short",
          "label": null,
          "logBase": 1,
          "max": 1,
          "min": 0,
          "show": false
        }
      ]
    },
    {
      "collapse": false,
      "collapsed": false,
      "gridPos": {
        "h": 1,
        "w": 24,
        "x": 0,
        "y": 201
      },
      "id": 15,
      "panels": [

      ],
      "repeat": null,
      "repeatIteration": null,
      "repeatRowId": null,
      "showTitle": true,
      "title": "Enqueuing (rate of jobs enqueuing)",
      "titleSize": "h6",
      "type": "row"
    },
    {
      "aliasColors": {
      },
      "bars": false,
      "dashLength": 10,
      "dashes": false,
      "datasource": "$PROMETHEUS_DS",
      "decimals": 0,
      "description": "",
      "fill": 0,
      "fillGradient": 0,
      "gridPos": {
        "h": 10,
        "w": 6,
        "x": 0,
        "y": 202
      },
      "id": 16,
      "legend": {
        "alignAsTable": true,
        "avg": true,
        "current": true,
        "hideEmpty": true,
        "max": true,
        "min": true,
        "rightSide": false,
        "show": true,
        "sideWidth": null,
        "total": false,
        "values": true
      },
      "lines": true,
      "linewidth": 2,
      "links": [

      ],
      "nullPointMode": "null",
      "percentage": false,
      "pointradius": 5,
      "points": false,
      "renderer": "flot",
      "repeat": null,
      "seriesOverrides": [

      ],
      "spaceLength": 10,
      "stack": false,
      "steppedLine": false,
      "targets": [
        {
          "expr": "sum by (queue) (\n  gitlab_background_jobs:queue:ops:rate_5m{environment=\"$environment\", queue=~\"$queue\", monitor=\"global\"}\n)\n",
          "format": "time_series",
          "interval": "1m",
          "intervalFactor": 1,
          "legendFormat": "{{ queue }}",
          "refId": "A"
        }
      ],
      "thresholds": [

      ],
      "timeFrom": null,
      "timeShift": null,
      "title": "Jobs Enqueued",
      "tooltip": {
        "shared": true,
        "sort": 2,
        "value_type": "individual"
      },
      "type": "graph",
      "xaxis": {
        "buckets": null,
        "mode": "time",
        "name": null,
        "show": true,
        "values": [

        ]
      },
      "yaxes": [
        {
          "format": "short",
          "label": "",
          "logBase": 1,
          "max": null,
          "min": 0,
          "show": true
        },
        {
          "format": "short",
          "label": null,
          "logBase": 1,
          "max": 1,
          "min": 0,
          "show": false
        }
      ]
    },
    {
      "aliasColors": {
      },
      "bars": false,
      "dashLength": 10,
      "dashes": false,
      "datasource": "$PROMETHEUS_DS",
      "decimals": 0,
      "description": "",
      "fill": 0,
      "fillGradient": 0,
      "gridPos": {
        "h": 10,
        "w": 6,
        "x": 6,
        "y": 202
      },
      "id": 17,
      "legend": {
        "alignAsTable": true,
        "avg": true,
        "current": true,
        "hideEmpty": true,
        "max": true,
        "min": true,
        "rightSide": false,
        "show": true,
        "sideWidth": null,
        "total": false,
        "values": true
      },
      "lines": true,
      "linewidth": 2,
      "links": [

      ],
      "nullPointMode": "null",
      "percentage": false,
      "pointradius": 5,
      "points": false,
      "renderer": "flot",
      "repeat": null,
      "seriesOverrides": [

      ],
      "spaceLength": 10,
      "stack": false,
      "steppedLine": false,
      "targets": [
        {
          "expr": "sum by (type, queue) (\n  gitlab_background_jobs:queue:ops:rate_5m{environment=\"$environment\", queue=~\"$queue\", monitor=\"global\"}\n)\n",
          "format": "time_series",
          "interval": "1m",
          "intervalFactor": 1,
          "legendFormat": "{{ queue }} - {{ type }}",
          "refId": "A"
        }
      ],
      "thresholds": [

      ],
      "timeFrom": null,
      "timeShift": null,
      "title": "Jobs Enqueued per Service",
      "tooltip": {
        "shared": true,
        "sort": 2,
        "value_type": "individual"
      },
      "type": "graph",
      "xaxis": {
        "buckets": null,
        "mode": "time",
        "name": null,
        "show": true,
        "values": [

        ]
      },
      "yaxes": [
        {
          "format": "short",
          "label": "",
          "logBase": 1,
          "max": null,
          "min": 0,
          "show": true
        },
        {
          "format": "short",
          "label": null,
          "logBase": 1,
          "max": 1,
          "min": 0,
          "show": false
        }
      ]
    },
    {
      "aliasColors": {
      },
      "bars": false,
      "dashLength": 10,
      "dashes": false,
      "datasource": "$PROMETHEUS_DS",
      "decimals": 0,
      "description": "Enqueue events separated by immediate (destined for execution) vs delayed (destined for ScheduledSet) scheduling.",
      "fill": 0,
      "fillGradient": 0,
      "gridPos": {
        "h": 10,
        "w": 6,
        "x": 12,
        "y": 202
      },
      "id": 526463602,
      "legend": {
        "alignAsTable": true,
        "avg": true,
        "current": true,
        "hideEmpty": true,
        "max": true,
        "min": true,
        "rightSide": false,
        "show": true,
        "sideWidth": null,
        "total": false,
        "values": true
      },
      "lines": true,
      "linewidth": 2,
      "links": [

      ],
      "nullPointMode": "null",
      "percentage": false,
      "pointradius": 5,
      "points": false,
      "renderer": "flot",
      "repeat": null,
      "seriesOverrides": [

      ],
      "spaceLength": 10,
      "stableId": "enqueued-by-scheduling-type",
      "stack": false,
      "steppedLine": false,
      "targets": [
        {
          "expr": "sum by (queue, scheduling) (\n  rate(sidekiq_enqueued_jobs_total{environment=\"$environment\", stage=\"$stage\", queue=~\"$queue\"}[$__interval])\n  )\n",
          "format": "time_series",
          "interval": "1m",
          "intervalFactor": 1,
          "legendFormat": "{{ queue }} - {{ scheduling }}",
          "refId": "A"
        }
      ],
      "thresholds": [

      ],
      "timeFrom": null,
      "timeShift": null,
      "title": "Jobs Enqueued by Schedule",
      "tooltip": {
        "shared": true,
        "sort": 2,
        "value_type": "individual"
      },
      "type": "graph",
      "xaxis": {
        "buckets": null,
        "mode": "time",
        "name": null,
        "show": true,
        "values": [

        ]
      },
      "yaxes": [
        {
          "format": "short",
          "label": "",
          "logBase": 1,
          "max": null,
          "min": 0,
          "show": true
        },
        {
          "format": "short",
          "label": null,
          "logBase": 1,
          "max": 1,
          "min": 0,
          "show": false
        }
      ]
    },
    {
      "aliasColors": {
      },
      "bars": false,
      "dashLength": 10,
      "dashes": false,
      "datasource": "$PROMETHEUS_DS",
      "decimals": 0,
      "description": "The number of unstarted jobs in a queue",
      "fill": 0,
      "fillGradient": 0,
      "gridPos": {
        "h": 10,
        "w": 6,
        "x": 18,
        "y": 202
      },
      "id": 922970012,
      "legend": {
        "alignAsTable": true,
        "avg": true,
        "current": true,
        "hideEmpty": true,
        "max": true,
        "min": true,
        "rightSide": false,
        "show": true,
        "sideWidth": null,
        "total": false,
        "values": true
      },
      "lines": true,
      "linewidth": 2,
      "links": [

      ],
      "nullPointMode": "null",
      "percentage": false,
      "pointradius": 5,
      "points": false,
      "renderer": "flot",
      "repeat": null,
      "seriesOverrides": [

      ],
      "spaceLength": 10,
      "stableId": "queue-length",
      "stack": false,
      "steppedLine": false,
      "targets": [
        {
          "expr": "max by (name) (max_over_time(sidekiq_queue_size{environment=\"$environment\", name=~\"$queue\"}[$__interval]) and on(fqdn) (redis_connected_slaves != 0))\n",
          "format": "time_series",
          "interval": "1m",
          "intervalFactor": 3,
          "legendFormat": "{{ name }}",
          "refId": "A"
        }
      ],
      "thresholds": [

      ],
      "timeFrom": null,
      "timeShift": null,
      "title": "Queue length",
      "tooltip": {
        "shared": true,
        "sort": 2,
        "value_type": "individual"
      },
      "type": "graph",
      "xaxis": {
        "buckets": null,
        "mode": "time",
        "name": null,
        "show": true,
        "values": [

        ]
      },
      "yaxes": [
        {
          "format": "short",
          "label": "",
          "logBase": 1,
          "max": null,
          "min": 0,
          "show": true
        },
        {
          "format": "short",
          "label": null,
          "logBase": 1,
          "max": 1,
          "min": 0,
          "show": false
        }
      ]
    },
    {
      "collapse": false,
      "collapsed": false,
      "gridPos": {
        "h": 1,
        "w": 24,
        "x": 0,
        "y": 301
      },
      "id": 20,
      "panels": [

      ],
      "repeat": null,
      "repeatIteration": null,
      "repeatRowId": null,
      "showTitle": true,
      "title": "Queue Time & Execution Time",
      "titleSize": "h6",
      "type": "row"
    },
    {
      "content": "* [📈 Kibana: Sidekiq queue time p95 percentile latency aggregated (split by queue)](https://log.gprd.gitlab.net/app/kibana#/visualize/create?type=line&indexPattern=AWNABDRwNDuQHTm2tH6l&_a=(filters:!((meta:(index:'AWNABDRwNDuQHTm2tH6l',key:json.type.keyword,params:sidekiq,type:phrase),query:(match:(json.type.keyword:(query:sidekiq,type:phrase)))),(meta:(index:'AWNABDRwNDuQHTm2tH6l',key:json.queue.keyword,params:'${queue:regex}',type:custom),query:(regexp:(json.queue.keyword:'${queue:regex}')))),query:(language:kuery,query:''),vis:(aggs:!((enabled:!t,id:'1',params:(field:json.scheduling_latency_s,percents:!(95)),schema:metric,type:percentiles),(enabled:!t,id:'2',params:(drop_partials:!t,extended_bounds:(),field:json.time,interval:auto,min_doc_count:1,scaleMetricValues:!f,timeRange:(from:'${__from:date:iso}',to:'${__to:date:iso}'),useNormalizedEsInterval:!t),schema:segment,type:date_histogram),(enabled:!t,id:'3',params:(field:json.queue.keyword,missingBucket:!f,missingBucketLabel:Missing,order:desc,orderAgg:(enabled:!t,id:'3-orderAgg',params:(field:json.scheduling_latency_s),schema:orderAgg,type:sum),orderBy:custom,otherBucket:!t,otherBucketLabel:Other,size:5),schema:group,type:terms)),params:(valueAxes:!((id:'ValueAxis-1',labels:(filter:!t,rotate:0,show:!t,truncate:100),name:'LeftAxis-1',position:left,scale:(mode:normal,type:linear),show:!t,style:(),title:(text:'p95+Request+Duration:+json.scheduling_latency_s'),type:value)))))&_g=(time:(from:'${__from:date:iso}',to:'${__to:date:iso}')))\n",
      "datasource": null,
      "description": "Estimated queue time, between when the job is enqueued and executed. Lower is better.",
      "gridPos": {
        "h": 5,
        "w": 12,
        "x": 0,
        "y": 302
      },
      "id": 21,
      "mode": "markdown",
      "title": "Queue Time - time spend queueing",
      "type": "text"
    },
    {
      "content": "* [📈 Kibana: Sidekiq execution time p95 percentile latency aggregated (split by queue)](https://log.gprd.gitlab.net/app/kibana#/visualize/create?type=line&indexPattern=AWNABDRwNDuQHTm2tH6l&_a=(filters:!((meta:(index:'AWNABDRwNDuQHTm2tH6l',key:json.type.keyword,params:sidekiq,type:phrase),query:(match:(json.type.keyword:(query:sidekiq,type:phrase)))),(meta:(index:'AWNABDRwNDuQHTm2tH6l',key:json.queue.keyword,params:'${queue:regex}',type:custom),query:(regexp:(json.queue.keyword:'${queue:regex}')))),query:(language:kuery,query:''),vis:(aggs:!((enabled:!t,id:'1',params:(field:json.duration_s,percents:!(95)),schema:metric,type:percentiles),(enabled:!t,id:'2',params:(drop_partials:!t,extended_bounds:(),field:json.time,interval:auto,min_doc_count:1,scaleMetricValues:!f,timeRange:(from:'${__from:date:iso}',to:'${__to:date:iso}'),useNormalizedEsInterval:!t),schema:segment,type:date_histogram),(enabled:!t,id:'3',params:(field:json.queue.keyword,missingBucket:!f,missingBucketLabel:Missing,order:desc,orderAgg:(enabled:!t,id:'3-orderAgg',params:(field:json.duration_s),schema:orderAgg,type:sum),orderBy:custom,otherBucket:!t,otherBucketLabel:Other,size:5),schema:group,type:terms)),params:(valueAxes:!((id:'ValueAxis-1',labels:(filter:!t,rotate:0,show:!t,truncate:100),name:'LeftAxis-1',position:left,scale:(mode:normal,type:linear),show:!t,style:(),title:(text:'p95+Request+Duration:+json.duration_s'),type:value)))))&_g=(time:(from:'${__from:date:iso}',to:'${__to:date:iso}')))\n",
      "datasource": null,
      "description": "The duration, once a job starts executing, that it runs for, by shard. Lower is better.",
      "gridPos": {
        "h": 5,
        "w": 12,
        "x": 12,
        "y": 302
      },
      "id": 22,
      "mode": "markdown",
      "title": "Individual Execution Time - time taken for individual jobs to complete",
      "type": "text"
    },
    {
      "collapse": false,
      "collapsed": false,
      "gridPos": {
        "h": 1,
        "w": 24,
        "x": 0,
        "y": 501
      },
      "id": 23,
      "panels": [

      ],
      "repeat": null,
      "repeatIteration": null,
      "repeatRowId": null,
      "showTitle": true,
      "title": "Execution RPS (the rate at which jobs are completed after dequeue)",
      "titleSize": "h6",
      "type": "row"
    },
    {
      "aliasColors": {
      },
      "bars": false,
      "dashLength": 10,
      "dashes": false,
      "datasource": "$PROMETHEUS_DS",
      "decimals": 0,
      "description": "",
      "fill": 0,
      "fillGradient": 0,
      "gridPos": {
        "h": 10,
        "w": 24,
        "x": 0,
        "y": 502
      },
      "id": 24,
      "legend": {
        "alignAsTable": true,
        "avg": true,
        "current": true,
        "hideEmpty": true,
        "max": true,
        "min": true,
        "rightSide": false,
        "show": true,
        "sideWidth": null,
        "total": false,
        "values": true
      },
      "lines": true,
      "linewidth": 2,
      "links": [

      ],
      "nullPointMode": "null",
      "percentage": false,
      "pointradius": 5,
      "points": false,
      "renderer": "flot",
      "repeat": null,
      "seriesOverrides": [

      ],
      "spaceLength": 10,
      "stack": false,
      "steppedLine": false,
      "targets": [
        {
          "expr": "sum by (queue) (\n  sli_aggregations:gitlab_sli_sidekiq_execution_total_rate5m{environment=\"$environment\", queue=~\"$queue\"}\n)\n",
          "format": "time_series",
          "interval": "1m",
          "intervalFactor": 1,
          "legendFormat": "{{ queue }}",
          "refId": "A"
        }
      ],
      "thresholds": [

      ],
      "timeFrom": null,
      "timeShift": null,
      "title": "RPS",
      "tooltip": {
        "shared": true,
        "sort": 2,
        "value_type": "individual"
      },
      "type": "graph",
      "xaxis": {
        "buckets": null,
        "mode": "time",
        "name": null,
        "show": true,
        "values": [

        ]
      },
      "yaxes": [
        {
          "format": "short",
          "label": "",
          "logBase": 1,
          "max": null,
          "min": 0,
          "show": true
        },
        {
          "format": "short",
          "label": null,
          "logBase": 1,
          "max": 1,
          "min": 0,
          "show": false
        }
      ]
    },
    {
      "collapse": false,
      "collapsed": false,
      "gridPos": {
        "h": 1,
        "w": 24,
        "x": 0,
        "y": 601
      },
      "id": 25,
      "panels": [

      ],
      "repeat": null,
      "repeatIteration": null,
      "repeatRowId": null,
      "showTitle": true,
      "title": "Error Rate (the rate at which jobs fail)",
      "titleSize": "h6",
      "type": "row"
    },
    {
      "aliasColors": {
      },
      "bars": false,
      "dashLength": 10,
      "dashes": false,
      "datasource": "$PROMETHEUS_DS",
      "decimals": 0,
      "description": "",
      "fill": 0,
      "fillGradient": 0,
      "gridPos": {
        "h": 10,
        "w": 12,
        "x": 0,
        "y": 602
      },
      "id": 26,
      "legend": {
        "alignAsTable": true,
        "avg": true,
        "current": true,
        "hideEmpty": true,
        "max": true,
        "min": true,
        "rightSide": false,
        "show": true,
        "sideWidth": null,
        "total": false,
        "values": true
      },
      "lines": true,
      "linewidth": 2,
      "links": [

      ],
      "nullPointMode": "null",
      "percentage": false,
      "pointradius": 5,
      "points": false,
      "renderer": "flot",
      "repeat": null,
      "seriesOverrides": [

      ],
      "spaceLength": 10,
      "stack": false,
      "steppedLine": false,
      "targets": [
        {
          "expr": "sum by (queue) (\n  sli_aggregations:gitlab_sli_sidekiq_execution_error_total_rate5m{environment=\"$environment\", queue=~\"$queue\"}\n)\n",
          "format": "time_series",
          "interval": "1m",
          "intervalFactor": 1,
          "legendFormat": "{{ queue }}",
          "refId": "A"
        }
      ],
      "thresholds": [

      ],
      "timeFrom": null,
      "timeShift": null,
      "title": "Errors",
      "tooltip": {
        "shared": true,
        "sort": 2,
        "value_type": "individual"
      },
      "type": "graph",
      "xaxis": {
        "buckets": null,
        "mode": "time",
        "name": null,
        "show": true,
        "values": [

        ]
      },
      "yaxes": [
        {
          "format": "short",
          "label": "",
          "logBase": 1,
          "max": null,
          "min": 0,
          "show": true
        },
        {
          "format": "short",
          "label": null,
          "logBase": 1,
          "max": 1,
          "min": 0,
          "show": false
        }
      ]
    },
    {
      "aliasColors": {
      },
      "bars": false,
      "dashLength": 10,
      "dashes": false,
      "datasource": "$PROMETHEUS_DS",
      "decimals": 0,
      "description": "",
      "fill": 0,
      "fillGradient": 0,
      "gridPos": {
        "h": 10,
        "w": 12,
        "x": 12,
        "y": 602
      },
      "id": 27,
      "legend": {
        "alignAsTable": true,
        "avg": true,
        "current": true,
        "hideEmpty": true,
        "max": true,
        "min": true,
        "rightSide": false,
        "show": true,
        "sideWidth": null,
        "total": false,
        "values": true
      },
      "lines": true,
      "linewidth": 2,
      "links": [

      ],
      "nullPointMode": "null",
      "percentage": false,
      "pointradius": 5,
      "points": false,
      "renderer": "flot",
      "repeat": null,
      "seriesOverrides": [

      ],
      "spaceLength": 10,
      "stack": false,
      "steppedLine": false,
      "targets": [
        {
          "expr": "sum by (queue) (\n  increase(sidekiq_jobs_dead_total{environment=\"$environment\",queue=~\"$queue\",stage=\"$stage\",type=\"sidekiq\"}[5m])\n)\n",
          "format": "time_series",
          "interval": "1m",
          "intervalFactor": 1,
          "legendFormat": "{{ queue }}",
          "refId": "A"
        }
      ],
      "thresholds": [

      ],
      "timeFrom": null,
      "timeShift": null,
      "title": "Dead Jobs",
      "tooltip": {
        "shared": true,
        "sort": 2,
        "value_type": "individual"
      },
      "type": "graph",
      "xaxis": {
        "buckets": null,
        "mode": "time",
        "name": null,
        "show": true,
        "values": [

        ]
      },
      "yaxes": [
        {
          "format": "short",
          "label": "",
          "logBase": 1,
          "max": null,
          "min": 0,
          "show": true
        },
        {
          "format": "short",
          "label": null,
          "logBase": 1,
          "max": 1,
          "min": 0,
          "show": false
        }
      ]
    },
    {
      "collapse": false,
      "collapsed": false,
      "gridPos": {
        "h": 1,
        "w": 24,
        "x": 0,
        "y": 701
      },
      "id": 28,
      "panels": [

      ],
      "repeat": null,
      "repeatIteration": null,
      "repeatRowId": null,
      "showTitle": true,
      "title": "Resource Usage",
      "titleSize": "h6",
      "type": "row"
    },
    {
      "aliasColors": {
      },
      "bars": false,
      "dashLength": 10,
      "dashes": false,
      "datasource": "$PROMETHEUS_DS",
      "decimals": 2,
      "description": "",
      "fill": 0,
      "fillGradient": 0,
      "gridPos": {
        "h": 10,
        "w": 8,
        "x": 0,
        "y": 702
      },
      "id": 29,
      "legend": {
        "alignAsTable": true,
        "avg": true,
        "current": true,
        "hideEmpty": true,
        "max": true,
        "min": true,
        "rightSide": false,
        "show": true,
        "sideWidth": null,
        "total": false,
        "values": true
      },
      "lines": true,
      "linewidth": 2,
      "links": [

      ],
      "nullPointMode": "null",
      "percentage": false,
      "pointradius": 5,
      "points": false,
      "renderer": "flot",
      "repeat": null,
      "seriesOverrides": [

      ],
      "spaceLength": 10,
      "stack": false,
      "steppedLine": false,
      "targets": [
        {
          "expr": "histogram_quantile(0.5, sum by (queue, le) (\n  rate(sidekiq_jobs_cpu_seconds_bucket{environment=\"$environment\",queue=~\"$queue\",stage=\"$stage\",type=\"sidekiq\"}[$__interval])\n))\n",
          "format": "time_series",
          "interval": "1m",
          "intervalFactor": 1,
          "legendFormat": "{{ queue }} p50",
          "refId": "A"
        },
        {
          "expr": "histogram_quantile(0.9, sum by (queue, le) (\n  rate(sidekiq_jobs_cpu_seconds_bucket{environment=\"$environment\",queue=~\"$queue\",stage=\"$stage\",type=\"sidekiq\"}[$__interval])\n))\n",
          "format": "time_series",
          "interval": "1m",
          "intervalFactor": 1,
          "legendFormat": "{{ queue }} p90",
          "refId": "B"
        },
        {
          "expr": "histogram_quantile(0.95, sum by (queue, le) (\n  rate(sidekiq_jobs_cpu_seconds_bucket{environment=\"$environment\",queue=~\"$queue\",stage=\"$stage\",type=\"sidekiq\"}[$__interval])\n))\n",
          "format": "time_series",
          "interval": "1m",
          "intervalFactor": 1,
          "legendFormat": "{{ queue }} p95",
          "refId": "C"
        },
        {
          "expr": "histogram_quantile(0.99, sum by (queue, le) (\n  rate(sidekiq_jobs_cpu_seconds_bucket{environment=\"$environment\",queue=~\"$queue\",stage=\"$stage\",type=\"sidekiq\"}[$__interval])\n))\n",
          "format": "time_series",
          "interval": "1m",
          "intervalFactor": 1,
          "legendFormat": "{{ queue }} p99",
          "refId": "D"
        }
      ],
      "thresholds": [

      ],
      "timeFrom": null,
      "timeShift": null,
      "title": "CPU Time",
      "tooltip": {
        "shared": true,
        "sort": 2,
        "value_type": "individual"
      },
      "type": "graph",
      "xaxis": {
        "buckets": null,
        "mode": "time",
        "name": null,
        "show": true,
        "values": [

        ]
      },
      "yaxes": [
        {
          "format": "s",
          "label": "Duration",
          "logBase": 1,
          "max": null,
          "min": 0,
          "show": true
        },
        {
          "format": "short",
          "label": null,
          "logBase": 1,
          "max": 1,
          "min": 0,
          "show": false
        }
      ]
    },
    {
      "aliasColors": {
      },
      "bars": false,
      "dashLength": 10,
      "dashes": false,
      "datasource": "$PROMETHEUS_DS",
      "decimals": 2,
      "description": "",
      "fill": 0,
      "fillGradient": 0,
      "gridPos": {
        "h": 10,
        "w": 8,
        "x": 8,
        "y": 702
      },
      "id": 30,
      "legend": {
        "alignAsTable": true,
        "avg": true,
        "current": true,
        "hideEmpty": true,
        "max": true,
        "min": true,
        "rightSide": false,
        "show": true,
        "sideWidth": null,
        "total": false,
        "values": true
      },
      "lines": true,
      "linewidth": 2,
      "links": [

      ],
      "nullPointMode": "null",
      "percentage": false,
      "pointradius": 5,
      "points": false,
      "renderer": "flot",
      "repeat": null,
      "seriesOverrides": [

      ],
      "spaceLength": 10,
      "stack": false,
      "steppedLine": false,
      "targets": [
        {
          "expr": "histogram_quantile(0.5, sum by (queue, le) (\n  rate(sidekiq_jobs_gitaly_seconds_bucket{environment=\"$environment\",queue=~\"$queue\",stage=\"$stage\",type=\"sidekiq\"}[$__interval])\n))\n",
          "format": "time_series",
          "interval": "1m",
          "intervalFactor": 1,
          "legendFormat": "{{ queue }} p50",
          "refId": "A"
        },
        {
          "expr": "histogram_quantile(0.9, sum by (queue, le) (\n  rate(sidekiq_jobs_gitaly_seconds_bucket{environment=\"$environment\",queue=~\"$queue\",stage=\"$stage\",type=\"sidekiq\"}[$__interval])\n))\n",
          "format": "time_series",
          "interval": "1m",
          "intervalFactor": 1,
          "legendFormat": "{{ queue }} p90",
          "refId": "B"
        },
        {
          "expr": "histogram_quantile(0.95, sum by (queue, le) (\n  rate(sidekiq_jobs_gitaly_seconds_bucket{environment=\"$environment\",queue=~\"$queue\",stage=\"$stage\",type=\"sidekiq\"}[$__interval])\n))\n",
          "format": "time_series",
          "interval": "1m",
          "intervalFactor": 1,
          "legendFormat": "{{ queue }} p95",
          "refId": "C"
        },
        {
          "expr": "histogram_quantile(0.99, sum by (queue, le) (\n  rate(sidekiq_jobs_gitaly_seconds_bucket{environment=\"$environment\",queue=~\"$queue\",stage=\"$stage\",type=\"sidekiq\"}[$__interval])\n))\n",
          "format": "time_series",
          "interval": "1m",
          "intervalFactor": 1,
          "legendFormat": "{{ queue }} p99",
          "refId": "D"
        }
      ],
      "thresholds": [

      ],
      "timeFrom": null,
      "timeShift": null,
      "title": "Gitaly Time",
      "tooltip": {
        "shared": true,
        "sort": 2,
        "value_type": "individual"
      },
      "type": "graph",
      "xaxis": {
        "buckets": null,
        "mode": "time",
        "name": null,
        "show": true,
        "values": [

        ]
      },
      "yaxes": [
        {
          "format": "s",
          "label": "Duration",
          "logBase": 1,
          "max": null,
          "min": 0,
          "show": true
        },
        {
          "format": "short",
          "label": null,
          "logBase": 1,
          "max": 1,
          "min": 0,
          "show": false
        }
      ]
    },
    {
      "aliasColors": {
      },
      "bars": false,
      "dashLength": 10,
      "dashes": false,
      "datasource": "$PROMETHEUS_DS",
      "decimals": 2,
      "description": "",
      "fill": 0,
      "fillGradient": 0,
      "gridPos": {
        "h": 10,
        "w": 8,
        "x": 16,
        "y": 702
      },
      "id": 31,
      "legend": {
        "alignAsTable": true,
        "avg": true,
        "current": true,
        "hideEmpty": true,
        "max": true,
        "min": true,
        "rightSide": false,
        "show": true,
        "sideWidth": null,
        "total": false,
        "values": true
      },
      "lines": true,
      "linewidth": 2,
      "links": [

      ],
      "nullPointMode": "null",
      "percentage": false,
      "pointradius": 5,
      "points": false,
      "renderer": "flot",
      "repeat": null,
      "seriesOverrides": [

      ],
      "spaceLength": 10,
      "stack": false,
      "steppedLine": false,
      "targets": [
        {
          "expr": "histogram_quantile(0.5, sum by (queue, le) (\n  rate(sidekiq_jobs_db_seconds_bucket{environment=\"$environment\",queue=~\"$queue\",stage=\"$stage\",type=\"sidekiq\"}[$__interval])\n))\n",
          "format": "time_series",
          "interval": "1m",
          "intervalFactor": 1,
          "legendFormat": "{{ queue }} p50",
          "refId": "A"
        },
        {
          "expr": "histogram_quantile(0.9, sum by (queue, le) (\n  rate(sidekiq_jobs_db_seconds_bucket{environment=\"$environment\",queue=~\"$queue\",stage=\"$stage\",type=\"sidekiq\"}[$__interval])\n))\n",
          "format": "time_series",
          "interval": "1m",
          "intervalFactor": 1,
          "legendFormat": "{{ queue }} p90",
          "refId": "B"
        },
        {
          "expr": "histogram_quantile(0.95, sum by (queue, le) (\n  rate(sidekiq_jobs_db_seconds_bucket{environment=\"$environment\",queue=~\"$queue\",stage=\"$stage\",type=\"sidekiq\"}[$__interval])\n))\n",
          "format": "time_series",
          "interval": "1m",
          "intervalFactor": 1,
          "legendFormat": "{{ queue }} p95",
          "refId": "C"
        },
        {
          "expr": "histogram_quantile(0.99, sum by (queue, le) (\n  rate(sidekiq_jobs_db_seconds_bucket{environment=\"$environment\",queue=~\"$queue\",stage=\"$stage\",type=\"sidekiq\"}[$__interval])\n))\n",
          "format": "time_series",
          "interval": "1m",
          "intervalFactor": 1,
          "legendFormat": "{{ queue }} p99",
          "refId": "D"
        }
      ],
      "thresholds": [

      ],
      "timeFrom": null,
      "timeShift": null,
      "title": "Database Time",
      "tooltip": {
        "shared": true,
        "sort": 2,
        "value_type": "individual"
      },
      "type": "graph",
      "xaxis": {
        "buckets": null,
        "mode": "time",
        "name": null,
        "show": true,
        "values": [

        ]
      },
      "yaxes": [
        {
          "format": "s",
          "label": "Duration",
          "logBase": 1,
          "max": null,
          "min": 0,
          "show": true
        },
        {
          "format": "short",
          "label": null,
          "logBase": 1,
          "max": 1,
          "min": 0,
          "show": false
        }
      ]
    },
    {
      "aliasColors": {
      },
      "bars": false,
      "dashLength": 10,
      "dashes": false,
      "datasource": "$PROMETHEUS_DS",
      "decimals": 2,
      "description": "",
      "fill": 0,
      "fillGradient": 0,
      "gridPos": {
        "h": 10,
        "w": 8,
        "x": 0,
        "y": 703
      },
      "id": 32,
      "legend": {
        "alignAsTable": true,
        "avg": true,
        "current": true,
        "hideEmpty": true,
        "max": true,
        "min": true,
        "rightSide": false,
        "show": true,
        "sideWidth": null,
        "total": false,
        "values": true
      },
      "lines": true,
      "linewidth": 2,
      "links": [

      ],
      "nullPointMode": "null",
      "percentage": false,
      "pointradius": 5,
      "points": false,
      "renderer": "flot",
      "repeat": null,
      "seriesOverrides": [

      ],
      "spaceLength": 10,
      "stack": false,
      "steppedLine": false,
      "targets": [
        {
          "expr": "histogram_quantile(0.5, sum by (queue, le) (\n  rate(sidekiq_redis_requests_duration_seconds_bucket{environment=\"$environment\",queue=~\"$queue\",stage=\"$stage\",type=\"sidekiq\"}[$__interval])\n))\n",
          "format": "time_series",
          "interval": "1m",
          "intervalFactor": 1,
          "legendFormat": "{{ queue }} p50",
          "refId": "A"
        },
        {
          "expr": "histogram_quantile(0.9, sum by (queue, le) (\n  rate(sidekiq_redis_requests_duration_seconds_bucket{environment=\"$environment\",queue=~\"$queue\",stage=\"$stage\",type=\"sidekiq\"}[$__interval])\n))\n",
          "format": "time_series",
          "interval": "1m",
          "intervalFactor": 1,
          "legendFormat": "{{ queue }} p90",
          "refId": "B"
        },
        {
          "expr": "histogram_quantile(0.95, sum by (queue, le) (\n  rate(sidekiq_redis_requests_duration_seconds_bucket{environment=\"$environment\",queue=~\"$queue\",stage=\"$stage\",type=\"sidekiq\"}[$__interval])\n))\n",
          "format": "time_series",
          "interval": "1m",
          "intervalFactor": 1,
          "legendFormat": "{{ queue }} p95",
          "refId": "C"
        },
        {
          "expr": "histogram_quantile(0.99, sum by (queue, le) (\n  rate(sidekiq_redis_requests_duration_seconds_bucket{environment=\"$environment\",queue=~\"$queue\",stage=\"$stage\",type=\"sidekiq\"}[$__interval])\n))\n",
          "format": "time_series",
          "interval": "1m",
          "intervalFactor": 1,
          "legendFormat": "{{ queue }} p99",
          "refId": "D"
        }
      ],
      "thresholds": [

      ],
      "timeFrom": null,
      "timeShift": null,
      "title": "Redis Time",
      "tooltip": {
        "shared": true,
        "sort": 2,
        "value_type": "individual"
      },
      "type": "graph",
      "xaxis": {
        "buckets": null,
        "mode": "time",
        "name": null,
        "show": true,
        "values": [

        ]
      },
      "yaxes": [
        {
          "format": "s",
          "label": "Duration",
          "logBase": 1,
          "max": null,
          "min": 0,
          "show": true
        },
        {
          "format": "short",
          "label": null,
          "logBase": 1,
          "max": 1,
          "min": 0,
          "show": false
        }
      ]
    },
    {
      "aliasColors": {
      },
      "bars": false,
      "dashLength": 10,
      "dashes": false,
      "datasource": "$PROMETHEUS_DS",
      "decimals": 2,
      "description": "",
      "fill": 0,
      "fillGradient": 0,
      "gridPos": {
        "h": 10,
        "w": 8,
        "x": 8,
        "y": 703
      },
      "id": 33,
      "legend": {
        "alignAsTable": true,
        "avg": true,
        "current": true,
        "hideEmpty": true,
        "max": true,
        "min": true,
        "rightSide": false,
        "show": true,
        "sideWidth": null,
        "total": false,
        "values": true
      },
      "lines": true,
      "linewidth": 2,
      "links": [

      ],
      "nullPointMode": "null",
      "percentage": false,
      "pointradius": 5,
      "points": false,
      "renderer": "flot",
      "repeat": null,
      "seriesOverrides": [

      ],
      "spaceLength": 10,
      "stack": false,
      "steppedLine": false,
      "targets": [
        {
          "expr": "histogram_quantile(0.5, sum by (queue, le) (\n  rate(sidekiq_elasticsearch_requests_duration_seconds_bucket{environment=\"$environment\",queue=~\"$queue\",stage=\"$stage\",type=\"sidekiq\"}[$__interval])\n))\n",
          "format": "time_series",
          "interval": "1m",
          "intervalFactor": 1,
          "legendFormat": "{{ queue }} p50",
          "refId": "A"
        },
        {
          "expr": "histogram_quantile(0.9, sum by (queue, le) (\n  rate(sidekiq_elasticsearch_requests_duration_seconds_bucket{environment=\"$environment\",queue=~\"$queue\",stage=\"$stage\",type=\"sidekiq\"}[$__interval])\n))\n",
          "format": "time_series",
          "interval": "1m",
          "intervalFactor": 1,
          "legendFormat": "{{ queue }} p90",
          "refId": "B"
        },
        {
          "expr": "histogram_quantile(0.95, sum by (queue, le) (\n  rate(sidekiq_elasticsearch_requests_duration_seconds_bucket{environment=\"$environment\",queue=~\"$queue\",stage=\"$stage\",type=\"sidekiq\"}[$__interval])\n))\n",
          "format": "time_series",
          "interval": "1m",
          "intervalFactor": 1,
          "legendFormat": "{{ queue }} p95",
          "refId": "C"
        },
        {
          "expr": "histogram_quantile(0.99, sum by (queue, le) (\n  rate(sidekiq_elasticsearch_requests_duration_seconds_bucket{environment=\"$environment\",queue=~\"$queue\",stage=\"$stage\",type=\"sidekiq\"}[$__interval])\n))\n",
          "format": "time_series",
          "interval": "1m",
          "intervalFactor": 1,
          "legendFormat": "{{ queue }} p99",
          "refId": "D"
        }
      ],
      "thresholds": [

      ],
      "timeFrom": null,
      "timeShift": null,
      "title": "Elasticsearch Time",
      "tooltip": {
        "shared": true,
        "sort": 2,
        "value_type": "individual"
      },
      "type": "graph",
      "xaxis": {
        "buckets": null,
        "mode": "time",
        "name": null,
        "show": true,
        "values": [

        ]
      },
      "yaxes": [
        {
          "format": "s",
          "label": "Duration",
          "logBase": 1,
          "max": null,
          "min": 0,
          "show": true
        },
        {
          "format": "short",
          "label": null,
          "logBase": 1,
          "max": 1,
          "min": 0,
          "show": false
        }
      ]
    },
    {
      "collapse": false,
      "collapsed": false,
      "gridPos": {
        "h": 1,
        "w": 24,
        "x": 0,
        "y": 901
      },
      "id": 34,
      "panels": [

      ],
      "repeat": null,
      "repeatIteration": null,
      "repeatRowId": null,
      "showTitle": true,
      "title": "SQL",
      "titleSize": "h6",
      "type": "row"
    },
    {
      "aliasColors": {
      },
      "bars": false,
      "dashLength": 10,
      "dashes": false,
      "datasource": "$PROMETHEUS_DS",
      "decimals": 0,
      "description": "",
      "fill": 0,
      "fillGradient": 0,
      "gridPos": {
        "h": 10,
        "w": 8,
        "x": 0,
        "y": 902
      },
      "id": 1266521010,
      "legend": {
        "alignAsTable": true,
        "avg": true,
        "current": true,
        "hideEmpty": true,
        "max": true,
        "min": true,
        "rightSide": false,
        "show": true,
        "sideWidth": null,
        "total": false,
        "values": true
      },
      "lines": true,
      "linewidth": 2,
      "links": [

      ],
      "nullPointMode": "null",
      "percentage": false,
      "pointradius": 5,
      "points": false,
      "renderer": "flot",
      "repeat": null,
      "seriesOverrides": [

      ],
      "spaceLength": 10,
      "stableId": "total-sql-queries-rate",
      "stack": false,
      "steppedLine": false,
      "targets": [
        {
          "expr": "sum by (endpoint_id) (\n  rate(\n    gitlab_transaction_db_count_total{environment=\"$environment\",queue=~\"$queue\",stage=\"$stage\",type=\"sidekiq\"}[$__interval]\n  )\n)\n",
          "format": "time_series",
          "interval": "1m",
          "intervalFactor": 1,
          "legendFormat": "{{ endpoint_id }} - total",
          "refId": "A"
        },
        {
          "expr": "sum by (endpoint_id) (\n  rate(\n    gitlab_transaction_db_primary_count_total{environment=\"$environment\",queue=~\"$queue\",stage=\"$stage\",type=\"sidekiq\"}[$__interval]\n  )\n)\n",
          "format": "time_series",
          "interval": "1m",
          "intervalFactor": 1,
          "legendFormat": "{{ endpoint_id }} - primary",
          "refId": "B"
        },
        {
          "expr": "sum by (endpoint_id) (\n  rate(\n    gitlab_transaction_db_replica_count_total{environment=\"$environment\",queue=~\"$queue\",stage=\"$stage\",type=\"sidekiq\"}[$__interval]\n  )\n)\n",
          "format": "time_series",
          "interval": "1m",
          "intervalFactor": 1,
          "legendFormat": "{{ endpoint_id }} - replica",
          "refId": "C"
        }
      ],
      "thresholds": [

      ],
      "timeFrom": null,
      "timeShift": null,
      "title": "Total SQL Queries Rate",
      "tooltip": {
        "shared": true,
        "sort": 2,
        "value_type": "individual"
      },
      "type": "graph",
      "xaxis": {
        "buckets": null,
        "mode": "time",
        "name": null,
        "show": true,
        "values": [

        ]
      },
      "yaxes": [
        {
          "format": "ops",
          "label": "",
          "logBase": 1,
          "max": null,
          "min": 0,
          "show": true
        },
        {
          "format": "short",
          "label": null,
          "logBase": 1,
          "max": 1,
          "min": 0,
          "show": false
        }
      ]
    },
    {
      "aliasColors": {
      },
      "bars": false,
      "dashLength": 10,
      "dashes": false,
      "datasource": "$PROMETHEUS_DS",
      "decimals": 0,
      "description": "",
      "fill": 0,
      "fillGradient": 0,
      "gridPos": {
        "h": 10,
        "w": 8,
        "x": 8,
        "y": 902
      },
      "id": 260857907,
      "legend": {
        "alignAsTable": true,
        "avg": true,
        "current": true,
        "hideEmpty": true,
        "max": true,
        "min": true,
        "rightSide": false,
        "show": true,
        "sideWidth": null,
        "total": false,
        "values": true
      },
      "lines": true,
      "linewidth": 2,
      "links": [

      ],
      "nullPointMode": "null",
      "percentage": false,
      "pointradius": 5,
      "points": false,
      "renderer": "flot",
      "repeat": null,
      "seriesOverrides": [

      ],
      "spaceLength": 10,
      "stableId": "sql-transaction",
      "stack": false,
      "steppedLine": false,
      "targets": [
        {
          "expr": "sum by (endpoint_id) (\n  rate(gitlab_database_transaction_seconds_count{environment=\"$environment\",queue=~\"$queue\",stage=\"$stage\",type=\"sidekiq\"}[$__interval])\n)\n",
          "format": "time_series",
          "interval": "1m",
          "intervalFactor": 1,
          "legendFormat": "{{ endpoint_id }}",
          "refId": "A"
        }
      ],
      "thresholds": [

      ],
      "timeFrom": null,
      "timeShift": null,
      "title": "SQL Transactions Rate",
      "tooltip": {
        "shared": true,
        "sort": 2,
        "value_type": "individual"
      },
      "type": "graph",
      "xaxis": {
        "buckets": null,
        "mode": "time",
        "name": null,
        "show": true,
        "values": [

        ]
      },
      "yaxes": [
        {
          "format": "short",
          "label": "",
          "logBase": 1,
          "max": null,
          "min": 0,
          "show": true
        },
        {
          "format": "short",
          "label": null,
          "logBase": 1,
          "max": 1,
          "min": 0,
          "show": false
        }
      ]
    },
    {
      "aliasColors": {
      },
      "bars": false,
      "dashLength": 10,
      "dashes": false,
      "datasource": "$PROMETHEUS_DS",
      "decimals": 0,
      "description": "",
      "fill": 0,
      "fillGradient": 0,
      "gridPos": {
        "h": 10,
        "w": 8,
        "x": 16,
        "y": 902
      },
      "id": 3344517543,
      "legend": {
        "alignAsTable": true,
        "avg": true,
        "current": true,
        "hideEmpty": true,
        "max": true,
        "min": true,
        "rightSide": false,
        "show": true,
        "sideWidth": null,
        "total": false,
        "values": true
      },
      "lines": true,
      "linewidth": 2,
      "links": [

      ],
      "nullPointMode": "null",
      "percentage": false,
      "pointradius": 5,
      "points": false,
      "renderer": "flot",
      "repeat": null,
      "seriesOverrides": [

      ],
      "spaceLength": 10,
      "stableId": "sql-transaction-holding-duration",
      "stack": false,
      "steppedLine": false,
      "targets": [
        {
          "expr": "sum(rate(gitlab_database_transaction_seconds_sum{environment=\"$environment\",queue=~\"$queue\",stage=\"$stage\",type=\"sidekiq\"}[$__interval])) by (endpoint_id)\n/\nsum(rate(gitlab_database_transaction_seconds_count{environment=\"$environment\",queue=~\"$queue\",stage=\"$stage\",type=\"sidekiq\"}[$__interval])) by (endpoint_id)\n",
          "format": "time_series",
          "interval": "1m",
          "intervalFactor": 1,
          "legendFormat": "{{ endpoint_id }} - p50",
          "refId": "A"
        },
        {
          "expr": "histogram_quantile(0.95, sum(rate(gitlab_database_transaction_seconds_bucket{environment=\"$environment\",queue=~\"$queue\",stage=\"$stage\",type=\"sidekiq\"}[$__interval])) by (endpoint_id, le))\n",
          "format": "time_series",
          "interval": "1m",
          "intervalFactor": 1,
          "legendFormat": "{{ endpoint_id }} - p95",
          "refId": "B"
        }
      ],
      "thresholds": [

      ],
      "timeFrom": null,
      "timeShift": null,
      "title": "SQL Transaction Holding Duration",
      "tooltip": {
        "shared": true,
        "sort": 2,
        "value_type": "individual"
      },
      "type": "graph",
      "xaxis": {
        "buckets": null,
        "mode": "time",
        "name": null,
        "show": true,
        "values": [

        ]
      },
      "yaxes": [
        {
          "format": "s",
          "label": "",
          "logBase": 1,
          "max": null,
          "min": 0,
          "show": true
        },
        {
          "format": "short",
          "label": null,
          "logBase": 1,
          "max": 1,
          "min": 0,
          "show": false
        }
      ]
    },
    {
      "content": "Made with ❤️ and [Grafonnet](https://github.com/grafana/grafonnet-lib). [Contribute to this dashboard on GitLab.com](https://gitlab.com/gitlab-com/runbooks/blob/master/dashboards)\n",
      "datasource": null,
      "gridPos": {
        "h": 2,
        "w": 24,
        "x": 0,
        "y": 110000
      },
      "id": 38,
      "mode": "markdown",
      "title": "Source",
      "type": "text"
    }
  ],
  "refresh": "",
  "rows": [

  ],
  "schemaVersion": 16,
  "style": "light",
  "tags": [
    "managed",
    "sidekiq",
    "type:sidekiq",
    "detail"
  ],
  "templating": {
    "list": [
      {
        "current": {
          "text": "Global",
          "value": "Global"
        },
        "hide": 0,
        "label": null,
        "name": "PROMETHEUS_DS",
        "options": [

        ],
        "query": "prometheus",
        "refresh": 1,
        "regex": "",
        "type": "datasource"
      },
      {
        "allValue": null,
        "current": {
          "text": "gprd",
          "value": "gprd"
        },
        "datasource": "$PROMETHEUS_DS",
        "hide": 0,
        "includeAll": false,
        "label": null,
        "multi": false,
        "name": "environment",
        "options": [

        ],
        "query": "label_values(gitlab_service_ops:rate, environment)",
        "refresh": 1,
        "regex": "",
        "sort": 1,
        "tagValuesQuery": "",
        "tags": [

        ],
        "tagsQuery": "",
        "type": "query",
        "useTags": false
      },
      {
        "allValue": null,
        "current": {
          "text": "main",
          "value": "main"
        },
        "hide": 0,
        "includeAll": false,
        "label": "",
        "multi": false,
        "name": "stage",
        "options": [
          {
            "text": "main",
            "value": "main"
          },
          {
            "text": "cny",
            "value": "cny"
          },
          {
            "text": "",
            "value": ""
          }
        ],
        "query": "main,cny,",
        "refresh": 0,
        "type": "custom"
      },
      {
        "allValue": ".*",
        "current": {
          "text": "default",
          "value": "default"
        },
        "datasource": "$PROMETHEUS_DS",
        "hide": 0,
        "includeAll": true,
        "label": null,
        "multi": true,
        "name": "queue",
        "options": [

        ],
        "query": "label_values(gitlab_background_jobs:queue:ops:rate_1h{environment=\"$environment\", type=\"sidekiq\", monitor=\"global\"}, queue)",
        "refresh": 1,
        "regex": "",
        "sort": 1,
        "tagValuesQuery": "",
        "tags": [

        ],
        "tagsQuery": "",
        "type": "query",
        "useTags": false
      }
    ]
  },
  "time": {
    "from": "now-6h/m",
    "to": "now/m"
  },
  "timepicker": {
    "refresh_intervals": [
      "1m",
      "5m",
      "10m",
      "15m",
      "30m"
    ],
    "time_options": [
      "5m",
      "15m",
      "1h",
      "6h",
      "12h",
      "24h",
      "2d",
      "7d",
      "30d"
    ]
  },
  "timezone": "utc",
  "title": "sidekiq: Queue Detail",
  "uid": "sidekiq-queue-detail",
  "version": 3961
}