{
  "__inputs": [

  ],
  "__requires": [

  ],
  "annotations": {
    "list": [
      {
        "builtIn": 1,
        "datasource": "-- Grafana --",
        "enable": true,
        "hide": false,
        "iconColor": "#96D98D",
        "name": "deploy",
        "showIn": 0,
        "tags": [
          "deploy",
          "$environment"
        ],
        "type": "tags"
      },
      {
        "builtIn": 1,
        "datasource": "-- Grafana --",
        "enable": false,
        "hide": false,
        "iconColor": "#FFEE52",
        "name": "canary-deploy",
        "showIn": 0,
        "tags": [
          "deploy",
          "${environment}-cny"
        ],
        "type": "tags"
      },
      {
        "builtIn": 1,
        "datasource": "-- Grafana --",
        "enable": false,
        "hide": false,
        "iconColor": "#CA95E5",
        "name": "feature-flags",
        "showIn": 0,
        "tags": [
          "feature-flag",
          "${environment}"
        ],
        "type": "tags"
      }
    ]
  },
  "description": "Uploaded by https://gitlab.com/gitlab-com/runbooks/-/jobs/5007602057 at Mon Sep  4 05:56:13 UTC 2023",
  "editable": false,
  "gnetId": null,
  "graphTooltip": 1,
  "hideControls": false,
  "id": null,
  "links": [

  ],
  "panels": [
    {
      "bars": false,
      "dashLength": 10,
      "dashes": false,
      "datasource": "$PROMETHEUS_DS",
      "decimals": 2,
      "description": "Apdex is a measure of requests that complete within a tolerable period of time for the service. Higher is better.",
      "fill": 0,
      "fillGradient": 0,
      "gridPos": {
        "h": 8,
        "w": 8,
        "x": 0,
        "y": 10
      },
      "id": 166087858,
      "legend": {
        "alignAsTable": true,
        "avg": true,
        "current": true,
        "hideEmpty": true,
        "max": true,
        "min": true,
        "rightSide": false,
        "show": true,
        "total": false,
        "values": true
      },
      "lines": true,
      "linewidth": 1,
      "nullPointMode": "null",
      "options": {
        "dataLinks": [
          {
            "targetBlank": true,
            "title": "Regional Service Aggregated  Apdex SLO Analysis",
            "url": "/d/alerts-service_regional_slo_apdex?${__url_time_range}&${__all_variables}&var-type=web-pages&var-stage=$stage"
          }
        ]
      },
      "percentage": false,
      "pointradius": 5,
      "points": false,
      "renderer": "flot",
      "seriesOverrides": [
        {
          "alias": "6h Degradation SLO (5% of monthly error budget)",
          "color": "#FF4500",
          "dashLength": 4,
          "dashes": true,
          "legend": true,
          "lines": true,
          "linewidth": 2,
          "nullPointMode": "connected",
          "spaceLength": 10,
          "zindex": -2
        },
        {
          "alias": "1h Outage SLO (2% of monthly error budget)",
          "color": "#F2495C",
          "dashLength": 4,
          "dashes": true,
          "legend": true,
          "lines": true,
          "linewidth": 4,
          "nullPointMode": "connected",
          "spaceLength": 4,
          "zindex": -2
        },
        {
          "alias": "SLO",
          "color": "#FF4500",
          "dashLength": 4,
          "dashes": true,
          "legend": true,
          "lines": true,
          "linewidth": 4,
          "nullPointMode": "connected",
          "spaceLength": 4,
          "zindex": -2
        }
      ],
      "spaceLength": 10,
      "stableId": "service-regional-web-pages-apdex",
      "stack": false,
      "steppedLine": false,
      "targets": [
        {
          "expr": "min_over_time(gitlab_service_regional_apdex:ratio_5m{env=\"$environment\",environment=\"$environment\",monitor=\"global\",stage=\"$stage\",type=\"web-pages\"}[$__interval])\n",
          "format": "time_series",
          "interval": "1m",
          "intervalFactor": 1,
          "legendFormat": "{{ region }} apdex",
          "refId": "A"
        },
        {
          "expr": "(1 - 6 * (1 - avg(slo:min:events:gitlab_service_apdex:ratio{component=\"\",monitor=\"global\",type=\"web-pages\"})\n))\n",
          "format": "time_series",
          "interval": "5m",
          "intervalFactor": 1,
          "legendFormat": "6h Degradation SLO (5% of monthly error budget)",
          "refId": "B"
        },
        {
          "expr": "(1 - 14.4 * (1 - avg(slo:min:events:gitlab_service_apdex:ratio{component=\"\",monitor=\"global\",type=\"web-pages\"})\n))\n",
          "format": "time_series",
          "interval": "5m",
          "intervalFactor": 1,
          "legendFormat": "1h Outage SLO (2% of monthly error budget)",
          "refId": "C"
        }
      ],
      "title": "Regional Service Aggregated  Apdex",
      "tooltip": {
        "shared": true,
        "sort": 1,
        "value_type": "individual"
      },
      "type": "graph",
      "xaxis": {
        "mode": "time",
        "show": true
      },
      "yaxes": [
        {
          "format": "percentunit",
          "label": "Apdex %",
          "logBase": 1,
          "max": 1,
          "show": true
        },
        {
          "format": "short",
          "logBase": 1,
          "max": 1,
          "min": 0,
          "show": false
        }
      ]
    },
    {
      "bars": false,
      "dashLength": 10,
      "dashes": false,
      "datasource": "$PROMETHEUS_DS",
      "decimals": 2,
      "description": "Error rates are a measure of unhandled service exceptions per second. Client errors are excluded when possible. Lower is better",
      "fill": 0,
      "fillGradient": 0,
      "gridPos": {
        "h": 8,
        "w": 8,
        "x": 8,
        "y": 10
      },
      "id": 2160197778,
      "legend": {
        "alignAsTable": true,
        "avg": true,
        "current": true,
        "hideEmpty": true,
        "max": true,
        "min": true,
        "rightSide": false,
        "show": true,
        "total": false,
        "values": true
      },
      "lines": true,
      "linewidth": 1,
      "nullPointMode": "null",
      "options": {
        "dataLinks": [
          {
            "targetBlank": true,
            "title": "Regional Service Aggregated  Error-Rate SLO Analysis",
            "url": "/d/alerts-service_regional_slo_error?${__url_time_range}&${__all_variables}&var-type=web-pages&var-stage=$stage"
          }
        ]
      },
      "percentage": false,
      "pointradius": 5,
      "points": false,
      "renderer": "flot",
      "seriesOverrides": [
        {
          "alias": "6h Degradation SLO (5% of monthly error budget)",
          "color": "#FF4500",
          "dashLength": 4,
          "dashes": true,
          "legend": true,
          "lines": true,
          "linewidth": 2,
          "nullPointMode": "connected",
          "spaceLength": 10,
          "zindex": -2
        },
        {
          "alias": "1h Outage SLO (2% of monthly error budget)",
          "color": "#F2495C",
          "dashLength": 4,
          "dashes": true,
          "legend": true,
          "lines": true,
          "linewidth": 4,
          "nullPointMode": "connected",
          "spaceLength": 4,
          "zindex": -2
        }
      ],
      "spaceLength": 10,
      "stableId": "service-regional-web-pages-error-rate",
      "stack": false,
      "steppedLine": false,
      "targets": [
        {
          "expr": "clamp_max(\n  max_over_time(gitlab_service_regional_errors:ratio_5m{env=\"$environment\",environment=\"$environment\",monitor=\"global\",stage=\"$stage\",type=\"web-pages\"}[$__interval])\n,\n  1\n)\n",
          "format": "time_series",
          "interval": "1m",
          "intervalFactor": 1,
          "legendFormat": "{{ region }} error ratio",
          "refId": "A"
        },
        {
          "expr": "(6 * avg(slo:max:events:gitlab_service_errors:ratio{component=\"\",monitor=\"global\",type=\"web-pages\"})\n)\n",
          "format": "time_series",
          "interval": "5m",
          "intervalFactor": 1,
          "legendFormat": "6h Degradation SLO (5% of monthly error budget)",
          "refId": "B"
        },
        {
          "expr": "(14.4 * avg(slo:max:events:gitlab_service_errors:ratio{component=\"\",monitor=\"global\",type=\"web-pages\"})\n)\n",
          "format": "time_series",
          "interval": "5m",
          "intervalFactor": 1,
          "legendFormat": "1h Outage SLO (2% of monthly error budget)",
          "refId": "C"
        }
      ],
      "title": "Regional Service Aggregated  Error Ratio",
      "tooltip": {
        "shared": true,
        "sort": 2,
        "value_type": "individual"
      },
      "type": "graph",
      "xaxis": {
        "mode": "time",
        "show": true
      },
      "yaxes": [
        {
          "format": "percentunit",
          "label": "Error %",
          "logBase": 1,
          "min": 0,
          "show": true
        },
        {
          "format": "short",
          "logBase": 1,
          "max": 1,
          "min": 0,
          "show": false
        }
      ]
    },
    {
      "bars": false,
      "dashLength": 10,
      "dashes": false,
      "datasource": "$PROMETHEUS_DS",
      "decimals": 2,
      "description": "The operation rate is the sum total of all requests being handle for all components within this service. Note that a single user request can lead to requests to multiple components. Higher is busier.",
      "fill": 0,
      "fillGradient": 0,
      "gridPos": {
        "h": 8,
        "w": 8,
        "x": 16,
        "y": 10
      },
      "id": 1144272593,
      "legend": {
        "alignAsTable": true,
        "avg": true,
        "current": true,
        "hideEmpty": true,
        "max": true,
        "min": true,
        "rightSide": false,
        "show": true,
        "total": false,
        "values": true
      },
      "lines": true,
      "linewidth": 1,
      "nullPointMode": "null",
      "percentage": false,
      "pointradius": 5,
      "points": false,
      "renderer": "flot",
      "spaceLength": 10,
      "stableId": "service-regional-web-pages-ops-rate",
      "stack": false,
      "steppedLine": false,
      "targets": [
        {
          "expr": "avg_over_time(gitlab_service_regional_ops:rate_5m{env=\"$environment\",environment=\"$environment\",monitor=\"global\",stage=\"$stage\",type=\"web-pages\"}[$__interval])\n",
          "format": "time_series",
          "interval": "1m",
          "intervalFactor": 1,
          "legendFormat": "{{ region }} RPS",
          "refId": "A"
        }
      ],
      "title": "Regional Service Aggregated  RPS - Requests per Second",
      "tooltip": {
        "shared": true,
        "sort": 2,
        "value_type": "individual"
      },
      "type": "graph",
      "xaxis": {
        "mode": "time",
        "show": true
      },
      "yaxes": [
        {
          "format": "short",
          "label": "Operations per Second",
          "logBase": 1,
          "min": 0,
          "show": true
        },
        {
          "format": "short",
          "logBase": 1,
          "max": 1,
          "min": 0,
          "show": false
        }
      ]
    },
    {
      "collapse": false,
      "collapsed": false,
      "gridPos": {
        "h": 1,
        "w": 24,
        "x": 0,
        "y": 1000
      },
      "id": 5,
      "panels": [

      ],
      "repeat": null,
      "repeatIteration": null,
      "repeatRowId": null,
      "showTitle": true,
      "title": "🔬 Regional SLIs",
      "titleSize": "h6",
      "type": "row"
    },
    {
      "bars": false,
      "dashLength": 10,
      "dashes": false,
      "datasource": "$PROMETHEUS_DS",
      "decimals": 2,
      "description": "Error rates are a measure of unhandled service exceptions per second. Client errors are excluded when possible. Lower is better",
      "fill": 0,
      "fillGradient": 0,
      "gridPos": {
        "h": 8,
        "w": 8,
        "x": 0,
        "y": 1001
      },
      "id": 3255520955,
      "legend": {
        "alignAsTable": true,
        "avg": true,
        "current": true,
        "hideEmpty": true,
        "max": true,
        "min": true,
        "rightSide": false,
        "show": true,
        "total": false,
        "values": true
      },
      "lines": true,
      "linewidth": 1,
      "nullPointMode": "null",
      "options": {
        "dataLinks": [
          {
            "targetBlank": true,
            "title": "loadbalancer SLI Error-Rate SLO Analysis",
            "url": "/d/alerts-regional_component_slo_error?${__url_time_range}&${__all_variables}&var-component=loadbalancer&var-type=web-pages&var-stage=$stage"
          }
        ]
      },
      "percentage": false,
      "pointradius": 5,
      "points": false,
      "renderer": "flot",
      "seriesOverrides": [
        {
          "alias": "6h Degradation SLO (5% of monthly error budget)",
          "color": "#FF4500",
          "dashLength": 4,
          "dashes": true,
          "legend": true,
          "lines": true,
          "linewidth": 2,
          "nullPointMode": "connected",
          "spaceLength": 10,
          "zindex": -2
        },
        {
          "alias": "1h Outage SLO (2% of monthly error budget)",
          "color": "#F2495C",
          "dashLength": 4,
          "dashes": true,
          "legend": true,
          "lines": true,
          "linewidth": 4,
          "nullPointMode": "connected",
          "spaceLength": 4,
          "zindex": -2
        }
      ],
      "spaceLength": 10,
      "stableId": "sli-loadbalancer-error-rate",
      "stack": false,
      "steppedLine": false,
      "targets": [
        {
          "expr": "clamp_max(\n  max_over_time(gitlab_regional_sli_errors:ratio_5m{component=\"loadbalancer\",env=\"$environment\",environment=\"$environment\",monitor=\"global\",stage=\"$stage\",type=\"web-pages\"}[$__interval])\n,\n  1\n)\n",
          "format": "time_series",
          "interval": "1m",
          "intervalFactor": 1,
          "legendFormat": "{{ region }} error ratio",
          "refId": "A"
        },
        {
          "expr": "(6 * avg(slo:max:events:gitlab_service_errors:ratio{component=\"loadbalancer\",monitor=\"global\",type=\"web-pages\"})\n)\n",
          "format": "time_series",
          "interval": "5m",
          "intervalFactor": 1,
          "legendFormat": "6h Degradation SLO (5% of monthly error budget)",
          "refId": "B"
        },
        {
          "expr": "(14.4 * avg(slo:max:events:gitlab_service_errors:ratio{component=\"loadbalancer\",monitor=\"global\",type=\"web-pages\"})\n)\n",
          "format": "time_series",
          "interval": "5m",
          "intervalFactor": 1,
          "legendFormat": "1h Outage SLO (2% of monthly error budget)",
          "refId": "C"
        }
      ],
      "title": "loadbalancer SLI Error Ratio",
      "tooltip": {
        "shared": true,
        "sort": 2,
        "value_type": "individual"
      },
      "type": "graph",
      "xaxis": {
        "mode": "time",
        "show": true
      },
      "yaxes": [
        {
          "format": "percentunit",
          "label": "Error %",
          "logBase": 1,
          "min": 0,
          "show": true
        },
        {
          "format": "short",
          "logBase": 1,
          "max": 1,
          "min": 0,
          "show": false
        }
      ]
    },
    {
      "bars": false,
      "dashLength": 10,
      "dashes": false,
      "datasource": "$PROMETHEUS_DS",
      "decimals": 2,
      "description": "The operation rate is the sum total of all requests being handle for all components within this service. Note that a single user request can lead to requests to multiple components. Higher is busier.",
      "fill": 0,
      "fillGradient": 0,
      "gridPos": {
        "h": 8,
        "w": 8,
        "x": 8,
        "y": 1001
      },
      "id": 138982496,
      "legend": {
        "alignAsTable": true,
        "avg": true,
        "current": true,
        "hideEmpty": true,
        "max": true,
        "min": true,
        "rightSide": false,
        "show": true,
        "total": false,
        "values": true
      },
      "lines": true,
      "linewidth": 1,
      "nullPointMode": "null",
      "percentage": false,
      "pointradius": 5,
      "points": false,
      "renderer": "flot",
      "spaceLength": 10,
      "stableId": "sli-loadbalancer-ops-rate",
      "stack": false,
      "steppedLine": false,
      "targets": [
        {
          "expr": "avg_over_time(gitlab_regional_sli_ops:rate_5m{component=\"loadbalancer\",env=\"$environment\",environment=\"$environment\",monitor=\"global\",stage=\"$stage\",type=\"web-pages\"}[$__interval])\n",
          "format": "time_series",
          "interval": "1m",
          "intervalFactor": 1,
          "legendFormat": "{{ region }} RPS",
          "refId": "A"
        }
      ],
      "title": "loadbalancer SLI RPS - Requests per Second",
      "tooltip": {
        "shared": true,
        "sort": 2,
        "value_type": "individual"
      },
      "type": "graph",
      "xaxis": {
        "mode": "time",
        "show": true
      },
      "yaxes": [
        {
          "format": "short",
          "label": "Operations per Second",
          "logBase": 1,
          "min": 0,
          "show": true
        },
        {
          "format": "short",
          "logBase": 1,
          "max": 1,
          "min": 0,
          "show": false
        }
      ]
    },
    {
      "content": "### Description\n\nMeasures aggregated HTTP request traffic through the HAProxy.\n5xx responses are considered to be failures.\n\n",
      "gridPos": {
        "h": 8,
        "w": 8,
        "x": 16,
        "y": 1001
      },
      "id": 8,
      "mode": "markdown",
      "title": "Details",
      "type": "text"
    },
    {
      "bars": false,
      "dashLength": 10,
      "dashes": false,
      "datasource": "$PROMETHEUS_DS",
      "decimals": 2,
      "description": "Error rates are a measure of unhandled service exceptions per second. Client errors are excluded when possible. Lower is better",
      "fill": 0,
      "fillGradient": 0,
      "gridPos": {
        "h": 8,
        "w": 8,
        "x": 0,
        "y": 1011
      },
      "id": 2962826191,
      "legend": {
        "alignAsTable": true,
        "avg": true,
        "current": true,
        "hideEmpty": true,
        "max": true,
        "min": true,
        "rightSide": false,
        "show": true,
        "total": false,
        "values": true
      },
      "lines": true,
      "linewidth": 1,
      "nullPointMode": "null",
      "options": {
        "dataLinks": [
          {
            "targetBlank": true,
            "title": "loadbalancer_https SLI Error-Rate SLO Analysis",
            "url": "/d/alerts-regional_component_slo_error?${__url_time_range}&${__all_variables}&var-component=loadbalancer_https&var-type=web-pages&var-stage=$stage"
          }
        ]
      },
      "percentage": false,
      "pointradius": 5,
      "points": false,
      "renderer": "flot",
      "seriesOverrides": [
        {
          "alias": "6h Degradation SLO (5% of monthly error budget)",
          "color": "#FF4500",
          "dashLength": 4,
          "dashes": true,
          "legend": true,
          "lines": true,
          "linewidth": 2,
          "nullPointMode": "connected",
          "spaceLength": 10,
          "zindex": -2
        },
        {
          "alias": "1h Outage SLO (2% of monthly error budget)",
          "color": "#F2495C",
          "dashLength": 4,
          "dashes": true,
          "legend": true,
          "lines": true,
          "linewidth": 4,
          "nullPointMode": "connected",
          "spaceLength": 4,
          "zindex": -2
        }
      ],
      "spaceLength": 10,
      "stableId": "sli-loadbalancer_https-error-rate",
      "stack": false,
      "steppedLine": false,
      "targets": [
        {
          "expr": "clamp_max(\n  max_over_time(gitlab_regional_sli_errors:ratio_5m{component=\"loadbalancer_https\",env=\"$environment\",environment=\"$environment\",monitor=\"global\",stage=\"$stage\",type=\"web-pages\"}[$__interval])\n,\n  1\n)\n",
          "format": "time_series",
          "interval": "1m",
          "intervalFactor": 1,
          "legendFormat": "{{ region }} error ratio",
          "refId": "A"
        },
        {
          "expr": "(6 * avg(slo:max:events:gitlab_service_errors:ratio{component=\"loadbalancer_https\",monitor=\"global\",type=\"web-pages\"})\n)\n",
          "format": "time_series",
          "interval": "5m",
          "intervalFactor": 1,
          "legendFormat": "6h Degradation SLO (5% of monthly error budget)",
          "refId": "B"
        },
        {
          "expr": "(14.4 * avg(slo:max:events:gitlab_service_errors:ratio{component=\"loadbalancer_https\",monitor=\"global\",type=\"web-pages\"})\n)\n",
          "format": "time_series",
          "interval": "5m",
          "intervalFactor": 1,
          "legendFormat": "1h Outage SLO (2% of monthly error budget)",
          "refId": "C"
        }
      ],
      "title": "loadbalancer_https SLI Error Ratio",
      "tooltip": {
        "shared": true,
        "sort": 2,
        "value_type": "individual"
      },
      "type": "graph",
      "xaxis": {
        "mode": "time",
        "show": true
      },
      "yaxes": [
        {
          "format": "percentunit",
          "label": "Error %",
          "logBase": 1,
          "min": 0,
          "show": true
        },
        {
          "format": "short",
          "logBase": 1,
          "max": 1,
          "min": 0,
          "show": false
        }
      ]
    },
    {
      "bars": false,
      "dashLength": 10,
      "dashes": false,
      "datasource": "$PROMETHEUS_DS",
      "decimals": 2,
      "description": "The operation rate is the sum total of all requests being handle for all components within this service. Note that a single user request can lead to requests to multiple components. Higher is busier.",
      "fill": 0,
      "fillGradient": 0,
      "gridPos": {
        "h": 8,
        "w": 8,
        "x": 8,
        "y": 1011
      },
      "id": 2234251543,
      "legend": {
        "alignAsTable": true,
        "avg": true,
        "current": true,
        "hideEmpty": true,
        "max": true,
        "min": true,
        "rightSide": false,
        "show": true,
        "total": false,
        "values": true
      },
      "lines": true,
      "linewidth": 1,
      "nullPointMode": "null",
      "percentage": false,
      "pointradius": 5,
      "points": false,
      "renderer": "flot",
      "spaceLength": 10,
      "stableId": "sli-loadbalancer_https-ops-rate",
      "stack": false,
      "steppedLine": false,
      "targets": [
        {
          "expr": "avg_over_time(gitlab_regional_sli_ops:rate_5m{component=\"loadbalancer_https\",env=\"$environment\",environment=\"$environment\",monitor=\"global\",stage=\"$stage\",type=\"web-pages\"}[$__interval])\n",
          "format": "time_series",
          "interval": "1m",
          "intervalFactor": 1,
          "legendFormat": "{{ region }} RPS",
          "refId": "A"
        }
      ],
      "title": "loadbalancer_https SLI RPS - Requests per Second",
      "tooltip": {
        "shared": true,
        "sort": 2,
        "value_type": "individual"
      },
      "type": "graph",
      "xaxis": {
        "mode": "time",
        "show": true
      },
      "yaxes": [
        {
          "format": "short",
          "label": "Operations per Second",
          "logBase": 1,
          "min": 0,
          "show": true
        },
        {
          "format": "short",
          "logBase": 1,
          "max": 1,
          "min": 0,
          "show": false
        }
      ]
    },
    {
      "content": "### Description\n\nMeasures aggregated L4 traffic through the HAProxy. Traffic is measured in TCP connections,\nwith upstream TCP connection failures being treated as service-level failures.\n\n",
      "gridPos": {
        "h": 8,
        "w": 8,
        "x": 16,
        "y": 1011
      },
      "id": 11,
      "mode": "markdown",
      "title": "Details",
      "type": "text"
    },
    {
      "bars": false,
      "dashLength": 10,
      "dashes": false,
      "datasource": "$PROMETHEUS_DS",
      "decimals": 2,
      "description": "Apdex is a measure of requests that complete within a tolerable period of time for the service. Higher is better.",
      "fill": 0,
      "fillGradient": 0,
      "gridPos": {
        "h": 8,
        "w": 6,
        "x": 0,
        "y": 1021
      },
      "id": 3021154949,
      "legend": {
        "alignAsTable": true,
        "avg": true,
        "current": true,
        "hideEmpty": true,
        "max": true,
        "min": true,
        "rightSide": false,
        "show": true,
        "total": false,
        "values": true
      },
      "lines": true,
      "linewidth": 1,
      "nullPointMode": "null",
      "options": {
        "dataLinks": [
          {
            "targetBlank": true,
            "title": "web_pages_server SLI Apdex SLO Analysis",
            "url": "/d/alerts-regional_component_slo_apdex?${__url_time_range}&${__all_variables}&var-component=web_pages_server&var-type=web-pages&var-stage=$stage"
          }
        ]
      },
      "percentage": false,
      "pointradius": 5,
      "points": false,
      "renderer": "flot",
      "seriesOverrides": [
        {
          "alias": "6h Degradation SLO (5% of monthly error budget)",
          "color": "#FF4500",
          "dashLength": 4,
          "dashes": true,
          "legend": true,
          "lines": true,
          "linewidth": 2,
          "nullPointMode": "connected",
          "spaceLength": 10,
          "zindex": -2
        },
        {
          "alias": "1h Outage SLO (2% of monthly error budget)",
          "color": "#F2495C",
          "dashLength": 4,
          "dashes": true,
          "legend": true,
          "lines": true,
          "linewidth": 4,
          "nullPointMode": "connected",
          "spaceLength": 4,
          "zindex": -2
        },
        {
          "alias": "SLO",
          "color": "#FF4500",
          "dashLength": 4,
          "dashes": true,
          "legend": true,
          "lines": true,
          "linewidth": 4,
          "nullPointMode": "connected",
          "spaceLength": 4,
          "zindex": -2
        }
      ],
      "spaceLength": 10,
      "stableId": "sli-web_pages_server-apdex",
      "stack": false,
      "steppedLine": false,
      "targets": [
        {
          "expr": "min_over_time(gitlab_regional_sli_apdex:ratio_5m{component=\"web_pages_server\",env=\"$environment\",environment=\"$environment\",monitor=\"global\",stage=\"$stage\",type=\"web-pages\"}[$__interval])\n",
          "format": "time_series",
          "interval": "1m",
          "intervalFactor": 1,
          "legendFormat": "{{ region }} apdex",
          "refId": "A"
        },
        {
          "expr": "(1 - 6 * (1 - avg(slo:min:events:gitlab_service_apdex:ratio{component=\"web_pages_server\",monitor=\"global\",type=\"web-pages\"})\n))\n",
          "format": "time_series",
          "interval": "5m",
          "intervalFactor": 1,
          "legendFormat": "6h Degradation SLO (5% of monthly error budget)",
          "refId": "B"
        },
        {
          "expr": "(1 - 14.4 * (1 - avg(slo:min:events:gitlab_service_apdex:ratio{component=\"web_pages_server\",monitor=\"global\",type=\"web-pages\"})\n))\n",
          "format": "time_series",
          "interval": "5m",
          "intervalFactor": 1,
          "legendFormat": "1h Outage SLO (2% of monthly error budget)",
          "refId": "C"
        }
      ],
      "title": "web_pages_server SLI Apdex",
      "tooltip": {
        "shared": true,
        "sort": 1,
        "value_type": "individual"
      },
      "type": "graph",
      "xaxis": {
        "mode": "time",
        "show": true
      },
      "yaxes": [
        {
          "format": "percentunit",
          "label": "Apdex %",
          "logBase": 1,
          "max": 1,
          "show": true
        },
        {
          "format": "short",
          "logBase": 1,
          "max": 1,
          "min": 0,
          "show": false
        }
      ]
    },
    {
      "bars": false,
      "dashLength": 10,
      "dashes": false,
      "datasource": "$PROMETHEUS_DS",
      "decimals": 2,
      "description": "Error rates are a measure of unhandled service exceptions per second. Client errors are excluded when possible. Lower is better",
      "fill": 0,
      "fillGradient": 0,
      "gridPos": {
        "h": 8,
        "w": 6,
        "x": 6,
        "y": 1021
      },
      "id": 3548056209,
      "legend": {
        "alignAsTable": true,
        "avg": true,
        "current": true,
        "hideEmpty": true,
        "max": true,
        "min": true,
        "rightSide": false,
        "show": true,
        "total": false,
        "values": true
      },
      "lines": true,
      "linewidth": 1,
      "nullPointMode": "null",
      "options": {
        "dataLinks": [
          {
            "targetBlank": true,
            "title": "web_pages_server SLI Error-Rate SLO Analysis",
            "url": "/d/alerts-regional_component_slo_error?${__url_time_range}&${__all_variables}&var-component=web_pages_server&var-type=web-pages&var-stage=$stage"
          }
        ]
      },
      "percentage": false,
      "pointradius": 5,
      "points": false,
      "renderer": "flot",
      "seriesOverrides": [
        {
          "alias": "6h Degradation SLO (5% of monthly error budget)",
          "color": "#FF4500",
          "dashLength": 4,
          "dashes": true,
          "legend": true,
          "lines": true,
          "linewidth": 2,
          "nullPointMode": "connected",
          "spaceLength": 10,
          "zindex": -2
        },
        {
          "alias": "1h Outage SLO (2% of monthly error budget)",
          "color": "#F2495C",
          "dashLength": 4,
          "dashes": true,
          "legend": true,
          "lines": true,
          "linewidth": 4,
          "nullPointMode": "connected",
          "spaceLength": 4,
          "zindex": -2
        }
      ],
      "spaceLength": 10,
      "stableId": "sli-web_pages_server-error-rate",
      "stack": false,
      "steppedLine": false,
      "targets": [
        {
          "expr": "clamp_max(\n  max_over_time(gitlab_regional_sli_errors:ratio_5m{component=\"web_pages_server\",env=\"$environment\",environment=\"$environment\",monitor=\"global\",stage=\"$stage\",type=\"web-pages\"}[$__interval])\n,\n  1\n)\n",
          "format": "time_series",
          "interval": "1m",
          "intervalFactor": 1,
          "legendFormat": "{{ region }} error ratio",
          "refId": "A"
        },
        {
          "expr": "(6 * avg(slo:max:events:gitlab_service_errors:ratio{component=\"web_pages_server\",monitor=\"global\",type=\"web-pages\"})\n)\n",
          "format": "time_series",
          "interval": "5m",
          "intervalFactor": 1,
          "legendFormat": "6h Degradation SLO (5% of monthly error budget)",
          "refId": "B"
        },
        {
          "expr": "(14.4 * avg(slo:max:events:gitlab_service_errors:ratio{component=\"web_pages_server\",monitor=\"global\",type=\"web-pages\"})\n)\n",
          "format": "time_series",
          "interval": "5m",
          "intervalFactor": 1,
          "legendFormat": "1h Outage SLO (2% of monthly error budget)",
          "refId": "C"
        }
      ],
      "title": "web_pages_server SLI Error Ratio",
      "tooltip": {
        "shared": true,
        "sort": 2,
        "value_type": "individual"
      },
      "type": "graph",
      "xaxis": {
        "mode": "time",
        "show": true
      },
      "yaxes": [
        {
          "format": "percentunit",
          "label": "Error %",
          "logBase": 1,
          "min": 0,
          "show": true
        },
        {
          "format": "short",
          "logBase": 1,
          "max": 1,
          "min": 0,
          "show": false
        }
      ]
    },
    {
      "bars": false,
      "dashLength": 10,
      "dashes": false,
      "datasource": "$PROMETHEUS_DS",
      "decimals": 2,
      "description": "The operation rate is the sum total of all requests being handle for all components within this service. Note that a single user request can lead to requests to multiple components. Higher is busier.",
      "fill": 0,
      "fillGradient": 0,
      "gridPos": {
        "h": 8,
        "w": 6,
        "x": 12,
        "y": 1021
      },
      "id": 3767940412,
      "legend": {
        "alignAsTable": true,
        "avg": true,
        "current": true,
        "hideEmpty": true,
        "max": true,
        "min": true,
        "rightSide": false,
        "show": true,
        "total": false,
        "values": true
      },
      "lines": true,
      "linewidth": 1,
      "nullPointMode": "null",
      "percentage": false,
      "pointradius": 5,
      "points": false,
      "renderer": "flot",
      "spaceLength": 10,
      "stableId": "sli-web_pages_server-ops-rate",
      "stack": false,
      "steppedLine": false,
      "targets": [
        {
          "expr": "avg_over_time(gitlab_regional_sli_ops:rate_5m{component=\"web_pages_server\",env=\"$environment\",environment=\"$environment\",monitor=\"global\",stage=\"$stage\",type=\"web-pages\"}[$__interval])\n",
          "format": "time_series",
          "interval": "1m",
          "intervalFactor": 1,
          "legendFormat": "{{ region }} RPS",
          "refId": "A"
        }
      ],
      "title": "web_pages_server SLI RPS - Requests per Second",
      "tooltip": {
        "shared": true,
        "sort": 2,
        "value_type": "individual"
      },
      "type": "graph",
      "xaxis": {
        "mode": "time",
        "show": true
      },
      "yaxes": [
        {
          "format": "short",
          "label": "Operations per Second",
          "logBase": 1,
          "min": 0,
          "show": true
        },
        {
          "format": "short",
          "logBase": 1,
          "max": 1,
          "min": 0,
          "show": false
        }
      ]
    },
    {
      "content": "### Description\n\nResponse time can be slow due to large files served by pages.\nThis SLI tracks only time needed to finish writing headers.\nIt includes API requests to GitLab instance, scanning ZIP archive\nfor file entries, processing redirects, etc.\nWe use it as stricter SLI for pages as it's independent of served file size\n\n\n\n### Observability Tools\n\n* [Google Stackdriver Continuous Profiling](https://console.cloud.google.com/profiler;timespan=4h/gitlab-pages;type=CPU/cpu?project=gitlab-production)\n* [🐞 Sentry Releases: gitlab/gitlab-pages](https://sentry.gitlab.net/gitlab/gitlab-pages/releases?environment=${environment})\n* [🐞 Sentry issues](https://sentry.gitlab.net/gitlab/gitlab-pages/issues?environment=${environment})\n* [📖 Kibana: GitLab Pages logs](https://log.gprd.gitlab.net/app/kibana#/discover?_a=(columns:!(json.hostname,json.pages_domain,json.host,json.pages_host,json.path,json.remote_ip,json.duration_ms),filters:!((meta:(index:'AWRaEscWMdvjVyaYlI-L',key:json.stage,params:'$stage',type:phrase),query:(match:(json.stage:(query:'$stage',type:phrase)))),(meta:(index:'AWRaEscWMdvjVyaYlI-L',key:json.type,params:'web-pages',type:phrase),query:(match:(json.type:(query:'web-pages',type:phrase))))),index:'AWRaEscWMdvjVyaYlI-L')&_g=(time:(from:'${__from:date:iso}',to:'${__to:date:iso}')))\n* [📖 Kibana: GitLab Pages failed request logs](https://log.gprd.gitlab.net/app/kibana#/discover?_a=(columns:!(json.hostname,json.pages_domain,json.host,json.pages_host,json.path,json.remote_ip,json.duration_ms),filters:!((meta:(index:'AWRaEscWMdvjVyaYlI-L',key:json.stage,params:'$stage',type:phrase),query:(match:(json.stage:(query:'$stage',type:phrase)))),(meta:(index:'AWRaEscWMdvjVyaYlI-L',key:json.type,params:'web-pages',type:phrase),query:(match:(json.type:(query:'web-pages',type:phrase)))),(meta:(field:json.status,index:'AWRaEscWMdvjVyaYlI-L',key:json.status,params:(gte:500,lte:!n),type:range),query:(range:(json.status:(gte:500,lte:!n))))),index:'AWRaEscWMdvjVyaYlI-L')&_g=(time:(from:'${__from:date:iso}',to:'${__to:date:iso}')))\n* [📈 Kibana: GitLab Pages requests](https://log.gprd.gitlab.net/app/kibana#/visualize/create?type=line&indexPattern=AWRaEscWMdvjVyaYlI-L&_a=(filters:!((meta:(index:'AWRaEscWMdvjVyaYlI-L',key:json.stage,params:'$stage',type:phrase),query:(match:(json.stage:(query:'$stage',type:phrase)))),(meta:(index:'AWRaEscWMdvjVyaYlI-L',key:json.type,params:'web-pages',type:phrase),query:(match:(json.type:(query:'web-pages',type:phrase))))),query:(language:kuery,query:''),vis:(aggs:!((enabled:!t,id:'1',params:(),schema:metric,type:count),(enabled:!t,id:'2',params:(drop_partials:!t,extended_bounds:(),field:json.time,interval:auto,min_doc_count:1,scaleMetricValues:!f,timeRange:(from:'${__from:date:iso}',to:'${__to:date:iso}'),useNormalizedEsInterval:!t),schema:segment,type:date_histogram))))&_g=(time:(from:'${__from:date:iso}',to:'${__to:date:iso}')))\n* [📈 Kibana: GitLab Pages failed requests](https://log.gprd.gitlab.net/app/kibana#/visualize/create?type=line&indexPattern=AWRaEscWMdvjVyaYlI-L&_a=(filters:!((meta:(index:'AWRaEscWMdvjVyaYlI-L',key:json.stage,params:'$stage',type:phrase),query:(match:(json.stage:(query:'$stage',type:phrase)))),(meta:(index:'AWRaEscWMdvjVyaYlI-L',key:json.type,params:'web-pages',type:phrase),query:(match:(json.type:(query:'web-pages',type:phrase)))),(meta:(field:json.status,index:'AWRaEscWMdvjVyaYlI-L',key:json.status,params:(gte:500,lte:!n),type:range),query:(range:(json.status:(gte:500,lte:!n))))),query:(language:kuery,query:''),vis:(aggs:!((enabled:!t,id:'1',params:(),schema:metric,type:count),(enabled:!t,id:'2',params:(drop_partials:!t,extended_bounds:(),field:json.time,interval:auto,min_doc_count:1,scaleMetricValues:!f,timeRange:(from:'${__from:date:iso}',to:'${__to:date:iso}'),useNormalizedEsInterval:!t),schema:segment,type:date_histogram))))&_g=(time:(from:'${__from:date:iso}',to:'${__to:date:iso}')))\n* [📈 Kibana: GitLab Pages sum latency aggregated](https://log.gprd.gitlab.net/app/kibana#/visualize/create?type=line&indexPattern=AWRaEscWMdvjVyaYlI-L&_a=(filters:!((meta:(index:'AWRaEscWMdvjVyaYlI-L',key:json.stage,params:'$stage',type:phrase),query:(match:(json.stage:(query:'$stage',type:phrase)))),(meta:(index:'AWRaEscWMdvjVyaYlI-L',key:json.type,params:'web-pages',type:phrase),query:(match:(json.type:(query:'web-pages',type:phrase))))),query:(language:kuery,query:''),vis:(aggs:!((enabled:!t,id:'1',params:(field:json.duration_ms),schema:metric,type:sum),(enabled:!t,id:'2',params:(drop_partials:!t,extended_bounds:(),field:json.time,interval:auto,min_doc_count:1,scaleMetricValues:!f,timeRange:(from:'${__from:date:iso}',to:'${__to:date:iso}'),useNormalizedEsInterval:!t),schema:segment,type:date_histogram)),params:(valueAxes:!((id:'ValueAxis-1',labels:(filter:!t,rotate:0,show:!t,truncate:100),name:'LeftAxis-1',position:left,scale:(mode:normal,type:linear),show:!t,style:(),title:(text:'Sum+Request+Duration:+json.duration_ms'),type:value)))))&_g=(time:(from:'${__from:date:iso}',to:'${__to:date:iso}')))\n* [📈 Kibana: GitLab Pages sum latency aggregated (split)](https://log.gprd.gitlab.net/app/kibana#/visualize/create?type=line&indexPattern=AWRaEscWMdvjVyaYlI-L&_a=(filters:!((meta:(index:'AWRaEscWMdvjVyaYlI-L',key:json.stage,params:'$stage',type:phrase),query:(match:(json.stage:(query:'$stage',type:phrase)))),(meta:(index:'AWRaEscWMdvjVyaYlI-L',key:json.type,params:'web-pages',type:phrase),query:(match:(json.type:(query:'web-pages',type:phrase))))),query:(language:kuery,query:''),vis:(aggs:!((enabled:!t,id:'1',params:(field:json.duration_ms),schema:metric,type:sum),(enabled:!t,id:'2',params:(drop_partials:!t,extended_bounds:(),field:json.time,interval:auto,min_doc_count:1,scaleMetricValues:!f,timeRange:(from:'${__from:date:iso}',to:'${__to:date:iso}'),useNormalizedEsInterval:!t),schema:segment,type:date_histogram),(enabled:!t,id:'3',params:(field:json.pages_host.keyword,missingBucket:!f,missingBucketLabel:Missing,order:desc,orderBy:'1',otherBucket:!t,otherBucketLabel:Other,size:5),schema:group,type:terms)),params:(valueAxes:!((id:'ValueAxis-1',labels:(filter:!t,rotate:0,show:!t,truncate:100),name:'LeftAxis-1',position:left,scale:(mode:normal,type:linear),show:!t,style:(),title:(text:'Sum+Request+Duration:+json.duration_ms'),type:value)))))&_g=(time:(from:'${__from:date:iso}',to:'${__to:date:iso}')))\n* [📈 Kibana: GitLab Pages percentile latency aggregated](https://log.gprd.gitlab.net/app/kibana#/visualize/create?type=line&indexPattern=AWRaEscWMdvjVyaYlI-L&_a=(filters:!((meta:(index:'AWRaEscWMdvjVyaYlI-L',key:json.stage,params:'$stage',type:phrase),query:(match:(json.stage:(query:'$stage',type:phrase)))),(meta:(index:'AWRaEscWMdvjVyaYlI-L',key:json.type,params:'web-pages',type:phrase),query:(match:(json.type:(query:'web-pages',type:phrase))))),query:(language:kuery,query:''),vis:(aggs:!((enabled:!t,id:'1',params:(field:json.duration_ms,percents:!(95)),schema:metric,type:percentiles),(enabled:!t,id:'2',params:(drop_partials:!t,extended_bounds:(),field:json.time,interval:auto,min_doc_count:1,scaleMetricValues:!f,timeRange:(from:'${__from:date:iso}',to:'${__to:date:iso}'),useNormalizedEsInterval:!t),schema:segment,type:date_histogram)),params:(valueAxes:!((id:'ValueAxis-1',labels:(filter:!t,rotate:0,show:!t,truncate:100),name:'LeftAxis-1',position:left,scale:(mode:normal,type:linear),show:!t,style:(),title:(text:'p95+Request+Duration:+json.duration_ms'),type:value)))))&_g=(time:(from:'${__from:date:iso}',to:'${__to:date:iso}')))\n* [📈 Kibana: GitLab Pages percentile latency aggregated (split)](https://log.gprd.gitlab.net/app/kibana#/visualize/create?type=line&indexPattern=AWRaEscWMdvjVyaYlI-L&_a=(filters:!((meta:(index:'AWRaEscWMdvjVyaYlI-L',key:json.stage,params:'$stage',type:phrase),query:(match:(json.stage:(query:'$stage',type:phrase)))),(meta:(index:'AWRaEscWMdvjVyaYlI-L',key:json.type,params:'web-pages',type:phrase),query:(match:(json.type:(query:'web-pages',type:phrase))))),query:(language:kuery,query:''),vis:(aggs:!((enabled:!t,id:'1',params:(field:json.duration_ms,percents:!(95)),schema:metric,type:percentiles),(enabled:!t,id:'2',params:(drop_partials:!t,extended_bounds:(),field:json.time,interval:auto,min_doc_count:1,scaleMetricValues:!f,timeRange:(from:'${__from:date:iso}',to:'${__to:date:iso}'),useNormalizedEsInterval:!t),schema:segment,type:date_histogram),(enabled:!t,id:'3',params:(field:json.pages_host.keyword,missingBucket:!f,missingBucketLabel:Missing,order:desc,orderAgg:(enabled:!t,id:'3-orderAgg',params:(field:json.duration_ms),schema:orderAgg,type:sum),orderBy:custom,otherBucket:!t,otherBucketLabel:Other,size:5),schema:group,type:terms)),params:(valueAxes:!((id:'ValueAxis-1',labels:(filter:!t,rotate:0,show:!t,truncate:100),name:'LeftAxis-1',position:left,scale:(mode:normal,type:linear),show:!t,style:(),title:(text:'p95+Request+Duration:+json.duration_ms'),type:value)))))&_g=(time:(from:'${__from:date:iso}',to:'${__to:date:iso}')))\n\n",
      "gridPos": {
        "h": 8,
        "w": 6,
        "x": 18,
        "y": 1021
      },
      "id": 15,
      "mode": "markdown",
      "title": "Details",
      "type": "text"
    },
    {
      "content": "Made with ❤️ and [Grafonnet](https://github.com/grafana/grafonnet-lib). [Contribute to this dashboard on GitLab.com](https://gitlab.com/gitlab-com/runbooks/blob/master/dashboards)\n",
      "datasource": null,
      "gridPos": {
        "h": 2,
        "w": 24,
        "x": 0,
        "y": 110000
      },
      "id": 16,
      "mode": "markdown",
      "title": "Source",
      "type": "text"
    }
  ],
  "refresh": "",
  "rows": [

  ],
  "schemaVersion": 16,
  "style": "light",
  "tags": [
    "managed",
    "web-pages",
    "type:web-pages",
    "regional"
  ],
  "templating": {
    "list": [
      {
        "current": {
          "text": "Global",
          "value": "Global"
        },
        "hide": 0,
        "label": null,
        "name": "PROMETHEUS_DS",
        "options": [

        ],
        "query": "prometheus",
        "refresh": 1,
        "regex": "",
        "type": "datasource"
      },
      {
        "allValue": null,
        "current": {
          "text": "gprd",
          "value": "gprd"
        },
        "datasource": "$PROMETHEUS_DS",
        "hide": 0,
        "includeAll": false,
        "label": null,
        "multi": false,
        "name": "environment",
        "options": [

        ],
        "query": "label_values(gitlab_service_ops:rate, environment)",
        "refresh": 1,
        "regex": "",
        "sort": 1,
        "tagValuesQuery": "",
        "tags": [

        ],
        "tagsQuery": "",
        "type": "query",
        "useTags": false
      },
      {
        "allValue": null,
        "current": {
          "text": "main",
          "value": "main"
        },
        "hide": 0,
        "includeAll": false,
        "label": "",
        "multi": false,
        "name": "stage",
        "options": [
          {
            "text": "main",
            "value": "main"
          },
          {
            "text": "cny",
            "value": "cny"
          },
          {
            "text": "",
            "value": ""
          }
        ],
        "query": "main,cny,",
        "refresh": 0,
        "type": "custom"
      }
    ]
  },
  "time": {
    "from": "now-6h/m",
    "to": "now/m"
  },
  "timepicker": {
    "refresh_intervals": [
      "1m",
      "5m",
      "10m",
      "15m",
      "30m"
    ],
    "time_options": [
      "5m",
      "15m",
      "1h",
      "6h",
      "12h",
      "24h",
      "2d",
      "7d",
      "30d"
    ]
  },
  "timezone": "utc",
  "title": "web-pages: Regional Detail",
  "uid": "web-pages-regional",
  "version": 1942
}