{
  "__inputs": [

  ],
  "__requires": [

  ],
  "annotations": {
    "list": [
      {
        "builtIn": 1,
        "datasource": "-- Grafana --",
        "enable": true,
        "hide": false,
        "iconColor": "#96D98D",
        "name": "deploy",
        "showIn": 0,
        "tags": [
          "deploy",
          "$environment"
        ],
        "type": "tags"
      },
      {
        "builtIn": 1,
        "datasource": "-- Grafana --",
        "enable": false,
        "hide": false,
        "iconColor": "#FFEE52",
        "name": "canary-deploy",
        "showIn": 0,
        "tags": [
          "deploy",
          "${environment}-cny"
        ],
        "type": "tags"
      },
      {
        "builtIn": 1,
        "datasource": "-- Grafana --",
        "enable": false,
        "hide": false,
        "iconColor": "#CA95E5",
        "name": "feature-flags",
        "showIn": 0,
        "tags": [
          "feature-flag",
          "${environment}"
        ],
        "type": "tags"
      }
    ]
  },
  "description": "Uploaded by https://gitlab.com/gitlab-com/runbooks/-/jobs/5007602057 at Mon Sep  4 05:56:33 UTC 2023",
  "editable": false,
  "gnetId": null,
  "graphTooltip": 1,
  "hideControls": false,
  "id": null,
  "links": [

  ],
  "panels": [
    {
      "bars": false,
      "dashLength": 10,
      "dashes": false,
      "datasource": "$PROMETHEUS_DS",
      "decimals": 2,
      "description": "Apdex is a measure of requests that complete within a tolerable period of time for the service. Higher is better.",
      "fill": 0,
      "fillGradient": 0,
      "gridPos": {
        "h": 8,
        "w": 8,
        "x": 0,
        "y": 10
      },
      "id": 3255447090,
      "legend": {
        "alignAsTable": true,
        "avg": true,
        "current": true,
        "hideEmpty": true,
        "max": true,
        "min": true,
        "rightSide": false,
        "show": true,
        "total": false,
        "values": true
      },
      "lines": true,
      "linewidth": 1,
      "nullPointMode": "null",
      "options": {
        "dataLinks": [
          {
            "targetBlank": true,
            "title": "Regional Service Aggregated  Apdex SLO Analysis",
            "url": "/d/alerts-service_regional_slo_apdex?${__url_time_range}&${__all_variables}&var-type=websockets&var-stage=$stage"
          }
        ]
      },
      "percentage": false,
      "pointradius": 5,
      "points": false,
      "renderer": "flot",
      "seriesOverrides": [
        {
          "alias": "6h Degradation SLO (5% of monthly error budget)",
          "color": "#FF4500",
          "dashLength": 4,
          "dashes": true,
          "legend": true,
          "lines": true,
          "linewidth": 2,
          "nullPointMode": "connected",
          "spaceLength": 10,
          "zindex": -2
        },
        {
          "alias": "1h Outage SLO (2% of monthly error budget)",
          "color": "#F2495C",
          "dashLength": 4,
          "dashes": true,
          "legend": true,
          "lines": true,
          "linewidth": 4,
          "nullPointMode": "connected",
          "spaceLength": 4,
          "zindex": -2
        },
        {
          "alias": "SLO",
          "color": "#FF4500",
          "dashLength": 4,
          "dashes": true,
          "legend": true,
          "lines": true,
          "linewidth": 4,
          "nullPointMode": "connected",
          "spaceLength": 4,
          "zindex": -2
        }
      ],
      "spaceLength": 10,
      "stableId": "service-regional-websockets-apdex",
      "stack": false,
      "steppedLine": false,
      "targets": [
        {
          "expr": "min_over_time(gitlab_service_regional_apdex:ratio_5m{env=\"$environment\",environment=\"$environment\",monitor=\"global\",stage=\"$stage\",type=\"websockets\"}[$__interval])\n",
          "format": "time_series",
          "interval": "1m",
          "intervalFactor": 1,
          "legendFormat": "{{ region }} apdex",
          "refId": "A"
        },
        {
          "expr": "(1 - 6 * (1 - avg(slo:min:events:gitlab_service_apdex:ratio{component=\"\",monitor=\"global\",type=\"websockets\"})\n))\n",
          "format": "time_series",
          "interval": "5m",
          "intervalFactor": 1,
          "legendFormat": "6h Degradation SLO (5% of monthly error budget)",
          "refId": "B"
        },
        {
          "expr": "(1 - 14.4 * (1 - avg(slo:min:events:gitlab_service_apdex:ratio{component=\"\",monitor=\"global\",type=\"websockets\"})\n))\n",
          "format": "time_series",
          "interval": "5m",
          "intervalFactor": 1,
          "legendFormat": "1h Outage SLO (2% of monthly error budget)",
          "refId": "C"
        }
      ],
      "title": "Regional Service Aggregated  Apdex",
      "tooltip": {
        "shared": true,
        "sort": 1,
        "value_type": "individual"
      },
      "type": "graph",
      "xaxis": {
        "mode": "time",
        "show": true
      },
      "yaxes": [
        {
          "format": "percentunit",
          "label": "Apdex %",
          "logBase": 1,
          "max": 1,
          "show": true
        },
        {
          "format": "short",
          "logBase": 1,
          "max": 1,
          "min": 0,
          "show": false
        }
      ]
    },
    {
      "bars": false,
      "dashLength": 10,
      "dashes": false,
      "datasource": "$PROMETHEUS_DS",
      "decimals": 2,
      "description": "Error rates are a measure of unhandled service exceptions per second. Client errors are excluded when possible. Lower is better",
      "fill": 0,
      "fillGradient": 0,
      "gridPos": {
        "h": 8,
        "w": 8,
        "x": 8,
        "y": 10
      },
      "id": 102746393,
      "legend": {
        "alignAsTable": true,
        "avg": true,
        "current": true,
        "hideEmpty": true,
        "max": true,
        "min": true,
        "rightSide": false,
        "show": true,
        "total": false,
        "values": true
      },
      "lines": true,
      "linewidth": 1,
      "nullPointMode": "null",
      "options": {
        "dataLinks": [
          {
            "targetBlank": true,
            "title": "Regional Service Aggregated  Error-Rate SLO Analysis",
            "url": "/d/alerts-service_regional_slo_error?${__url_time_range}&${__all_variables}&var-type=websockets&var-stage=$stage"
          }
        ]
      },
      "percentage": false,
      "pointradius": 5,
      "points": false,
      "renderer": "flot",
      "seriesOverrides": [
        {
          "alias": "6h Degradation SLO (5% of monthly error budget)",
          "color": "#FF4500",
          "dashLength": 4,
          "dashes": true,
          "legend": true,
          "lines": true,
          "linewidth": 2,
          "nullPointMode": "connected",
          "spaceLength": 10,
          "zindex": -2
        },
        {
          "alias": "1h Outage SLO (2% of monthly error budget)",
          "color": "#F2495C",
          "dashLength": 4,
          "dashes": true,
          "legend": true,
          "lines": true,
          "linewidth": 4,
          "nullPointMode": "connected",
          "spaceLength": 4,
          "zindex": -2
        }
      ],
      "spaceLength": 10,
      "stableId": "service-regional-websockets-error-rate",
      "stack": false,
      "steppedLine": false,
      "targets": [
        {
          "expr": "clamp_max(\n  max_over_time(gitlab_service_regional_errors:ratio_5m{env=\"$environment\",environment=\"$environment\",monitor=\"global\",stage=\"$stage\",type=\"websockets\"}[$__interval])\n,\n  1\n)\n",
          "format": "time_series",
          "interval": "1m",
          "intervalFactor": 1,
          "legendFormat": "{{ region }} error ratio",
          "refId": "A"
        },
        {
          "expr": "(6 * avg(slo:max:events:gitlab_service_errors:ratio{component=\"\",monitor=\"global\",type=\"websockets\"})\n)\n",
          "format": "time_series",
          "interval": "5m",
          "intervalFactor": 1,
          "legendFormat": "6h Degradation SLO (5% of monthly error budget)",
          "refId": "B"
        },
        {
          "expr": "(14.4 * avg(slo:max:events:gitlab_service_errors:ratio{component=\"\",monitor=\"global\",type=\"websockets\"})\n)\n",
          "format": "time_series",
          "interval": "5m",
          "intervalFactor": 1,
          "legendFormat": "1h Outage SLO (2% of monthly error budget)",
          "refId": "C"
        }
      ],
      "title": "Regional Service Aggregated  Error Ratio",
      "tooltip": {
        "shared": true,
        "sort": 2,
        "value_type": "individual"
      },
      "type": "graph",
      "xaxis": {
        "mode": "time",
        "show": true
      },
      "yaxes": [
        {
          "format": "percentunit",
          "label": "Error %",
          "logBase": 1,
          "min": 0,
          "show": true
        },
        {
          "format": "short",
          "logBase": 1,
          "max": 1,
          "min": 0,
          "show": false
        }
      ]
    },
    {
      "bars": false,
      "dashLength": 10,
      "dashes": false,
      "datasource": "$PROMETHEUS_DS",
      "decimals": 2,
      "description": "The operation rate is the sum total of all requests being handle for all components within this service. Note that a single user request can lead to requests to multiple components. Higher is busier.",
      "fill": 0,
      "fillGradient": 0,
      "gridPos": {
        "h": 8,
        "w": 8,
        "x": 16,
        "y": 10
      },
      "id": 4070810429,
      "legend": {
        "alignAsTable": true,
        "avg": true,
        "current": true,
        "hideEmpty": true,
        "max": true,
        "min": true,
        "rightSide": false,
        "show": true,
        "total": false,
        "values": true
      },
      "lines": true,
      "linewidth": 1,
      "nullPointMode": "null",
      "percentage": false,
      "pointradius": 5,
      "points": false,
      "renderer": "flot",
      "spaceLength": 10,
      "stableId": "service-regional-websockets-ops-rate",
      "stack": false,
      "steppedLine": false,
      "targets": [
        {
          "expr": "avg_over_time(gitlab_service_regional_ops:rate_5m{env=\"$environment\",environment=\"$environment\",monitor=\"global\",stage=\"$stage\",type=\"websockets\"}[$__interval])\n",
          "format": "time_series",
          "interval": "1m",
          "intervalFactor": 1,
          "legendFormat": "{{ region }} RPS",
          "refId": "A"
        }
      ],
      "title": "Regional Service Aggregated  RPS - Requests per Second",
      "tooltip": {
        "shared": true,
        "sort": 2,
        "value_type": "individual"
      },
      "type": "graph",
      "xaxis": {
        "mode": "time",
        "show": true
      },
      "yaxes": [
        {
          "format": "short",
          "label": "Operations per Second",
          "logBase": 1,
          "min": 0,
          "show": true
        },
        {
          "format": "short",
          "logBase": 1,
          "max": 1,
          "min": 0,
          "show": false
        }
      ]
    },
    {
      "collapse": false,
      "collapsed": false,
      "gridPos": {
        "h": 1,
        "w": 24,
        "x": 0,
        "y": 1000
      },
      "id": 5,
      "panels": [

      ],
      "repeat": null,
      "repeatIteration": null,
      "repeatRowId": null,
      "showTitle": true,
      "title": "🔬 Regional SLIs",
      "titleSize": "h6",
      "type": "row"
    },
    {
      "bars": false,
      "dashLength": 10,
      "dashes": false,
      "datasource": "$PROMETHEUS_DS",
      "decimals": 2,
      "description": "Error rates are a measure of unhandled service exceptions per second. Client errors are excluded when possible. Lower is better",
      "fill": 0,
      "fillGradient": 0,
      "gridPos": {
        "h": 8,
        "w": 8,
        "x": 0,
        "y": 1001
      },
      "id": 3255520955,
      "legend": {
        "alignAsTable": true,
        "avg": true,
        "current": true,
        "hideEmpty": true,
        "max": true,
        "min": true,
        "rightSide": false,
        "show": true,
        "total": false,
        "values": true
      },
      "lines": true,
      "linewidth": 1,
      "nullPointMode": "null",
      "options": {
        "dataLinks": [
          {
            "targetBlank": true,
            "title": "loadbalancer SLI Error-Rate SLO Analysis",
            "url": "/d/alerts-regional_component_slo_error?${__url_time_range}&${__all_variables}&var-component=loadbalancer&var-type=websockets&var-stage=$stage"
          }
        ]
      },
      "percentage": false,
      "pointradius": 5,
      "points": false,
      "renderer": "flot",
      "seriesOverrides": [
        {
          "alias": "6h Degradation SLO (5% of monthly error budget)",
          "color": "#FF4500",
          "dashLength": 4,
          "dashes": true,
          "legend": true,
          "lines": true,
          "linewidth": 2,
          "nullPointMode": "connected",
          "spaceLength": 10,
          "zindex": -2
        },
        {
          "alias": "1h Outage SLO (2% of monthly error budget)",
          "color": "#F2495C",
          "dashLength": 4,
          "dashes": true,
          "legend": true,
          "lines": true,
          "linewidth": 4,
          "nullPointMode": "connected",
          "spaceLength": 4,
          "zindex": -2
        }
      ],
      "spaceLength": 10,
      "stableId": "sli-loadbalancer-error-rate",
      "stack": false,
      "steppedLine": false,
      "targets": [
        {
          "expr": "clamp_max(\n  max_over_time(gitlab_regional_sli_errors:ratio_5m{component=\"loadbalancer\",env=\"$environment\",environment=\"$environment\",monitor=\"global\",stage=\"$stage\",type=\"websockets\"}[$__interval])\n,\n  1\n)\n",
          "format": "time_series",
          "interval": "1m",
          "intervalFactor": 1,
          "legendFormat": "{{ region }} error ratio",
          "refId": "A"
        },
        {
          "expr": "(6 * avg(slo:max:events:gitlab_service_errors:ratio{component=\"loadbalancer\",monitor=\"global\",type=\"websockets\"})\n)\n",
          "format": "time_series",
          "interval": "5m",
          "intervalFactor": 1,
          "legendFormat": "6h Degradation SLO (5% of monthly error budget)",
          "refId": "B"
        },
        {
          "expr": "(14.4 * avg(slo:max:events:gitlab_service_errors:ratio{component=\"loadbalancer\",monitor=\"global\",type=\"websockets\"})\n)\n",
          "format": "time_series",
          "interval": "5m",
          "intervalFactor": 1,
          "legendFormat": "1h Outage SLO (2% of monthly error budget)",
          "refId": "C"
        }
      ],
      "title": "loadbalancer SLI Error Ratio",
      "tooltip": {
        "shared": true,
        "sort": 2,
        "value_type": "individual"
      },
      "type": "graph",
      "xaxis": {
        "mode": "time",
        "show": true
      },
      "yaxes": [
        {
          "format": "percentunit",
          "label": "Error %",
          "logBase": 1,
          "min": 0,
          "show": true
        },
        {
          "format": "short",
          "logBase": 1,
          "max": 1,
          "min": 0,
          "show": false
        }
      ]
    },
    {
      "bars": false,
      "dashLength": 10,
      "dashes": false,
      "datasource": "$PROMETHEUS_DS",
      "decimals": 2,
      "description": "The operation rate is the sum total of all requests being handle for all components within this service. Note that a single user request can lead to requests to multiple components. Higher is busier.",
      "fill": 0,
      "fillGradient": 0,
      "gridPos": {
        "h": 8,
        "w": 8,
        "x": 8,
        "y": 1001
      },
      "id": 138982496,
      "legend": {
        "alignAsTable": true,
        "avg": true,
        "current": true,
        "hideEmpty": true,
        "max": true,
        "min": true,
        "rightSide": false,
        "show": true,
        "total": false,
        "values": true
      },
      "lines": true,
      "linewidth": 1,
      "nullPointMode": "null",
      "percentage": false,
      "pointradius": 5,
      "points": false,
      "renderer": "flot",
      "spaceLength": 10,
      "stableId": "sli-loadbalancer-ops-rate",
      "stack": false,
      "steppedLine": false,
      "targets": [
        {
          "expr": "avg_over_time(gitlab_regional_sli_ops:rate_5m{component=\"loadbalancer\",env=\"$environment\",environment=\"$environment\",monitor=\"global\",stage=\"$stage\",type=\"websockets\"}[$__interval])\n",
          "format": "time_series",
          "interval": "1m",
          "intervalFactor": 1,
          "legendFormat": "{{ region }} RPS",
          "refId": "A"
        }
      ],
      "title": "loadbalancer SLI RPS - Requests per Second",
      "tooltip": {
        "shared": true,
        "sort": 2,
        "value_type": "individual"
      },
      "type": "graph",
      "xaxis": {
        "mode": "time",
        "show": true
      },
      "yaxes": [
        {
          "format": "short",
          "label": "Operations per Second",
          "logBase": 1,
          "min": 0,
          "show": true
        },
        {
          "format": "short",
          "logBase": 1,
          "max": 1,
          "min": 0,
          "show": false
        }
      ]
    },
    {
      "content": "### Description\n\nMeasures aggregated HTTP request traffic through the HAProxy.\n5xx responses are considered to be failures.\n\n",
      "gridPos": {
        "h": 8,
        "w": 8,
        "x": 16,
        "y": 1001
      },
      "id": 8,
      "mode": "markdown",
      "title": "Details",
      "type": "text"
    },
    {
      "bars": false,
      "dashLength": 10,
      "dashes": false,
      "datasource": "$PROMETHEUS_DS",
      "decimals": 2,
      "description": "Apdex is a measure of requests that complete within a tolerable period of time for the service. Higher is better.",
      "fill": 0,
      "fillGradient": 0,
      "gridPos": {
        "h": 8,
        "w": 6,
        "x": 0,
        "y": 1011
      },
      "id": 495984175,
      "legend": {
        "alignAsTable": true,
        "avg": true,
        "current": true,
        "hideEmpty": true,
        "max": true,
        "min": true,
        "rightSide": false,
        "show": true,
        "total": false,
        "values": true
      },
      "lines": true,
      "linewidth": 1,
      "nullPointMode": "null",
      "options": {
        "dataLinks": [
          {
            "targetBlank": true,
            "title": "rails_request SLI Apdex SLO Analysis",
            "url": "/d/alerts-regional_component_slo_apdex?${__url_time_range}&${__all_variables}&var-component=rails_request&var-type=websockets&var-stage=$stage"
          }
        ]
      },
      "percentage": false,
      "pointradius": 5,
      "points": false,
      "renderer": "flot",
      "seriesOverrides": [
        {
          "alias": "6h Degradation SLO (5% of monthly error budget)",
          "color": "#FF4500",
          "dashLength": 4,
          "dashes": true,
          "legend": true,
          "lines": true,
          "linewidth": 2,
          "nullPointMode": "connected",
          "spaceLength": 10,
          "zindex": -2
        },
        {
          "alias": "1h Outage SLO (2% of monthly error budget)",
          "color": "#F2495C",
          "dashLength": 4,
          "dashes": true,
          "legend": true,
          "lines": true,
          "linewidth": 4,
          "nullPointMode": "connected",
          "spaceLength": 4,
          "zindex": -2
        },
        {
          "alias": "SLO",
          "color": "#FF4500",
          "dashLength": 4,
          "dashes": true,
          "legend": true,
          "lines": true,
          "linewidth": 4,
          "nullPointMode": "connected",
          "spaceLength": 4,
          "zindex": -2
        }
      ],
      "spaceLength": 10,
      "stableId": "sli-rails_request-apdex",
      "stack": false,
      "steppedLine": false,
      "targets": [
        {
          "expr": "min_over_time(gitlab_regional_sli_apdex:ratio_5m{component=\"rails_request\",env=\"$environment\",environment=\"$environment\",monitor=\"global\",stage=\"$stage\",type=\"websockets\"}[$__interval])\n",
          "format": "time_series",
          "interval": "1m",
          "intervalFactor": 1,
          "legendFormat": "{{ region }} apdex",
          "refId": "A"
        },
        {
          "expr": "(1 - 6 * (1 - avg(slo:min:events:gitlab_service_apdex:ratio{component=\"rails_request\",monitor=\"global\",type=\"websockets\"})\n))\n",
          "format": "time_series",
          "interval": "5m",
          "intervalFactor": 1,
          "legendFormat": "6h Degradation SLO (5% of monthly error budget)",
          "refId": "B"
        },
        {
          "expr": "(1 - 14.4 * (1 - avg(slo:min:events:gitlab_service_apdex:ratio{component=\"rails_request\",monitor=\"global\",type=\"websockets\"})\n))\n",
          "format": "time_series",
          "interval": "5m",
          "intervalFactor": 1,
          "legendFormat": "1h Outage SLO (2% of monthly error budget)",
          "refId": "C"
        }
      ],
      "title": "rails_request SLI Apdex",
      "tooltip": {
        "shared": true,
        "sort": 1,
        "value_type": "individual"
      },
      "type": "graph",
      "xaxis": {
        "mode": "time",
        "show": true
      },
      "yaxes": [
        {
          "format": "percentunit",
          "label": "Apdex %",
          "logBase": 1,
          "max": 1,
          "show": true
        },
        {
          "format": "short",
          "logBase": 1,
          "max": 1,
          "min": 0,
          "show": false
        }
      ]
    },
    {
      "bars": false,
      "dashLength": 10,
      "dashes": false,
      "datasource": "$PROMETHEUS_DS",
      "decimals": 2,
      "description": "Error rates are a measure of unhandled service exceptions per second. Client errors are excluded when possible. Lower is better",
      "fill": 0,
      "fillGradient": 0,
      "gridPos": {
        "h": 8,
        "w": 6,
        "x": 6,
        "y": 1011
      },
      "id": 387946920,
      "legend": {
        "alignAsTable": true,
        "avg": true,
        "current": true,
        "hideEmpty": true,
        "max": true,
        "min": true,
        "rightSide": false,
        "show": true,
        "total": false,
        "values": true
      },
      "lines": true,
      "linewidth": 1,
      "nullPointMode": "null",
      "options": {
        "dataLinks": [
          {
            "targetBlank": true,
            "title": "rails_request SLI Error-Rate SLO Analysis",
            "url": "/d/alerts-regional_component_slo_error?${__url_time_range}&${__all_variables}&var-component=rails_request&var-type=websockets&var-stage=$stage"
          }
        ]
      },
      "percentage": false,
      "pointradius": 5,
      "points": false,
      "renderer": "flot",
      "seriesOverrides": [
        {
          "alias": "6h Degradation SLO (5% of monthly error budget)",
          "color": "#FF4500",
          "dashLength": 4,
          "dashes": true,
          "legend": true,
          "lines": true,
          "linewidth": 2,
          "nullPointMode": "connected",
          "spaceLength": 10,
          "zindex": -2
        },
        {
          "alias": "1h Outage SLO (2% of monthly error budget)",
          "color": "#F2495C",
          "dashLength": 4,
          "dashes": true,
          "legend": true,
          "lines": true,
          "linewidth": 4,
          "nullPointMode": "connected",
          "spaceLength": 4,
          "zindex": -2
        }
      ],
      "spaceLength": 10,
      "stableId": "sli-rails_request-error-rate",
      "stack": false,
      "steppedLine": false,
      "targets": [
        {
          "expr": "clamp_max(\n  max_over_time(gitlab_regional_sli_errors:ratio_5m{component=\"rails_request\",env=\"$environment\",environment=\"$environment\",monitor=\"global\",stage=\"$stage\",type=\"websockets\"}[$__interval])\n,\n  1\n)\n",
          "format": "time_series",
          "interval": "1m",
          "intervalFactor": 1,
          "legendFormat": "{{ region }} error ratio",
          "refId": "A"
        },
        {
          "expr": "(6 * avg(slo:max:events:gitlab_service_errors:ratio{component=\"rails_request\",monitor=\"global\",type=\"websockets\"})\n)\n",
          "format": "time_series",
          "interval": "5m",
          "intervalFactor": 1,
          "legendFormat": "6h Degradation SLO (5% of monthly error budget)",
          "refId": "B"
        },
        {
          "expr": "(14.4 * avg(slo:max:events:gitlab_service_errors:ratio{component=\"rails_request\",monitor=\"global\",type=\"websockets\"})\n)\n",
          "format": "time_series",
          "interval": "5m",
          "intervalFactor": 1,
          "legendFormat": "1h Outage SLO (2% of monthly error budget)",
          "refId": "C"
        }
      ],
      "title": "rails_request SLI Error Ratio",
      "tooltip": {
        "shared": true,
        "sort": 2,
        "value_type": "individual"
      },
      "type": "graph",
      "xaxis": {
        "mode": "time",
        "show": true
      },
      "yaxes": [
        {
          "format": "percentunit",
          "label": "Error %",
          "logBase": 1,
          "min": 0,
          "show": true
        },
        {
          "format": "short",
          "logBase": 1,
          "max": 1,
          "min": 0,
          "show": false
        }
      ]
    },
    {
      "bars": false,
      "dashLength": 10,
      "dashes": false,
      "datasource": "$PROMETHEUS_DS",
      "decimals": 2,
      "description": "The operation rate is the sum total of all requests being handle for all components within this service. Note that a single user request can lead to requests to multiple components. Higher is busier.",
      "fill": 0,
      "fillGradient": 0,
      "gridPos": {
        "h": 8,
        "w": 6,
        "x": 12,
        "y": 1011
      },
      "id": 538903447,
      "legend": {
        "alignAsTable": true,
        "avg": true,
        "current": true,
        "hideEmpty": true,
        "max": true,
        "min": true,
        "rightSide": false,
        "show": true,
        "total": false,
        "values": true
      },
      "lines": true,
      "linewidth": 1,
      "nullPointMode": "null",
      "percentage": false,
      "pointradius": 5,
      "points": false,
      "renderer": "flot",
      "spaceLength": 10,
      "stableId": "sli-rails_request-ops-rate",
      "stack": false,
      "steppedLine": false,
      "targets": [
        {
          "expr": "avg_over_time(gitlab_regional_sli_ops:rate_5m{component=\"rails_request\",env=\"$environment\",environment=\"$environment\",monitor=\"global\",stage=\"$stage\",type=\"websockets\"}[$__interval])\n",
          "format": "time_series",
          "interval": "1m",
          "intervalFactor": 1,
          "legendFormat": "{{ region }} RPS",
          "refId": "A"
        }
      ],
      "title": "rails_request SLI RPS - Requests per Second",
      "tooltip": {
        "shared": true,
        "sort": 2,
        "value_type": "individual"
      },
      "type": "graph",
      "xaxis": {
        "mode": "time",
        "show": true
      },
      "yaxes": [
        {
          "format": "short",
          "label": "Operations per Second",
          "logBase": 1,
          "min": 0,
          "show": true
        },
        {
          "format": "short",
          "logBase": 1,
          "max": 1,
          "min": 0,
          "show": false
        }
      ]
    },
    {
      "content": "### Description\n\nThe number of requests meeting their duration target based on the urgency\nof the endpoint. By default, a request should take no more than 1s. But\nthis can be adjusted by endpoint.\n\nRead more about this in the [documentation](https://docs.gitlab.com/ee/development/application_slis/rails_request_apdex.html).\n\n\n\n### Observability Tools\n\n* [📖 Kibana: Rails logs](https://log.gprd.gitlab.net/app/kibana#/discover?_a=(columns:!(json.status,json.method,json.meta.caller_id,json.meta.feature_category,json.path,json.request_urgency,json.duration_s,json.target_duration_s),filters:!((meta:(index:'7092c4e2-4eb5-46f2-8305-a7da2edad090',key:json.subcomponent,negate:!t,params:graphql_json,type:phrase),query:(match:(json.subcomponent:(query:graphql_json,type:phrase)))),(meta:(index:'7092c4e2-4eb5-46f2-8305-a7da2edad090',key:json.stage,params:'$stage',type:phrase),query:(match:(json.stage:(query:'$stage',type:phrase)))),(meta:(index:'7092c4e2-4eb5-46f2-8305-a7da2edad090',key:json.type,params:websockets,type:phrase),query:(match:(json.type:(query:websockets,type:phrase))))),index:'7092c4e2-4eb5-46f2-8305-a7da2edad090')&_g=(time:(from:'${__from:date:iso}',to:'${__to:date:iso}')))\n* [📖 Kibana: Rails slow request logs](https://log.gprd.gitlab.net/app/kibana#/discover?_a=(columns:!(json.status,json.method,json.meta.caller_id,json.meta.feature_category,json.path,json.request_urgency,json.duration_s,json.target_duration_s),filters:!((meta:(index:'7092c4e2-4eb5-46f2-8305-a7da2edad090',key:json.subcomponent,negate:!t,params:graphql_json,type:phrase),query:(match:(json.subcomponent:(query:graphql_json,type:phrase)))),(meta:(index:'7092c4e2-4eb5-46f2-8305-a7da2edad090',key:json.stage,params:'$stage',type:phrase),query:(match:(json.stage:(query:'$stage',type:phrase)))),(meta:(index:'7092c4e2-4eb5-46f2-8305-a7da2edad090',key:json.type,params:websockets,type:phrase),query:(match:(json.type:(query:websockets,type:phrase)))),(meta:(index:'7092c4e2-4eb5-46f2-8305-a7da2edad090',key:exists,type:json.target_duration_s,value:exists),query:(exists:(field:json.target_duration_s))),(meta:(index:'7092c4e2-4eb5-46f2-8305-a7da2edad090',key:exists,type:json.duration_s,value:exists),query:(exists:(field:json.duration_s))),!((meta:(index:'7092c4e2-4eb5-46f2-8305-a7da2edad090',key:query,type:custom,value:'{\"bool\":+{\"minimum_should_match\":+1,+\"should\":+[{\"script\":+{\"script\":+{\"source\":+\"doc[!'json.duration_s!'].value+>+doc[!'json.target_duration_s!'].value\"}}}]}}'),query:(bool:(minimum_should_match:1,should:!((script:(script:(source:'doc[!'json.duration_s!'].value+>+doc[!'json.target_duration_s!'].value'))))))))),index:'7092c4e2-4eb5-46f2-8305-a7da2edad090',sort:!(!(json.duration_s,desc)))&_g=(time:(from:'${__from:date:iso}',to:'${__to:date:iso}')))\n* [📖 Kibana: Rails failed request logs](https://log.gprd.gitlab.net/app/kibana#/discover?_a=(columns:!(json.status,json.method,json.meta.caller_id,json.meta.feature_category,json.path,json.request_urgency,json.duration_s,json.target_duration_s),filters:!((meta:(index:'7092c4e2-4eb5-46f2-8305-a7da2edad090',key:json.subcomponent,negate:!t,params:graphql_json,type:phrase),query:(match:(json.subcomponent:(query:graphql_json,type:phrase)))),(meta:(index:'7092c4e2-4eb5-46f2-8305-a7da2edad090',key:json.stage,params:'$stage',type:phrase),query:(match:(json.stage:(query:'$stage',type:phrase)))),(meta:(index:'7092c4e2-4eb5-46f2-8305-a7da2edad090',key:json.type,params:websockets,type:phrase),query:(match:(json.type:(query:websockets,type:phrase)))),(meta:(field:json.status,index:'7092c4e2-4eb5-46f2-8305-a7da2edad090',key:json.status,params:(gte:500,lte:!n),type:range),query:(range:(json.status:(gte:500,lte:!n))))),index:'7092c4e2-4eb5-46f2-8305-a7da2edad090')&_g=(time:(from:'${__from:date:iso}',to:'${__to:date:iso}')))\n* [📈 Kibana: Rails requests](https://log.gprd.gitlab.net/app/kibana#/visualize/create?type=line&indexPattern=7092c4e2-4eb5-46f2-8305-a7da2edad090&_a=(filters:!((meta:(index:'7092c4e2-4eb5-46f2-8305-a7da2edad090',key:json.subcomponent,negate:!t,params:graphql_json,type:phrase),query:(match:(json.subcomponent:(query:graphql_json,type:phrase)))),(meta:(index:'7092c4e2-4eb5-46f2-8305-a7da2edad090',key:json.stage,params:'$stage',type:phrase),query:(match:(json.stage:(query:'$stage',type:phrase)))),(meta:(index:'7092c4e2-4eb5-46f2-8305-a7da2edad090',key:json.type,params:websockets,type:phrase),query:(match:(json.type:(query:websockets,type:phrase))))),query:(language:kuery,query:''),vis:(aggs:!((enabled:!t,id:'1',params:(),schema:metric,type:count),(enabled:!t,id:'2',params:(drop_partials:!t,extended_bounds:(),field:json.time,interval:auto,min_doc_count:1,scaleMetricValues:!f,timeRange:(from:'${__from:date:iso}',to:'${__to:date:iso}'),useNormalizedEsInterval:!t),schema:segment,type:date_histogram))))&_g=(time:(from:'${__from:date:iso}',to:'${__to:date:iso}')))\n* [📈 Kibana: Rails failed requests](https://log.gprd.gitlab.net/app/kibana#/visualize/create?type=line&indexPattern=7092c4e2-4eb5-46f2-8305-a7da2edad090&_a=(filters:!((meta:(index:'7092c4e2-4eb5-46f2-8305-a7da2edad090',key:json.subcomponent,negate:!t,params:graphql_json,type:phrase),query:(match:(json.subcomponent:(query:graphql_json,type:phrase)))),(meta:(index:'7092c4e2-4eb5-46f2-8305-a7da2edad090',key:json.stage,params:'$stage',type:phrase),query:(match:(json.stage:(query:'$stage',type:phrase)))),(meta:(index:'7092c4e2-4eb5-46f2-8305-a7da2edad090',key:json.type,params:websockets,type:phrase),query:(match:(json.type:(query:websockets,type:phrase)))),(meta:(field:json.status,index:'7092c4e2-4eb5-46f2-8305-a7da2edad090',key:json.status,params:(gte:500,lte:!n),type:range),query:(range:(json.status:(gte:500,lte:!n))))),query:(language:kuery,query:''),vis:(aggs:!((enabled:!t,id:'1',params:(),schema:metric,type:count),(enabled:!t,id:'2',params:(drop_partials:!t,extended_bounds:(),field:json.time,interval:auto,min_doc_count:1,scaleMetricValues:!f,timeRange:(from:'${__from:date:iso}',to:'${__to:date:iso}'),useNormalizedEsInterval:!t),schema:segment,type:date_histogram))))&_g=(time:(from:'${__from:date:iso}',to:'${__to:date:iso}')))\n* [📈 Kibana: Rails sum latency aggregated](https://log.gprd.gitlab.net/app/kibana#/visualize/create?type=line&indexPattern=7092c4e2-4eb5-46f2-8305-a7da2edad090&_a=(filters:!((meta:(index:'7092c4e2-4eb5-46f2-8305-a7da2edad090',key:json.subcomponent,negate:!t,params:graphql_json,type:phrase),query:(match:(json.subcomponent:(query:graphql_json,type:phrase)))),(meta:(index:'7092c4e2-4eb5-46f2-8305-a7da2edad090',key:json.stage,params:'$stage',type:phrase),query:(match:(json.stage:(query:'$stage',type:phrase)))),(meta:(index:'7092c4e2-4eb5-46f2-8305-a7da2edad090',key:json.type,params:websockets,type:phrase),query:(match:(json.type:(query:websockets,type:phrase))))),query:(language:kuery,query:''),vis:(aggs:!((enabled:!t,id:'1',params:(field:json.duration_s),schema:metric,type:sum),(enabled:!t,id:'2',params:(drop_partials:!t,extended_bounds:(),field:json.time,interval:auto,min_doc_count:1,scaleMetricValues:!f,timeRange:(from:'${__from:date:iso}',to:'${__to:date:iso}'),useNormalizedEsInterval:!t),schema:segment,type:date_histogram)),params:(valueAxes:!((id:'ValueAxis-1',labels:(filter:!t,rotate:0,show:!t,truncate:100),name:'LeftAxis-1',position:left,scale:(mode:normal,type:linear),show:!t,style:(),title:(text:'Sum+Request+Duration:+json.duration_s'),type:value)))))&_g=(time:(from:'${__from:date:iso}',to:'${__to:date:iso}')))\n* [📈 Kibana: Rails sum latency aggregated (split)](https://log.gprd.gitlab.net/app/kibana#/visualize/create?type=line&indexPattern=7092c4e2-4eb5-46f2-8305-a7da2edad090&_a=(filters:!((meta:(index:'7092c4e2-4eb5-46f2-8305-a7da2edad090',key:json.subcomponent,negate:!t,params:graphql_json,type:phrase),query:(match:(json.subcomponent:(query:graphql_json,type:phrase)))),(meta:(index:'7092c4e2-4eb5-46f2-8305-a7da2edad090',key:json.stage,params:'$stage',type:phrase),query:(match:(json.stage:(query:'$stage',type:phrase)))),(meta:(index:'7092c4e2-4eb5-46f2-8305-a7da2edad090',key:json.type,params:websockets,type:phrase),query:(match:(json.type:(query:websockets,type:phrase))))),query:(language:kuery,query:''),vis:(aggs:!((enabled:!t,id:'1',params:(field:json.duration_s),schema:metric,type:sum),(enabled:!t,id:'2',params:(drop_partials:!t,extended_bounds:(),field:json.time,interval:auto,min_doc_count:1,scaleMetricValues:!f,timeRange:(from:'${__from:date:iso}',to:'${__to:date:iso}'),useNormalizedEsInterval:!t),schema:segment,type:date_histogram),(enabled:!t,id:'3',params:(field:json.meta.caller_id.keyword,missingBucket:!f,missingBucketLabel:Missing,order:desc,orderBy:'1',otherBucket:!t,otherBucketLabel:Other,size:5),schema:group,type:terms)),params:(valueAxes:!((id:'ValueAxis-1',labels:(filter:!t,rotate:0,show:!t,truncate:100),name:'LeftAxis-1',position:left,scale:(mode:normal,type:linear),show:!t,style:(),title:(text:'Sum+Request+Duration:+json.duration_s'),type:value)))))&_g=(time:(from:'${__from:date:iso}',to:'${__to:date:iso}')))\n* [📈 Kibana: Rails percentile latency aggregated](https://log.gprd.gitlab.net/app/kibana#/visualize/create?type=line&indexPattern=7092c4e2-4eb5-46f2-8305-a7da2edad090&_a=(filters:!((meta:(index:'7092c4e2-4eb5-46f2-8305-a7da2edad090',key:json.subcomponent,negate:!t,params:graphql_json,type:phrase),query:(match:(json.subcomponent:(query:graphql_json,type:phrase)))),(meta:(index:'7092c4e2-4eb5-46f2-8305-a7da2edad090',key:json.stage,params:'$stage',type:phrase),query:(match:(json.stage:(query:'$stage',type:phrase)))),(meta:(index:'7092c4e2-4eb5-46f2-8305-a7da2edad090',key:json.type,params:websockets,type:phrase),query:(match:(json.type:(query:websockets,type:phrase))))),query:(language:kuery,query:''),vis:(aggs:!((enabled:!t,id:'1',params:(field:json.duration_s,percents:!(95)),schema:metric,type:percentiles),(enabled:!t,id:'2',params:(drop_partials:!t,extended_bounds:(),field:json.time,interval:auto,min_doc_count:1,scaleMetricValues:!f,timeRange:(from:'${__from:date:iso}',to:'${__to:date:iso}'),useNormalizedEsInterval:!t),schema:segment,type:date_histogram)),params:(valueAxes:!((id:'ValueAxis-1',labels:(filter:!t,rotate:0,show:!t,truncate:100),name:'LeftAxis-1',position:left,scale:(mode:normal,type:linear),show:!t,style:(),title:(text:'p95+Request+Duration:+json.duration_s'),type:value)))))&_g=(time:(from:'${__from:date:iso}',to:'${__to:date:iso}')))\n* [📈 Kibana: Rails percentile latency aggregated (split)](https://log.gprd.gitlab.net/app/kibana#/visualize/create?type=line&indexPattern=7092c4e2-4eb5-46f2-8305-a7da2edad090&_a=(filters:!((meta:(index:'7092c4e2-4eb5-46f2-8305-a7da2edad090',key:json.subcomponent,negate:!t,params:graphql_json,type:phrase),query:(match:(json.subcomponent:(query:graphql_json,type:phrase)))),(meta:(index:'7092c4e2-4eb5-46f2-8305-a7da2edad090',key:json.stage,params:'$stage',type:phrase),query:(match:(json.stage:(query:'$stage',type:phrase)))),(meta:(index:'7092c4e2-4eb5-46f2-8305-a7da2edad090',key:json.type,params:websockets,type:phrase),query:(match:(json.type:(query:websockets,type:phrase))))),query:(language:kuery,query:''),vis:(aggs:!((enabled:!t,id:'1',params:(field:json.duration_s,percents:!(95)),schema:metric,type:percentiles),(enabled:!t,id:'2',params:(drop_partials:!t,extended_bounds:(),field:json.time,interval:auto,min_doc_count:1,scaleMetricValues:!f,timeRange:(from:'${__from:date:iso}',to:'${__to:date:iso}'),useNormalizedEsInterval:!t),schema:segment,type:date_histogram),(enabled:!t,id:'3',params:(field:json.meta.caller_id.keyword,missingBucket:!f,missingBucketLabel:Missing,order:desc,orderAgg:(enabled:!t,id:'3-orderAgg',params:(field:json.duration_s),schema:orderAgg,type:sum),orderBy:custom,otherBucket:!t,otherBucketLabel:Other,size:5),schema:group,type:terms)),params:(valueAxes:!((id:'ValueAxis-1',labels:(filter:!t,rotate:0,show:!t,truncate:100),name:'LeftAxis-1',position:left,scale:(mode:normal,type:linear),show:!t,style:(),title:(text:'p95+Request+Duration:+json.duration_s'),type:value)))))&_g=(time:(from:'${__from:date:iso}',to:'${__to:date:iso}')))\n\n",
      "gridPos": {
        "h": 8,
        "w": 6,
        "x": 18,
        "y": 1011
      },
      "id": 12,
      "mode": "markdown",
      "title": "Details",
      "type": "text"
    },
    {
      "bars": false,
      "dashLength": 10,
      "dashes": false,
      "datasource": "$PROMETHEUS_DS",
      "decimals": 2,
      "description": "Error rates are a measure of unhandled service exceptions per second. Client errors are excluded when possible. Lower is better",
      "fill": 0,
      "fillGradient": 0,
      "gridPos": {
        "h": 8,
        "w": 8,
        "x": 0,
        "y": 1021
      },
      "id": 2047984749,
      "legend": {
        "alignAsTable": true,
        "avg": true,
        "current": true,
        "hideEmpty": true,
        "max": true,
        "min": true,
        "rightSide": false,
        "show": true,
        "total": false,
        "values": true
      },
      "lines": true,
      "linewidth": 1,
      "nullPointMode": "null",
      "options": {
        "dataLinks": [
          {
            "targetBlank": true,
            "title": "workhorse SLI Error-Rate SLO Analysis",
            "url": "/d/alerts-regional_component_slo_error?${__url_time_range}&${__all_variables}&var-component=workhorse&var-type=websockets&var-stage=$stage"
          }
        ]
      },
      "percentage": false,
      "pointradius": 5,
      "points": false,
      "renderer": "flot",
      "seriesOverrides": [
        {
          "alias": "6h Degradation SLO (5% of monthly error budget)",
          "color": "#FF4500",
          "dashLength": 4,
          "dashes": true,
          "legend": true,
          "lines": true,
          "linewidth": 2,
          "nullPointMode": "connected",
          "spaceLength": 10,
          "zindex": -2
        },
        {
          "alias": "1h Outage SLO (2% of monthly error budget)",
          "color": "#F2495C",
          "dashLength": 4,
          "dashes": true,
          "legend": true,
          "lines": true,
          "linewidth": 4,
          "nullPointMode": "connected",
          "spaceLength": 4,
          "zindex": -2
        }
      ],
      "spaceLength": 10,
      "stableId": "sli-workhorse-error-rate",
      "stack": false,
      "steppedLine": false,
      "targets": [
        {
          "expr": "clamp_max(\n  max_over_time(gitlab_regional_sli_errors:ratio_5m{component=\"workhorse\",env=\"$environment\",environment=\"$environment\",monitor=\"global\",stage=\"$stage\",type=\"websockets\"}[$__interval])\n,\n  1\n)\n",
          "format": "time_series",
          "interval": "1m",
          "intervalFactor": 1,
          "legendFormat": "{{ region }} error ratio",
          "refId": "A"
        },
        {
          "expr": "(6 * avg(slo:max:events:gitlab_service_errors:ratio{component=\"workhorse\",monitor=\"global\",type=\"websockets\"})\n)\n",
          "format": "time_series",
          "interval": "5m",
          "intervalFactor": 1,
          "legendFormat": "6h Degradation SLO (5% of monthly error budget)",
          "refId": "B"
        },
        {
          "expr": "(14.4 * avg(slo:max:events:gitlab_service_errors:ratio{component=\"workhorse\",monitor=\"global\",type=\"websockets\"})\n)\n",
          "format": "time_series",
          "interval": "5m",
          "intervalFactor": 1,
          "legendFormat": "1h Outage SLO (2% of monthly error budget)",
          "refId": "C"
        }
      ],
      "title": "workhorse SLI Error Ratio",
      "tooltip": {
        "shared": true,
        "sort": 2,
        "value_type": "individual"
      },
      "type": "graph",
      "xaxis": {
        "mode": "time",
        "show": true
      },
      "yaxes": [
        {
          "format": "percentunit",
          "label": "Error %",
          "logBase": 1,
          "min": 0,
          "show": true
        },
        {
          "format": "short",
          "logBase": 1,
          "max": 1,
          "min": 0,
          "show": false
        }
      ]
    },
    {
      "bars": false,
      "dashLength": 10,
      "dashes": false,
      "datasource": "$PROMETHEUS_DS",
      "decimals": 2,
      "description": "The operation rate is the sum total of all requests being handle for all components within this service. Note that a single user request can lead to requests to multiple components. Higher is busier.",
      "fill": 0,
      "fillGradient": 0,
      "gridPos": {
        "h": 8,
        "w": 8,
        "x": 8,
        "y": 1021
      },
      "id": 831392945,
      "legend": {
        "alignAsTable": true,
        "avg": true,
        "current": true,
        "hideEmpty": true,
        "max": true,
        "min": true,
        "rightSide": false,
        "show": true,
        "total": false,
        "values": true
      },
      "lines": true,
      "linewidth": 1,
      "nullPointMode": "null",
      "percentage": false,
      "pointradius": 5,
      "points": false,
      "renderer": "flot",
      "spaceLength": 10,
      "stableId": "sli-workhorse-ops-rate",
      "stack": false,
      "steppedLine": false,
      "targets": [
        {
          "expr": "avg_over_time(gitlab_regional_sli_ops:rate_5m{component=\"workhorse\",env=\"$environment\",environment=\"$environment\",monitor=\"global\",stage=\"$stage\",type=\"websockets\"}[$__interval])\n",
          "format": "time_series",
          "interval": "1m",
          "intervalFactor": 1,
          "legendFormat": "{{ region }} RPS",
          "refId": "A"
        }
      ],
      "title": "workhorse SLI RPS - Requests per Second",
      "tooltip": {
        "shared": true,
        "sort": 2,
        "value_type": "individual"
      },
      "type": "graph",
      "xaxis": {
        "mode": "time",
        "show": true
      },
      "yaxes": [
        {
          "format": "short",
          "label": "Operations per Second",
          "logBase": 1,
          "min": 0,
          "show": true
        },
        {
          "format": "short",
          "logBase": 1,
          "max": 1,
          "min": 0,
          "show": false
        }
      ]
    },
    {
      "content": "### Description\n\nMonitors the Workhorse instance running in the Websockets fleet, via the HTTP interface.\nThis only covers the initial protocal upgrade requests to `/-/cable`.\nhttps://gitlab.com/gitlab-org/gitlab/-/issues/296845 tracks making these metrics more useful for Websockets.\n\n\n\n### Observability Tools\n\n* [Google Stackdriver Continuous Profiling](https://console.cloud.google.com/profiler;timespan=4h/workhorse-websockets;type=CPU/cpu?project=gitlab-production)\n* [🐞 Sentry Releases: gitlab/gitlab-workhorse-gitlabcom](https://sentry.gitlab.net/gitlab/gitlab-workhorse-gitlabcom/releases?environment=${environment})\n* [🐞 Sentry issues](https://sentry.gitlab.net/gitlab/gitlab-workhorse-gitlabcom/issues?environment=${environment})\n* [📖 Kibana: Workhorse logs](https://log.gprd.gitlab.net/app/kibana#/discover?_a=(columns:!(json.method,json.remote_ip,json.status,json.uri,json.duration_ms),filters:!((meta:(index:'a4f5b470-edde-11ea-81e5-155ba78758d4',key:json.type.keyword,params:websockets,type:phrase),query:(match:(json.type.keyword:(query:websockets,type:phrase)))),(meta:(index:'a4f5b470-edde-11ea-81e5-155ba78758d4',key:json.stage,params:'$stage',type:phrase),query:(match:(json.stage:(query:'$stage',type:phrase)))),(meta:(index:'a4f5b470-edde-11ea-81e5-155ba78758d4',key:json.type,params:websockets,type:phrase),query:(match:(json.type:(query:websockets,type:phrase))))),index:'a4f5b470-edde-11ea-81e5-155ba78758d4')&_g=(time:(from:'${__from:date:iso}',to:'${__to:date:iso}')))\n* [📖 Kibana: Workhorse slow request logs](https://log.gprd.gitlab.net/app/kibana#/discover?_a=(columns:!(json.method,json.remote_ip,json.status,json.uri,json.duration_ms),filters:!((meta:(index:'a4f5b470-edde-11ea-81e5-155ba78758d4',key:json.type.keyword,params:websockets,type:phrase),query:(match:(json.type.keyword:(query:websockets,type:phrase)))),(meta:(index:'a4f5b470-edde-11ea-81e5-155ba78758d4',key:json.stage,params:'$stage',type:phrase),query:(match:(json.stage:(query:'$stage',type:phrase)))),(meta:(index:'a4f5b470-edde-11ea-81e5-155ba78758d4',key:json.type,params:websockets,type:phrase),query:(match:(json.type:(query:websockets,type:phrase)))),(meta:(field:json.duration_ms,index:'a4f5b470-edde-11ea-81e5-155ba78758d4',key:json.duration_ms,params:(gte:10000,lte:!n),type:range),query:(range:(json.duration_ms:(gte:10000,lte:!n))))),index:'a4f5b470-edde-11ea-81e5-155ba78758d4',sort:!(!(json.duration_ms,desc)))&_g=(time:(from:'${__from:date:iso}',to:'${__to:date:iso}')))\n* [📖 Kibana: Workhorse failed request logs](https://log.gprd.gitlab.net/app/kibana#/discover?_a=(columns:!(json.method,json.remote_ip,json.status,json.uri,json.duration_ms),filters:!((meta:(index:'a4f5b470-edde-11ea-81e5-155ba78758d4',key:json.type.keyword,params:websockets,type:phrase),query:(match:(json.type.keyword:(query:websockets,type:phrase)))),(meta:(index:'a4f5b470-edde-11ea-81e5-155ba78758d4',key:json.stage,params:'$stage',type:phrase),query:(match:(json.stage:(query:'$stage',type:phrase)))),(meta:(index:'a4f5b470-edde-11ea-81e5-155ba78758d4',key:json.type,params:websockets,type:phrase),query:(match:(json.type:(query:websockets,type:phrase)))),(meta:(field:json.status,index:'a4f5b470-edde-11ea-81e5-155ba78758d4',key:json.status,params:(gte:500,lte:!n),type:range),query:(range:(json.status:(gte:500,lte:!n))))),index:'a4f5b470-edde-11ea-81e5-155ba78758d4')&_g=(time:(from:'${__from:date:iso}',to:'${__to:date:iso}')))\n* [📈 Kibana: Workhorse requests](https://log.gprd.gitlab.net/app/kibana#/visualize/create?type=line&indexPattern=a4f5b470-edde-11ea-81e5-155ba78758d4&_a=(filters:!((meta:(index:'a4f5b470-edde-11ea-81e5-155ba78758d4',key:json.type.keyword,params:websockets,type:phrase),query:(match:(json.type.keyword:(query:websockets,type:phrase)))),(meta:(index:'a4f5b470-edde-11ea-81e5-155ba78758d4',key:json.stage,params:'$stage',type:phrase),query:(match:(json.stage:(query:'$stage',type:phrase)))),(meta:(index:'a4f5b470-edde-11ea-81e5-155ba78758d4',key:json.type,params:websockets,type:phrase),query:(match:(json.type:(query:websockets,type:phrase))))),query:(language:kuery,query:''),vis:(aggs:!((enabled:!t,id:'1',params:(),schema:metric,type:count),(enabled:!t,id:'2',params:(drop_partials:!t,extended_bounds:(),field:json.time,interval:auto,min_doc_count:1,scaleMetricValues:!f,timeRange:(from:'${__from:date:iso}',to:'${__to:date:iso}'),useNormalizedEsInterval:!t),schema:segment,type:date_histogram))))&_g=(time:(from:'${__from:date:iso}',to:'${__to:date:iso}')))\n* [📈 Kibana: Workhorse failed requests](https://log.gprd.gitlab.net/app/kibana#/visualize/create?type=line&indexPattern=a4f5b470-edde-11ea-81e5-155ba78758d4&_a=(filters:!((meta:(index:'a4f5b470-edde-11ea-81e5-155ba78758d4',key:json.type.keyword,params:websockets,type:phrase),query:(match:(json.type.keyword:(query:websockets,type:phrase)))),(meta:(index:'a4f5b470-edde-11ea-81e5-155ba78758d4',key:json.stage,params:'$stage',type:phrase),query:(match:(json.stage:(query:'$stage',type:phrase)))),(meta:(index:'a4f5b470-edde-11ea-81e5-155ba78758d4',key:json.type,params:websockets,type:phrase),query:(match:(json.type:(query:websockets,type:phrase)))),(meta:(field:json.status,index:'a4f5b470-edde-11ea-81e5-155ba78758d4',key:json.status,params:(gte:500,lte:!n),type:range),query:(range:(json.status:(gte:500,lte:!n))))),query:(language:kuery,query:''),vis:(aggs:!((enabled:!t,id:'1',params:(),schema:metric,type:count),(enabled:!t,id:'2',params:(drop_partials:!t,extended_bounds:(),field:json.time,interval:auto,min_doc_count:1,scaleMetricValues:!f,timeRange:(from:'${__from:date:iso}',to:'${__to:date:iso}'),useNormalizedEsInterval:!t),schema:segment,type:date_histogram))))&_g=(time:(from:'${__from:date:iso}',to:'${__to:date:iso}')))\n* [📈 Kibana: Workhorse sum latency aggregated](https://log.gprd.gitlab.net/app/kibana#/visualize/create?type=line&indexPattern=a4f5b470-edde-11ea-81e5-155ba78758d4&_a=(filters:!((meta:(index:'a4f5b470-edde-11ea-81e5-155ba78758d4',key:json.type.keyword,params:websockets,type:phrase),query:(match:(json.type.keyword:(query:websockets,type:phrase)))),(meta:(index:'a4f5b470-edde-11ea-81e5-155ba78758d4',key:json.stage,params:'$stage',type:phrase),query:(match:(json.stage:(query:'$stage',type:phrase)))),(meta:(index:'a4f5b470-edde-11ea-81e5-155ba78758d4',key:json.type,params:websockets,type:phrase),query:(match:(json.type:(query:websockets,type:phrase))))),query:(language:kuery,query:''),vis:(aggs:!((enabled:!t,id:'1',params:(field:json.duration_ms),schema:metric,type:sum),(enabled:!t,id:'2',params:(drop_partials:!t,extended_bounds:(),field:json.time,interval:auto,min_doc_count:1,scaleMetricValues:!f,timeRange:(from:'${__from:date:iso}',to:'${__to:date:iso}'),useNormalizedEsInterval:!t),schema:segment,type:date_histogram)),params:(valueAxes:!((id:'ValueAxis-1',labels:(filter:!t,rotate:0,show:!t,truncate:100),name:'LeftAxis-1',position:left,scale:(mode:normal,type:linear),show:!t,style:(),title:(text:'Sum+Request+Duration:+json.duration_ms'),type:value)))))&_g=(time:(from:'${__from:date:iso}',to:'${__to:date:iso}')))\n* [📈 Kibana: Workhorse sum latency aggregated (split)](https://log.gprd.gitlab.net/app/kibana#/visualize/create?type=line&indexPattern=a4f5b470-edde-11ea-81e5-155ba78758d4&_a=(filters:!((meta:(index:'a4f5b470-edde-11ea-81e5-155ba78758d4',key:json.type.keyword,params:websockets,type:phrase),query:(match:(json.type.keyword:(query:websockets,type:phrase)))),(meta:(index:'a4f5b470-edde-11ea-81e5-155ba78758d4',key:json.stage,params:'$stage',type:phrase),query:(match:(json.stage:(query:'$stage',type:phrase)))),(meta:(index:'a4f5b470-edde-11ea-81e5-155ba78758d4',key:json.type,params:websockets,type:phrase),query:(match:(json.type:(query:websockets,type:phrase))))),query:(language:kuery,query:''),vis:(aggs:!((enabled:!t,id:'1',params:(field:json.duration_ms),schema:metric,type:sum),(enabled:!t,id:'2',params:(drop_partials:!t,extended_bounds:(),field:json.time,interval:auto,min_doc_count:1,scaleMetricValues:!f,timeRange:(from:'${__from:date:iso}',to:'${__to:date:iso}'),useNormalizedEsInterval:!t),schema:segment,type:date_histogram),(enabled:!t,id:'3',params:(field:json.remote_ip.keyword,missingBucket:!f,missingBucketLabel:Missing,order:desc,orderBy:'1',otherBucket:!t,otherBucketLabel:Other,size:5),schema:group,type:terms)),params:(valueAxes:!((id:'ValueAxis-1',labels:(filter:!t,rotate:0,show:!t,truncate:100),name:'LeftAxis-1',position:left,scale:(mode:normal,type:linear),show:!t,style:(),title:(text:'Sum+Request+Duration:+json.duration_ms'),type:value)))))&_g=(time:(from:'${__from:date:iso}',to:'${__to:date:iso}')))\n* [📈 Kibana: Workhorse percentile latency aggregated](https://log.gprd.gitlab.net/app/kibana#/visualize/create?type=line&indexPattern=a4f5b470-edde-11ea-81e5-155ba78758d4&_a=(filters:!((meta:(index:'a4f5b470-edde-11ea-81e5-155ba78758d4',key:json.type.keyword,params:websockets,type:phrase),query:(match:(json.type.keyword:(query:websockets,type:phrase)))),(meta:(index:'a4f5b470-edde-11ea-81e5-155ba78758d4',key:json.stage,params:'$stage',type:phrase),query:(match:(json.stage:(query:'$stage',type:phrase)))),(meta:(index:'a4f5b470-edde-11ea-81e5-155ba78758d4',key:json.type,params:websockets,type:phrase),query:(match:(json.type:(query:websockets,type:phrase))))),query:(language:kuery,query:''),vis:(aggs:!((enabled:!t,id:'1',params:(field:json.duration_ms,percents:!(95)),schema:metric,type:percentiles),(enabled:!t,id:'2',params:(drop_partials:!t,extended_bounds:(),field:json.time,interval:auto,min_doc_count:1,scaleMetricValues:!f,timeRange:(from:'${__from:date:iso}',to:'${__to:date:iso}'),useNormalizedEsInterval:!t),schema:segment,type:date_histogram)),params:(valueAxes:!((id:'ValueAxis-1',labels:(filter:!t,rotate:0,show:!t,truncate:100),name:'LeftAxis-1',position:left,scale:(mode:normal,type:linear),show:!t,style:(),title:(text:'p95+Request+Duration:+json.duration_ms'),type:value)))))&_g=(time:(from:'${__from:date:iso}',to:'${__to:date:iso}')))\n* [📈 Kibana: Workhorse percentile latency aggregated (split)](https://log.gprd.gitlab.net/app/kibana#/visualize/create?type=line&indexPattern=a4f5b470-edde-11ea-81e5-155ba78758d4&_a=(filters:!((meta:(index:'a4f5b470-edde-11ea-81e5-155ba78758d4',key:json.type.keyword,params:websockets,type:phrase),query:(match:(json.type.keyword:(query:websockets,type:phrase)))),(meta:(index:'a4f5b470-edde-11ea-81e5-155ba78758d4',key:json.stage,params:'$stage',type:phrase),query:(match:(json.stage:(query:'$stage',type:phrase)))),(meta:(index:'a4f5b470-edde-11ea-81e5-155ba78758d4',key:json.type,params:websockets,type:phrase),query:(match:(json.type:(query:websockets,type:phrase))))),query:(language:kuery,query:''),vis:(aggs:!((enabled:!t,id:'1',params:(field:json.duration_ms,percents:!(95)),schema:metric,type:percentiles),(enabled:!t,id:'2',params:(drop_partials:!t,extended_bounds:(),field:json.time,interval:auto,min_doc_count:1,scaleMetricValues:!f,timeRange:(from:'${__from:date:iso}',to:'${__to:date:iso}'),useNormalizedEsInterval:!t),schema:segment,type:date_histogram),(enabled:!t,id:'3',params:(field:json.remote_ip.keyword,missingBucket:!f,missingBucketLabel:Missing,order:desc,orderAgg:(enabled:!t,id:'3-orderAgg',params:(field:json.duration_ms),schema:orderAgg,type:sum),orderBy:custom,otherBucket:!t,otherBucketLabel:Other,size:5),schema:group,type:terms)),params:(valueAxes:!((id:'ValueAxis-1',labels:(filter:!t,rotate:0,show:!t,truncate:100),name:'LeftAxis-1',position:left,scale:(mode:normal,type:linear),show:!t,style:(),title:(text:'p95+Request+Duration:+json.duration_ms'),type:value)))))&_g=(time:(from:'${__from:date:iso}',to:'${__to:date:iso}')))\n\n",
      "gridPos": {
        "h": 8,
        "w": 8,
        "x": 16,
        "y": 1021
      },
      "id": 15,
      "mode": "markdown",
      "title": "Details",
      "type": "text"
    },
    {
      "content": "Made with ❤️ and [Grafonnet](https://github.com/grafana/grafonnet-lib). [Contribute to this dashboard on GitLab.com](https://gitlab.com/gitlab-com/runbooks/blob/master/dashboards)\n",
      "datasource": null,
      "gridPos": {
        "h": 2,
        "w": 24,
        "x": 0,
        "y": 110000
      },
      "id": 16,
      "mode": "markdown",
      "title": "Source",
      "type": "text"
    }
  ],
  "refresh": "",
  "rows": [

  ],
  "schemaVersion": 16,
  "style": "light",
  "tags": [
    "managed",
    "websockets",
    "type:websockets",
    "regional"
  ],
  "templating": {
    "list": [
      {
        "current": {
          "text": "Global",
          "value": "Global"
        },
        "hide": 0,
        "label": null,
        "name": "PROMETHEUS_DS",
        "options": [

        ],
        "query": "prometheus",
        "refresh": 1,
        "regex": "",
        "type": "datasource"
      },
      {
        "allValue": null,
        "current": {
          "text": "gprd",
          "value": "gprd"
        },
        "datasource": "$PROMETHEUS_DS",
        "hide": 0,
        "includeAll": false,
        "label": null,
        "multi": false,
        "name": "environment",
        "options": [

        ],
        "query": "label_values(gitlab_service_ops:rate, environment)",
        "refresh": 1,
        "regex": "",
        "sort": 1,
        "tagValuesQuery": "",
        "tags": [

        ],
        "tagsQuery": "",
        "type": "query",
        "useTags": false
      },
      {
        "allValue": null,
        "current": {
          "text": "main",
          "value": "main"
        },
        "hide": 0,
        "includeAll": false,
        "label": "",
        "multi": false,
        "name": "stage",
        "options": [
          {
            "text": "main",
            "value": "main"
          },
          {
            "text": "cny",
            "value": "cny"
          },
          {
            "text": "",
            "value": ""
          }
        ],
        "query": "main,cny,",
        "refresh": 0,
        "type": "custom"
      }
    ]
  },
  "time": {
    "from": "now-6h/m",
    "to": "now/m"
  },
  "timepicker": {
    "refresh_intervals": [
      "1m",
      "5m",
      "10m",
      "15m",
      "30m"
    ],
    "time_options": [
      "5m",
      "15m",
      "1h",
      "6h",
      "12h",
      "24h",
      "2d",
      "7d",
      "30d"
    ]
  },
  "timezone": "utc",
  "title": "websockets: Regional Detail",
  "uid": "websockets-regional",
  "version": 2823
}